ideas = {
#################################################
### Head of Government
#################################################
	Head_of_Government = {
	# Benito Mussolini
		ITA_HoG_Benito_Mussolini_2 = {
			picture = Generic_Portrait
			allowed = { tag = ITA }
			visible = {
				date > 1933.1.1
				date < 1964.1.1
				NS_Minister_Allowed = yes
				NOT = { has_country_flag = Benito_Mussolini_unavailable }
			}
			cost = 150
			removal_cost = 10
			traits = { ideology_F HoG_Flamboyant_Tough_Guy }
		}
	# Junio Borghese
		ITA_HoG_Junio_Borghese = {
			picture = Generic_Portrait
			allowed = { tag = ITA }
			visible = {
				date > 1943.1.1
				date < 1964.1.1
				NS_Minister_Allowed = yes
				NOT = { has_country_flag = Junio_Borghese_unavailable }
			}
			cost = 150
			removal_cost = 10
			traits = { ideology_F HoG_Political_Protege }
		}
	# Gabriele d'Annunzio
		ITA_HoG_Gabriele_dAnnunzio = {
			picture = Generic_Portrait
			allowed = { tag = ITA }
			visible = {
				date > 1920.1.1
				date < 1932.1.1
				FA_Minister_Allowed = yes
				NOT = { has_country_flag = Gabriele_dAnnunzio_unavailable }
			}
			cost = 150
			removal_cost = 10
			traits = { ideology_F HoG_Flamboyant_Tough_Guy }
		}
	# Benito Mussolini
		ITA_HoG_Benito_Mussolini_3 = {
			picture = Generic_Portrait
			allowed = { tag = ITA }
			visible = {
				date > 1920.1.1
				date < 1932.1.1
				FA_Minister_Allowed = yes
				NOT = { has_country_flag = Benito_Mussolini_unavailable }
			}
			cost = 150
			removal_cost = 10
			traits = { ideology_F HoG_Flamboyant_Tough_Guy }
		}
	# Benito Mussolini
		ITA_HoG_Benito_Mussolini = {
			picture = Generic_Portrait
			allowed = { tag = ITA }
			visible = {
				date > 1933.1.1
				date < 1964.1.1
				FA_Minister_Allowed = yes
				NOT = { has_country_flag = Benito_Mussolini_unavailable }
			}
			cost = 150
			removal_cost = 10
			traits = { ideology_F HoG_Imperialist_Buffoon }
		}
	# Augusto De Marsanich
		ITA_HoG_Augusto_De_Marsanich = {
			picture = Generic_Portrait
			allowed = { tag = ITA }
			visible = {
				date > 1955.1.1
				date < 1964.1.1
				FA_Minister_Allowed = yes
				NOT = { has_country_flag = Augusto_De_Marsanich_unavailable }
			}
			cost = 150
			removal_cost = 10
			traits = { ideology_F HoG_Silent_Workhorse }
		}
	# Pietro Badoglio
		ITA_HoG_Pietro_Badoglio = {
			picture = Generic_Portrait
			allowed = { tag = ITA }
			visible = {
				date > 1933.1.1
				date < 1964.1.1
				PA_Minister_Allowed = yes
				NOT = { has_country_flag = Pietro_Badoglio_unavailable }
			}
			cost = 150
			removal_cost = 10
			traits = { ideology_A HoG_Old_General }
		}
	# Conde Stefano Jacini
		ITA_HoG_Conde_Stefano_Jacini = {
			picture = Generic_Portrait
			allowed = { tag = ITA }
			visible = {
				date > 1933.1.1
				date < 1964.1.1
				SC_Minister_Allowed = yes
				NOT = { has_country_flag = Conde_Stefano_Jacini_unavailable }
			}
			cost = 150
			removal_cost = 10
			traits = { ideology_D HoG_Happy_Amateur }
		}
	# Alcide de Gasperi
		ITA_HoG_Alcide_de_Gasperi = {
			picture = Generic_Portrait
			allowed = { tag = ITA }
			visible = {
				date > 1933.1.1
				date < 1964.1.1
				SC_Minister_Allowed = yes
				NOT = { has_country_flag = Alcide_de_Gasperi_unavailable }
			}
			cost = 150
			removal_cost = 10
			traits = { ideology_D HoG_Backroom_Backstabber }
		}
	# Giuseppe Pella
		ITA_HoG_Giuseppe_Pella = {
			picture = Generic_Portrait
			allowed = { tag = ITA }
			visible = {
				date > 1945.1.1
				date < 1964.1.1
				SC_Minister_Allowed = yes
				NOT = { has_country_flag = Giuseppe_Pella_unavailable }
			}
			cost = 150
			removal_cost = 10
			traits = { ideology_D HoG_Silent_Workhorse }
		}
	# Luigi Luzzatti
		ITA_HoG_Luigi_Luzzatti = {
			picture = Generic_Portrait
			allowed = { tag = ITA }
			visible = {
				date > 1914.1.1
				date < 1932.1.1
				ML_Minister_Allowed = yes
				NOT = { has_country_flag = Luigi_Luzzatti_unavailable }
			}
			cost = 150
			removal_cost = 10
			traits = { ideology_D HoG_Silent_Workhorse }
		}
	# Luigi Pelloux
		ITA_HoG_Luigi_Pelloux = {
			picture = Generic_Portrait
			allowed = { tag = ITA }
			visible = {
				date > 1914.1.1
				date < 1932.1.1
				ML_Minister_Allowed = yes
				NOT = { has_country_flag = Luigi_Pelloux_unavailable }
			}
			cost = 150
			removal_cost = 10
			traits = { ideology_D HoG_Old_General }
		}
	# Antonio Salandra
		ITA_HoG_Antonio_Salandra = {
			picture = Generic_Portrait
			allowed = { tag = ITA }
			visible = {
				date > 1914.1.1
				date < 1932.1.1
				ML_Minister_Allowed = yes
				NOT = { has_country_flag = Antonio_Salandra_unavailable }
			}
			cost = 150
			removal_cost = 10
			traits = { ideology_D HoG_Flamboyant_Tough_Guy }
		}
	# Sidney Sonnino
		ITA_HoG_Sidney_Sonnino = {
			picture = Generic_Portrait
			allowed = { tag = ITA }
			visible = {
				date > 1914.1.1
				date < 1932.1.1
				ML_Minister_Allowed = yes
				NOT = { has_country_flag = Sidney_Sonnino_unavailable }
			}
			cost = 150
			removal_cost = 10
			traits = { ideology_D HoG_Naive_Optimist }
		}
	# Tommaso Tittoni
		ITA_HoG_Tommaso_Tittoni = {
			picture = Generic_Portrait
			allowed = { tag = ITA }
			visible = {
				date > 1914.1.1
				date < 1932.1.1
				ML_Minister_Allowed = yes
				NOT = { has_country_flag = Tommaso_Tittoni_unavailable }
			}
			cost = 150
			removal_cost = 10
			traits = { ideology_D HoG_Political_Protege }
		}
	# Paolo Boselli
		ITA_HoG_Paolo_Boselli = {
			picture = Generic_Portrait
			allowed = { tag = ITA }
			visible = {
				date > 1916.1.1
				date < 1932.1.1
				ML_Minister_Allowed = yes
				NOT = { has_country_flag = Paolo_Boselli_unavailable }
			}
			cost = 150
			removal_cost = 10
			traits = { ideology_D HoG_Happy_Amateur }
		}
	# Luigi Facta
		ITA_HoG_Luigi_Facta = {
			picture = Generic_Portrait
			allowed = { tag = ITA }
			visible = {
				date > 1922.1.1
				date < 1932.1.1
				ML_Minister_Allowed = yes
				NOT = { has_country_flag = Luigi_Facta_unavailable }
			}
			cost = 150
			removal_cost = 10
			traits = { ideology_D HoG_Smiling_Oilman }
		}
	# Mario Scelba
		ITA_HoG_Mario_Scelba = {
			picture = Generic_Portrait
			allowed = { tag = ITA }
			visible = {
				date > 1954.1.1
				date < 1992.1.1
				ML_Minister_Allowed = yes
				NOT = { has_country_flag = Mario_Scelba_unavailable }
			}
			cost = 150
			removal_cost = 10
			traits = { ideology_D HoG_Old_General }
		}
	# Antonio Segni
		ITA_HoG_Antonio_Segni = {
			picture = Generic_Portrait
			allowed = { tag = ITA }
			visible = {
				date > 1955.1.1
				date < 1973.1.1
				ML_Minister_Allowed = yes
				NOT = { has_country_flag = Antonio_Segni_unavailable }
			}
			cost = 150
			removal_cost = 10
			traits = { ideology_D HoG_Flamboyant_Tough_Guy }
		}
	# Adone Zoli
		ITA_HoG_Adone_Zoli = {
			picture = Generic_Portrait
			allowed = { tag = ITA }
			visible = {
				date > 1957.1.1
				date < 1960.1.1
				ML_Minister_Allowed = yes
				NOT = { has_country_flag = Adone_Zoli_unavailable }
			}
			cost = 150
			removal_cost = 10
			traits = { ideology_D HoG_Political_Protege }
		}
	# Amintore Fanfani
		ITA_HoG_Amintore_Fanfani = {
			picture = Generic_Portrait
			allowed = { tag = ITA }
			visible = {
				date > 1958.1.1
				date < 2000.1.1
				ML_Minister_Allowed = yes
				NOT = { has_country_flag = Amintore_Fanfani_unavailable }
			}
			cost = 150
			removal_cost = 10
			traits = { ideology_D HoG_Corporate_Suit }
		}
	# Aldo Moro
		ITA_HoG_Aldo_Moro = {
			picture = Generic_Portrait
			allowed = { tag = ITA }
			visible = {
				date > 1963.1.1
				date < 1979.1.1
				ML_Minister_Allowed = yes
				NOT = { has_country_flag = Aldo_Moro_unavailable }
			}
			cost = 150
			removal_cost = 10
			traits = { ideology_D HoG_Old_Admiral }
		}
	# Mariano Rumor
		ITA_HoG_Mariano_Rumor = {
			picture = Generic_Portrait
			allowed = { tag = ITA }
			visible = {
				date > 1968.1.1
				date < 1991.1.1
				ML_Minister_Allowed = yes
				NOT = { has_country_flag = Mariano_Rumor_unavailable }
			}
			cost = 150
			removal_cost = 10
			traits = { ideology_D HoG_Old_Airmarshal }
		}
	# Emilio Colombo
		ITA_HoG_Emilio_Colombo = {
			picture = Generic_Portrait
			allowed = { tag = ITA }
			visible = {
				date > 1970.1.1
				date < 2014.1.1
				ML_Minister_Allowed = yes
				NOT = { has_country_flag = Emilio_Colombo_unavailable }
			}
			cost = 150
			removal_cost = 10
			traits = { ideology_D HoG_Old_Airmarshal }
		}
	# Giulio Andreotti
		ITA_HoG_Giulio_Andreotti = {
			picture = Generic_Portrait
			allowed = { tag = ITA }
			visible = {
				date > 1972.1.1
				date < 2014.1.1
				ML_Minister_Allowed = yes
				NOT = { has_country_flag = Giulio_Andreotti_unavailable }
			}
			cost = 150
			removal_cost = 10
			traits = { ideology_D HoG_Ambitious_Union_Boss }
		}
	# Aldo Moro
		ITA_HoG_Aldo_Moro_2 = {
			picture = Generic_Portrait
			allowed = { tag = ITA }
			visible = {
				date > 1974.1.1
				date < 1979.1.1
				ML_Minister_Allowed = yes
				NOT = { has_country_flag = Aldo_Moro_unavailable }
			}
			cost = 150
			removal_cost = 10
			traits = { ideology_D HoG_Smiling_Oilman }
		}
	# Francesco Cossiga
		ITA_HoG_Francesco_Cossiga = {
			picture = Generic_Portrait
			allowed = { tag = ITA }
			visible = {
				date > 1979.1.1
				date < 2011.1.1
				ML_Minister_Allowed = yes
				NOT = { has_country_flag = Francesco_Cossiga_unavailable }
			}
			cost = 150
			removal_cost = 10
			traits = { ideology_D HoG_Silent_Workhorse }
		}
	# Arnaldo Forlani
		ITA_HoG_Arnaldo_Forlani = {
			picture = Generic_Portrait
			allowed = { tag = ITA }
			visible = {
				date > 1980.1.1
				date < 2020.1.1
				ML_Minister_Allowed = yes
				NOT = { has_country_flag = Arnaldo_Forlani_unavailable }
			}
			cost = 150
			removal_cost = 10
			traits = { ideology_D HoG_Political_Protege }
		}
	# Ciriaco De Mita
		ITA_HoG_Ciriaco_De_Mita = {
			picture = Generic_Portrait
			allowed = { tag = ITA }
			visible = {
				date > 1983.1.1
				date < 2020.1.1
				ML_Minister_Allowed = yes
				NOT = { has_country_flag = Ciriaco_De_Mita_unavailable }
			}
			cost = 150
			removal_cost = 10
			traits = { ideology_D HoG_Ambitious_Union_Boss }
		}
	# Giovanni Goria
		ITA_HoG_Giovanni_Goria = {
			picture = Generic_Portrait
			allowed = { tag = ITA }
			visible = {
				date > 1987.1.1
				date < 1995.1.1
				ML_Minister_Allowed = yes
				NOT = { has_country_flag = Giovanni_Goria_unavailable }
			}
			cost = 150
			removal_cost = 10
			traits = { ideology_D HoG_Backroom_Backstabber }
		}
	# Giovanni Giolitti
		ITA_HoG_Giovanni_Giolitti = {
			picture = Generic_Portrait
			allowed = { tag = ITA }
			visible = {
				date > 1914.1.1
				date < 1932.1.1
				SL_Minister_Allowed = yes
				NOT = { has_country_flag = Giovanni_Giolitti_unavailable }
			}
			cost = 150
			removal_cost = 10
			traits = { ideology_D HoG_Flamboyant_Tough_Guy }
		}
	# Vittorio Emanuele Orlando
		ITA_HoG_Vittorio_Emanuele_Orlando = {
			picture = Generic_Portrait
			allowed = { tag = ITA }
			visible = {
				date > 1916.1.1
				date < 1932.1.1
				SL_Minister_Allowed = yes
				NOT = { has_country_flag = Vittorio_Emanuele_Orlando_unavailable }
			}
			cost = 150
			removal_cost = 10
			traits = { ideology_D HoG_Naive_Optimist }
		}
	# Ivanoe Bonomi
		ITA_HoG_Ivanoe_Bonomi = {
			picture = Generic_Portrait
			allowed = { tag = ITA }
			visible = {
				date > 1933.1.1
				date < 1964.1.1
				SL_Minister_Allowed = yes
				NOT = { has_country_flag = Ivanoe_Bonomi_unavailable }
			}
			cost = 150
			removal_cost = 10
			traits = { ideology_D HoG_Silent_Workhorse }
		}
	# Ferruccio Parri
		ITA_HoG_Ferruccio_Parri = {
			picture = Generic_Portrait
			allowed = { tag = ITA }
			visible = {
				date > 1933.1.1
				date < 1964.1.1
				SL_Minister_Allowed = yes
				NOT = { has_country_flag = Ferruccio_Parri_unavailable }
			}
			cost = 150
			removal_cost = 10
			traits = { ideology_D HoG_Naive_Optimist }
		}
	# Giovanni Spadolini
		ITA_HoG_Giovanni_Spadolini = {
			picture = Generic_Portrait
			allowed = { tag = ITA }
			visible = {
				date > 1981.1.1
				date < 1995.1.1
				SL_Minister_Allowed = yes
				NOT = { has_country_flag = Giovanni_Spadolini_unavailable }
			}
			cost = 150
			removal_cost = 10
			traits = { ideology_D HoG_Naive_Optimist }
		}
	# Ivanoe Bonomi
		ITA_HoG_Ivanoe_Bonomi_2 = {
			picture = Generic_Portrait
			allowed = { tag = ITA }
			visible = {
				date > 1921.1.1
				date < 1932.1.1
				SD_Minister_Allowed = yes
				NOT = { has_country_flag = Ivanoe_Bonomi_unavailable }
			}
			cost = 150
			removal_cost = 10
			traits = { ideology_D HoG_Political_Protege }
		}
	# Pietro Nenni
		ITA_HoG_Pietro_Nenni = {
			picture = Generic_Portrait
			allowed = { tag = ITA }
			visible = {
				date > 1946.1.1
				date < 1981.1.1
				SD_Minister_Allowed = yes
				NOT = { has_country_flag = Pietro_Nenni_unavailable }
			}
			cost = 150
			removal_cost = 10
			traits = { ideology_D HoG_Happy_Amateur }
		}
	# Bettino Craxi
		ITA_HoG_Bettino_Craxi = {
			picture = Generic_Portrait
			allowed = { tag = ITA }
			visible = {
				date > 1983.1.1
				date < 2001.1.1
				SD_Minister_Allowed = yes
				NOT = { has_country_flag = Bettino_Craxi_unavailable }
			}
			cost = 150
			removal_cost = 10
			traits = { ideology_D HoG_Imperialist_Buffoon }
		}
	# Francesco Nitti
		ITA_HoG_Francesco_Nitti = {
			picture = Generic_Portrait
			allowed = { tag = ITA }
			visible = {
				date > 1919.1.1
				date < 1932.1.1
				LWR_Minister_Allowed = yes
				NOT = { has_country_flag = Francesco_Nitti_unavailable }
			}
			cost = 150
			removal_cost = 10
			traits = { ideology_S HoG_Ambitious_Union_Boss }
		}
	# Luigi Longo
		ITA_HoG_Luigi_Longo = {
			picture = Generic_Portrait
			allowed = { tag = ITA }
			visible = {
				date > 1933.1.1
				date < 1964.1.1
				LWR_Minister_Allowed = yes
				NOT = { has_country_flag = Luigi_Longo_unavailable }
			}
			cost = 150
			removal_cost = 10
			traits = { ideology_S HoG_Political_Protege }
		}
	# Enrico Berlinguer
		ITA_HoG_Enrico_Berlinguer = {
			picture = Generic_Portrait
			allowed = { tag = ITA }
			visible = {
				date > 1945.1.1
				date < 1985.1.1
				LWR_Minister_Allowed = yes
				NOT = { has_country_flag = Enrico_Berlinguer_unavailable }
			}
			cost = 150
			removal_cost = 10
			traits = { ideology_S HoG_Silent_Workhorse }
		}
	# Palmiro Togliatti
		ITA_HoG_Palmiro_Togliatti = {
			picture = Generic_Portrait
			allowed = { tag = ITA }
			visible = {
				date > 1953.1.1
				date < 1964.1.1
				LWR_Minister_Allowed = yes
				NOT = { has_country_flag = Palmiro_Togliatti_unavailable }
			}
			cost = 150
			removal_cost = 10
			traits = { ideology_S HoG_Silent_Workhorse }
		}
	# Luigi Longo
		ITA_HoG_Luigi_Longo_2 = {
			picture = Generic_Portrait
			allowed = { tag = ITA }
			visible = {
				date > 1968.1.1
				date < 1981.1.1
				LWR_Minister_Allowed = yes
				NOT = { has_country_flag = Luigi_Longo_unavailable }
			}
			cost = 150
			removal_cost = 10
			traits = { ideology_S HoG_Old_Admiral }
		}
	# Giacinto Menotti Serrati
		ITA_HoG_Giacinto_Menotti_Serrati = {
			picture = Generic_Portrait
			allowed = { tag = ITA }
			visible = {
				date > 1914.1.1
				date < 1932.1.1
				ST_Minister_Allowed = yes
				NOT = { has_country_flag = Giacinto_Menotti_Serrati_unavailable }
			}
			cost = 150
			removal_cost = 10
			traits = { ideology_C HoG_Naive_Optimist }
		}
}
#################################################
### Foreign Minister
#################################################
	Foreign_Minister = {
	# Benito Mussolini
		ITA_FM_Benito_Mussolini = {
			picture = Generic_Portrait
			allowed = { tag = ITA }
			visible = {
				date > 1933.1.1
				date < 1964.1.1
				NS_Minister_Allowed = yes
				NOT = { has_country_flag = Benito_Mussolini_unavailable }
			}
			cost = 150
			removal_cost = 10
			traits = { ideology_F FM_Aggressive_Nationalist }
		}
	# Giuseppe Bastianini
		ITA_FM_Giuseppe_Bastianini = {
			picture = Generic_Portrait
			allowed = { tag = ITA }
			visible = {
				date > 1933.1.1
				date < 1964.1.1
				NS_Minister_Allowed = yes
				NOT = { has_country_flag = Giuseppe_Bastianini_unavailable }
			}
			cost = 150
			removal_cost = 10
			traits = { ideology_F FM_Iron_Fisted_Brute }
		}
	# Giorgio Almirante
		ITA_FM_Giorgio_Almirante = {
			picture = Generic_Portrait
			allowed = { tag = ITA }
			visible = {
				date > 1945.1.1
				date < 1964.1.1
				NS_Minister_Allowed = yes
				NOT = { has_country_flag = Giorgio_Almirante_unavailable }
			}
			cost = 150
			removal_cost = 10
			traits = { ideology_F FM_The_Cloak_N_Dagger_Schemer }
		}
	# Gabriele d'Annunzio
		ITA_FM_Gabriele_dAnnunzio = {
			picture = Generic_Portrait
			allowed = { tag = ITA }
			visible = {
				date > 1920.1.1
				date < 1932.1.1
				FA_Minister_Allowed = yes
				NOT = { has_country_flag = Gabriele_dAnnunzio_unavailable }
			}
			cost = 150
			removal_cost = 10
			traits = { ideology_F FM_Iron_Fisted_Brute }
		}
	# Benito Mussolini
		ITA_FM_Benito_Mussolini_2 = {
			picture = Generic_Portrait
			allowed = { tag = ITA }
			visible = {
				date > 1920.1.1
				date < 1932.1.1
				FA_Minister_Allowed = yes
				NOT = { has_country_flag = Benito_Mussolini_unavailable }
			}
			cost = 150
			removal_cost = 10
			traits = { ideology_F FM_Aggressive_Nationalist }
		}
	# Gian Galeazzo Ciano
		ITA_FM_Gian_Galeazzo_Ciano = {
			picture = Generic_Portrait
			allowed = { tag = ITA }
			visible = {
				date > 1933.1.1
				date < 1964.1.1
				FA_Minister_Allowed = yes
				NOT = { has_country_flag = Gian_Galeazzo_Ciano_unavailable }
			}
			cost = 150
			removal_cost = 10
			traits = { ideology_F FM_Fascist_Crusader }
		}
	# Augusto De Marsanich
		ITA_FM_Augusto_De_Marsanich = {
			picture = Generic_Portrait
			allowed = { tag = ITA }
			visible = {
				date > 1944.1.1
				date < 1964.1.1
				FA_Minister_Allowed = yes
				NOT = { has_country_flag = Augusto_De_Marsanich_unavailable }
			}
			cost = 150
			removal_cost = 10
			traits = { ideology_F FM_Great_Compromiser }
		}
	# Pietro Conte Acquarone
		ITA_FM_Pietro_Conte_Acquarone = {
			picture = Generic_Portrait
			allowed = { tag = ITA }
			visible = {
				date > 1933.1.1
				date < 1964.1.1
				PA_Minister_Allowed = yes
				NOT = { has_country_flag = Pietro_Conte_Acquarone_unavailable }
			}
			cost = 150
			removal_cost = 10
			traits = { ideology_A FM_The_Cloak_N_Dagger_Schemer }
		}
	# Pietro Badoglio
		ITA_FM_Pietro_Badoglio = {
			picture = Generic_Portrait
			allowed = { tag = ITA }
			visible = {
				date > 1933.1.1
				date < 1964.1.1
				PA_Minister_Allowed = yes
				NOT = { has_country_flag = Pietro_Badoglio_unavailable }
			}
			cost = 150
			removal_cost = 10
			traits = { ideology_A FM_General_Staffer }
		}
	# Dino Grandi
		ITA_FM_Dino_Grandi = {
			picture = Generic_Portrait
			allowed = { tag = ITA }
			visible = {
				date > 1933.1.1
				date < 1964.1.1
				PA_Minister_Allowed = yes
				NOT = { has_country_flag = Dino_Grandi_unavailable }
			}
			cost = 150
			removal_cost = 10
			traits = { ideology_A FM_Great_Compromiser }
		}
	# Pier Federico Martinetti
		ITA_FM_Pier_Federico_Martinetti = {
			picture = Generic_Portrait
			allowed = { tag = ITA }
			visible = {
				date > 1933.1.1
				date < 1964.1.1
				SC_Minister_Allowed = yes
				NOT = { has_country_flag = Pier_Federico_Martinetti_unavailable }
			}
			cost = 150
			removal_cost = 10
			traits = { ideology_D FM_Apologetic_Clerk }
		}
	# Alcide de Gasperi
		ITA_FM_Alcide_de_Gasperi = {
			picture = Generic_Portrait
			allowed = { tag = ITA }
			visible = {
				date > 1933.1.1
				date < 1964.1.1
				SC_Minister_Allowed = yes
				NOT = { has_country_flag = Alcide_de_Gasperi_unavailable }
			}
			cost = 150
			removal_cost = 10
			traits = { ideology_D FM_Ideological_Crusader }
		}
	# Bernardo Attolico
		ITA_FM_Bernardo_Attolico = {
			picture = Generic_Portrait
			allowed = { tag = ITA }
			visible = {
				date > 1941.1.1
				date < 1964.1.1
				SC_Minister_Allowed = yes
				NOT = { has_country_flag = Bernardo_Attolico_unavailable }
			}
			cost = 150
			removal_cost = 10
			traits = { ideology_D FM_Biased_Intellectual }
		}
	# Carlo Sforza
		ITA_FM_Carlo_Sforza = {
			picture = Generic_Portrait
			allowed = { tag = ITA }
			visible = {
				date > 1943.1.1
				date < 1964.1.1
				SC_Minister_Allowed = yes
				NOT = { has_country_flag = Carlo_Sforza_unavailable }
			}
			cost = 150
			removal_cost = 10
			traits = { ideology_D FM_The_Cloak_N_Dagger_Schemer }
		}
	# Giuseppe Pella
		ITA_FM_Giuseppe_Pella = {
			picture = Generic_Portrait
			allowed = { tag = ITA }
			visible = {
				date > 1945.1.1
				date < 1964.1.1
				SC_Minister_Allowed = yes
				NOT = { has_country_flag = Giuseppe_Pella_unavailable }
			}
			cost = 150
			removal_cost = 10
			traits = { ideology_D FM_Ideological_Crusader }
		}
	# Felice Napoleone Canevaro
		ITA_FM_Felice_Napoleone_Canevaro = {
			picture = Generic_Portrait
			allowed = { tag = ITA }
			visible = {
				date > 1914.1.1
				date < 1932.1.1
				ML_Minister_Allowed = yes
				NOT = { has_country_flag = Felice_Napoleone_Canevaro_unavailable }
			}
			cost = 150
			removal_cost = 10
			traits = { ideology_D FM_General_Staffer }
		}
	# Antonino Paternò-Castello
		ITA_FM_Antonino_PaternoCastello = {
			picture = Generic_Portrait
			allowed = { tag = ITA }
			visible = {
				date > 1914.1.1
				date < 1932.1.1
				ML_Minister_Allowed = yes
				NOT = { has_country_flag = Antonino_PaternoCastello_unavailable }
			}
			cost = 150
			removal_cost = 10
			traits = { ideology_D FM_Great_Compromiser }
		}
	# Sidney Sonnino
		ITA_FM_Sidney_Sonnino = {
			picture = Generic_Portrait
			allowed = { tag = ITA }
			visible = {
				date > 1914.1.1
				date < 1932.1.1
				ML_Minister_Allowed = yes
				NOT = { has_country_flag = Sidney_Sonnino_unavailable }
			}
			cost = 150
			removal_cost = 10
			traits = { ideology_D FM_Great_Compromiser }
		}
	# Tommaso Tittoni
		ITA_FM_Tommaso_Tittoni = {
			picture = Generic_Portrait
			allowed = { tag = ITA }
			visible = {
				date > 1914.1.1
				date < 1932.1.1
				ML_Minister_Allowed = yes
				NOT = { has_country_flag = Tommaso_Tittoni_unavailable }
			}
			cost = 150
			removal_cost = 10
			traits = { ideology_D FM_Biased_Intellectual }
		}
	# Carlo Sforza
		ITA_FM_Carlo_Sforza_2 = {
			picture = Generic_Portrait
			allowed = { tag = ITA }
			visible = {
				date > 1920.1.1
				date < 1932.1.1
				ML_Minister_Allowed = yes
				NOT = { has_country_flag = Carlo_Sforza_unavailable }
			}
			cost = 150
			removal_cost = 10
			traits = { ideology_D FM_Great_Compromiser }
		}
	# Marchese della Torretta
		ITA_FM_Marchese_della_Torretta = {
			picture = Generic_Portrait
			allowed = { tag = ITA }
			visible = {
				date > 1921.1.1
				date < 1932.1.1
				ML_Minister_Allowed = yes
				NOT = { has_country_flag = Marchese_della_Torretta_unavailable }
			}
			cost = 150
			removal_cost = 10
			traits = { ideology_D FM_Great_Compromiser }
		}
	# Karl Schanzer
		ITA_FM_Karl_Schanzer = {
			picture = Generic_Portrait
			allowed = { tag = ITA }
			visible = {
				date > 1922.1.1
				date < 1932.1.1
				ML_Minister_Allowed = yes
				NOT = { has_country_flag = Karl_Schanzer_unavailable }
			}
			cost = 150
			removal_cost = 10
			traits = { ideology_D FM_Great_Compromiser }
		}
	# Giulio Andreotti
		ITA_FM_Giulio_Andreotti = {
			picture = Generic_Portrait
			allowed = { tag = ITA }
			visible = {
				date > 1985.1.1
				date < 2014.1.1
				ML_Minister_Allowed = yes
				NOT = { has_country_flag = Giulio_Andreotti_unavailable }
			}
			cost = 150
			removal_cost = 10
			traits = { ideology_D FM_Ideological_Crusader }
		}
	# Ivanoe Bonomi
		ITA_FM_Ivanoe_Bonomi = {
			picture = Generic_Portrait
			allowed = { tag = ITA }
			visible = {
				date > 1933.1.1
				date < 1964.1.1
				SL_Minister_Allowed = yes
				NOT = { has_country_flag = Ivanoe_Bonomi_unavailable }
			}
			cost = 150
			removal_cost = 10
			traits = { ideology_D FM_Apologetic_Clerk }
		}
	# Pietro Nenni
		ITA_FM_Pietro_Nenni = {
			picture = Generic_Portrait
			allowed = { tag = ITA }
			visible = {
				date > 1933.1.1
				date < 1964.1.1
				SL_Minister_Allowed = yes
				NOT = { has_country_flag = Pietro_Nenni_unavailable }
			}
			cost = 150
			removal_cost = 10
			traits = { ideology_D FM_The_Cloak_N_Dagger_Schemer }
		}
	# Ivanoe Bonomi
		ITA_FM_Ivanoe_Bonomi_2 = {
			picture = Generic_Portrait
			allowed = { tag = ITA }
			visible = {
				date > 1921.1.1
				date < 1932.1.1
				SD_Minister_Allowed = yes
				NOT = { has_country_flag = Ivanoe_Bonomi_unavailable }
			}
			cost = 150
			removal_cost = 10
			traits = { ideology_D FM_Ideological_Crusader }
		}
	# Vittorio Scialoja
		ITA_FM_Vittorio_Scialoja = {
			picture = Generic_Portrait
			allowed = { tag = ITA }
			visible = {
				date > 1919.1.1
				date < 1932.1.1
				LWR_Minister_Allowed = yes
				NOT = { has_country_flag = Vittorio_Scialoja_unavailable }
			}
			cost = 150
			removal_cost = 10
			traits = { ideology_S FM_Great_Compromiser }
		}
	# Palmiro Togliatti
		ITA_FM_Palmiro_Togliatti = {
			picture = Generic_Portrait
			allowed = { tag = ITA }
			visible = {
				date > 1939.1.1
				date < 1964.1.1
				LE_Minister_Allowed = yes
				NOT = { has_country_flag = Palmiro_Togliatti_unavailable }
			}
			cost = 150
			removal_cost = 10
			traits = { ideology_C FM_Ideological_Crusader }
		}
	# Giacinto Menotti Serrati
		ITA_FM_Giacinto_Menotti_Serrati = {
			picture = Generic_Portrait
			allowed = { tag = ITA }
			visible = {
				date > 1914.1.1
				date < 1932.1.1
				ST_Minister_Allowed = yes
				NOT = { has_country_flag = Giacinto_Menotti_Serrati_unavailable }
			}
			cost = 150
			removal_cost = 10
			traits = { ideology_C FM_Ideological_Crusader }
		}
}
#################################################
### Minister of Security
#################################################
	Minister_of_Security = {
	# Antonio Scuero
		ITA_MoS_Antonio_Scuero = {
			picture = Generic_Portrait
			allowed = { tag = ITA }
			visible = {
				date > 1933.1.1
				date < 1964.1.1
				NS_Minister_Allowed = yes
				NOT = { has_country_flag = Antonio_Scuero_unavailable }
			}
			cost = 150
			removal_cost = 10
			traits = { ideology_F MoS_Back_Stabber }
		}
	# Benito Mussolini
		ITA_MoS_Benito_Mussolini = {
			picture = Generic_Portrait
			allowed = { tag = ITA }
			visible = {
				date > 1933.1.1
				date < 1964.1.1
				NS_Minister_Allowed = yes
				NOT = { has_country_flag = Benito_Mussolini_unavailable }
			}
			cost = 150
			removal_cost = 10
			traits = { ideology_F MoS_Media_Magnate }
		}
	# Piero Brandimarte
		ITA_MoS_Piero_Brandimarte = {
			picture = Generic_Portrait
			allowed = { tag = ITA }
			visible = {
				date > 1945.1.1
				date < 1964.1.1
				NS_Minister_Allowed = yes
				NOT = { has_country_flag = Piero_Brandimarte_unavailable }
			}
			cost = 150
			removal_cost = 10
			traits = { ideology_F MoS_Efficient_Sociopath }
		}
	# Giorgio Almirante
		ITA_MoS_Giorgio_Almirante = {
			picture = Generic_Portrait
			allowed = { tag = ITA }
			visible = {
				date > 1946.1.1
				date < 1964.1.1
				NS_Minister_Allowed = yes
				NOT = { has_country_flag = Giorgio_Almirante_unavailable }
			}
			cost = 150
			removal_cost = 10
			traits = { ideology_F MoS_Back_Stabber }
		}
	# Benito Mussolini
		ITA_MoS_Benito_Mussolini_2 = {
			picture = Generic_Portrait
			allowed = { tag = ITA }
			visible = {
				date > 1920.1.1
				date < 1932.1.1
				FA_Minister_Allowed = yes
				NOT = { has_country_flag = Benito_Mussolini_unavailable }
			}
			cost = 150
			removal_cost = 10
			traits = { ideology_F MoS_Efficient_Sociopath }
		}
	# Guido Buffarini-Guidi
		ITA_MoS_Guido_BuffariniGuidi = {
			picture = Generic_Portrait
			allowed = { tag = ITA }
			visible = {
				date > 1933.1.1
				date < 1964.1.1
				FA_Minister_Allowed = yes
				NOT = { has_country_flag = Guido_BuffariniGuidi_unavailable }
			}
			cost = 150
			removal_cost = 10
			traits = { ideology_F MoS_Man_Of_The_People }
		}
	# Umberto Albini
		ITA_MoS_Umberto_Albini = {
			picture = Generic_Portrait
			allowed = { tag = ITA }
			visible = {
				date > 1933.1.1
				date < 1964.1.1
				FA_Minister_Allowed = yes
				NOT = { has_country_flag = Umberto_Albini_unavailable }
			}
			cost = 150
			removal_cost = 10
			traits = { ideology_F MoS_Prince_Of_Terror }
		}
	# Cesare Maria De Vecchi
		ITA_MoS_Cesare_Maria_De_Vecchi = {
			picture = Generic_Portrait
			allowed = { tag = ITA }
			visible = {
				date > 1935.1.1
				date < 1960.1.1
				FA_Minister_Allowed = yes
				NOT = { has_country_flag = Cesare_Maria_De_Vecchi_unavailable }
			}
			cost = 150
			removal_cost = 10
			traits = { ideology_F MoS_Silent_Lawyer }
		}
	# Umberto Ricci
		ITA_MoS_Umberto_Ricci = {
			picture = Generic_Portrait
			allowed = { tag = ITA }
			visible = {
				date > 1933.1.1
				date < 1964.1.1
				PA_Minister_Allowed = yes
				NOT = { has_country_flag = Umberto_Ricci_unavailable }
			}
			cost = 150
			removal_cost = 10
			traits = { ideology_A MoS_Silent_Lawyer }
		}
	# Robert Farinacci
		ITA_MoS_Robert_Farinacci = {
			picture = Generic_Portrait
			allowed = { tag = ITA }
			visible = {
				date > 1933.1.1
				date < 1964.1.1
				PA_Minister_Allowed = yes
				NOT = { has_country_flag = Robert_Farinacci_unavailable }
			}
			cost = 150
			removal_cost = 10
			traits = { ideology_A MoS_Back_Stabber }
		}
	# Enrico de Nicola
		ITA_MoS_Enrico_de_Nicola = {
			picture = Generic_Portrait
			allowed = { tag = ITA }
			visible = {
				date > 1933.1.1
				date < 1964.1.1
				SC_Minister_Allowed = yes
				NOT = { has_country_flag = Enrico_de_Nicola_unavailable }
			}
			cost = 150
			removal_cost = 10
			traits = { ideology_D MoS_Man_Of_The_People }
		}
	# Alcide de Gasperi
		ITA_MoS_Alcide_de_Gasperi = {
			picture = Generic_Portrait
			allowed = { tag = ITA }
			visible = {
				date > 1933.1.1
				date < 1964.1.1
				SC_Minister_Allowed = yes
				NOT = { has_country_flag = Alcide_de_Gasperi_unavailable }
			}
			cost = 150
			removal_cost = 10
			traits = { ideology_D MoS_Health_And_Safety }
		}
	# Conde Stefano Jacini
		ITA_MoS_Conde_Stefano_Jacini = {
			picture = Generic_Portrait
			allowed = { tag = ITA }
			visible = {
				date > 1939.1.1
				date < 1964.1.1
				SC_Minister_Allowed = yes
				NOT = { has_country_flag = Conde_Stefano_Jacini_unavailable }
			}
			cost = 150
			removal_cost = 10
			traits = { ideology_D MoS_Silent_Lawyer }
		}
	# Vito Reale
		ITA_MoS_Vito_Reale = {
			picture = Generic_Portrait
			allowed = { tag = ITA }
			visible = {
				date > 1941.1.1
				date < 1964.1.1
				SC_Minister_Allowed = yes
				NOT = { has_country_flag = Vito_Reale_unavailable }
			}
			cost = 150
			removal_cost = 10
			traits = { ideology_D MoS_Crime_Fighter }
		}
	# Mario Scelba
		ITA_MoS_Mario_Scelba = {
			picture = Generic_Portrait
			allowed = { tag = ITA }
			visible = {
				date > 1941.1.1
				date < 1964.1.1
				SC_Minister_Allowed = yes
				NOT = { has_country_flag = Mario_Scelba_unavailable }
			}
			cost = 150
			removal_cost = 10
			traits = { ideology_D MoS_Back_Stabber }
		}
	# Amintore Fanfani
		ITA_MoS_Amintore_Fanfani = {
			picture = Generic_Portrait
			allowed = { tag = ITA }
			visible = {
				date > 1953.1.1
				date < 1964.1.1
				SC_Minister_Allowed = yes
				NOT = { has_country_flag = Amintore_Fanfani_unavailable }
			}
			cost = 150
			removal_cost = 10
			traits = { ideology_D MoS_Compassionate_Gentleman }
		}
	# Giovanni Giolitti
		ITA_MoS_Giovanni_Giolitti = {
			picture = Generic_Portrait
			allowed = { tag = ITA }
			visible = {
				date > 1914.1.1
				date < 1932.1.1
				ML_Minister_Allowed = yes
				NOT = { has_country_flag = Giovanni_Giolitti_unavailable }
			}
			cost = 150
			removal_cost = 10
			traits = { ideology_D MoS_Silent_Lawyer }
		}
	# Luigi Luzzatti
		ITA_MoS_Luigi_Luzzatti = {
			picture = Generic_Portrait
			allowed = { tag = ITA }
			visible = {
				date > 1914.1.1
				date < 1932.1.1
				ML_Minister_Allowed = yes
				NOT = { has_country_flag = Luigi_Luzzatti_unavailable }
			}
			cost = 150
			removal_cost = 10
			traits = { ideology_D MoS_Silent_Lawyer }
		}
	# Luigi Pelloux
		ITA_MoS_Luigi_Pelloux = {
			picture = Generic_Portrait
			allowed = { tag = ITA }
			visible = {
				date > 1914.1.1
				date < 1932.1.1
				ML_Minister_Allowed = yes
				NOT = { has_country_flag = Luigi_Pelloux_unavailable }
			}
			cost = 150
			removal_cost = 10
			traits = { ideology_D MoS_Crime_Fighter }
		}
	# Antonio Salandra
		ITA_MoS_Antonio_Salandra = {
			picture = Generic_Portrait
			allowed = { tag = ITA }
			visible = {
				date > 1914.1.1
				date < 1932.1.1
				ML_Minister_Allowed = yes
				NOT = { has_country_flag = Antonio_Salandra_unavailable }
			}
			cost = 150
			removal_cost = 10
			traits = { ideology_D MoS_Efficient_Sociopath }
		}
	# Sidney Sonnino
		ITA_MoS_Sidney_Sonnino = {
			picture = Generic_Portrait
			allowed = { tag = ITA }
			visible = {
				date > 1914.1.1
				date < 1932.1.1
				ML_Minister_Allowed = yes
				NOT = { has_country_flag = Sidney_Sonnino_unavailable }
			}
			cost = 150
			removal_cost = 10
			traits = { ideology_D MoS_Silent_Lawyer }
		}
	# Tommaso Tittoni
		ITA_MoS_Tommaso_Tittoni = {
			picture = Generic_Portrait
			allowed = { tag = ITA }
			visible = {
				date > 1914.1.1
				date < 1932.1.1
				ML_Minister_Allowed = yes
				NOT = { has_country_flag = Tommaso_Tittoni_unavailable }
			}
			cost = 150
			removal_cost = 10
			traits = { ideology_D MoS_Silent_Lawyer }
		}
	# Paolo Boselli
		ITA_MoS_Paolo_Boselli = {
			picture = Generic_Portrait
			allowed = { tag = ITA }
			visible = {
				date > 1916.1.1
				date < 1932.1.1
				ML_Minister_Allowed = yes
				NOT = { has_country_flag = Paolo_Boselli_unavailable }
			}
			cost = 150
			removal_cost = 10
			traits = { ideology_D MoS_Man_Of_The_People }
		}
	# Vittorio Emanuele Orlando
		ITA_MoS_Vittorio_Emanuele_Orlando = {
			picture = Generic_Portrait
			allowed = { tag = ITA }
			visible = {
				date > 1916.1.1
				date < 1932.1.1
				ML_Minister_Allowed = yes
				NOT = { has_country_flag = Vittorio_Emanuele_Orlando_unavailable }
			}
			cost = 150
			removal_cost = 10
			traits = { ideology_D MoS_Crime_Fighter }
		}
	# Luigi Facta
		ITA_MoS_Luigi_Facta = {
			picture = Generic_Portrait
			allowed = { tag = ITA }
			visible = {
				date > 1922.1.1
				date < 1932.1.1
				ML_Minister_Allowed = yes
				NOT = { has_country_flag = Luigi_Facta_unavailable }
			}
			cost = 150
			removal_cost = 10
			traits = { ideology_D MoS_Man_Of_The_People }
		}
	# Ivanoe Bonomi
		ITA_MoS_Ivanoe_Bonomi = {
			picture = Generic_Portrait
			allowed = { tag = ITA }
			visible = {
				date > 1933.1.1
				date < 1964.1.1
				SL_Minister_Allowed = yes
				NOT = { has_country_flag = Ivanoe_Bonomi_unavailable }
			}
			cost = 150
			removal_cost = 10
			traits = { ideology_D MoS_Efficient_Sociopath }
		}
	# Ferruccio Parri
		ITA_MoS_Ferruccio_Parri = {
			picture = Generic_Portrait
			allowed = { tag = ITA }
			visible = {
				date > 1933.1.1
				date < 1964.1.1
				SL_Minister_Allowed = yes
				NOT = { has_country_flag = Ferruccio_Parri_unavailable }
			}
			cost = 150
			removal_cost = 10
			traits = { ideology_D MoS_Man_Of_The_People }
		}
	# Salvatore Aldisio
		ITA_MoS_Salvatore_Aldisio = {
			picture = Generic_Portrait
			allowed = { tag = ITA }
			visible = {
				date > 1941.1.1
				date < 1964.1.1
				SL_Minister_Allowed = yes
				NOT = { has_country_flag = Salvatore_Aldisio_unavailable }
			}
			cost = 150
			removal_cost = 10
			traits = { ideology_D MoS_Prince_Of_Terror }
		}
	# Oscar Scalfaro
		ITA_MoS_Oscar_Scalfaro = {
			picture = Generic_Portrait
			allowed = { tag = ITA }
			visible = {
				date > 1985.1.1
				date < 1992.1.1
				SL_Minister_Allowed = yes
				NOT = { has_country_flag = Oscar_Scalfaro_unavailable }
			}
			cost = 150
			removal_cost = 10
			traits = { ideology_D MoS_Man_Of_The_People }
		}
	# Ivanoe Bonomi
		ITA_MoS_Ivanoe_Bonomi_2 = {
			picture = Generic_Portrait
			allowed = { tag = ITA }
			visible = {
				date > 1921.1.1
				date < 1932.1.1
				SD_Minister_Allowed = yes
				NOT = { has_country_flag = Ivanoe_Bonomi_unavailable }
			}
			cost = 150
			removal_cost = 10
			traits = { ideology_D MoS_Man_Of_The_People }
		}
	# Francesco Nitti
		ITA_MoS_Francesco_Nitti = {
			picture = Generic_Portrait
			allowed = { tag = ITA }
			visible = {
				date > 1919.1.1
				date < 1932.1.1
				LWR_Minister_Allowed = yes
				NOT = { has_country_flag = Francesco_Nitti_unavailable }
			}
			cost = 150
			removal_cost = 10
			traits = { ideology_S MoS_Silent_Lawyer }
		}
	# Giuseppe Romita
		ITA_MoS_Giuseppe_Romita = {
			picture = Generic_Portrait
			allowed = { tag = ITA }
			visible = {
				date > 1933.1.1
				date < 1964.1.1
				LWR_Minister_Allowed = yes
				NOT = { has_country_flag = Giuseppe_Romita_unavailable }
			}
			cost = 150
			removal_cost = 10
			traits = { ideology_S MoS_Compassionate_Gentleman }
		}
	# Palmiro Togliatti
		ITA_MoS_Palmiro_Togliatti = {
			picture = Generic_Portrait
			allowed = { tag = ITA }
			visible = {
				date > 1939.1.1
				date < 1964.1.1
				LWR_Minister_Allowed = yes
				NOT = { has_country_flag = Palmiro_Togliatti_unavailable }
			}
			cost = 150
			removal_cost = 10
			traits = { ideology_S MoS_Crime_Fighter }
		}
	# Julian Zugazagoitia Mendieta
		ITA_MoS_Julian_Zugazagoitia_Mendieta = {
			picture = Generic_Portrait
			allowed = { tag = ITA }
			visible = {
				date > 1941.1.1
				date < 1964.1.1
				ST_Minister_Allowed = yes
				NOT = { has_country_flag = Julian_Zugazagoitia_Mendieta_unavailable }
			}
			cost = 150
			removal_cost = 10
			traits = { ideology_C MoS_Efficient_Sociopath }
		}
}
#################################################
### Armaments Minister
#################################################
	Armaments_Minister = {
	# Paolo Thaon di Revel
		ITA_AM_Paolo_Thaon_di_Revel = {
			picture = Generic_Portrait
			allowed = { tag = ITA }
			visible = {
				date > 1933.1.1
				date < 1964.1.1
				NS_Minister_Allowed = yes
				NOT = { has_country_flag = Paolo_Thaon_di_Revel_unavailable }
			}
			cost = 150
			removal_cost = 10
			traits = { ideology_F AM_Battle_Fleet_Proponent }
		}
	# G. Imperiali de Francarillo
		ITA_AM_G_Imperiali_de_Francarillo = {
			picture = Generic_Portrait
			allowed = { tag = ITA }
			visible = {
				date > 1943.1.1
				date < 1964.1.1
				NS_Minister_Allowed = yes
				NOT = { has_country_flag = G_Imperiali_de_Francarillo_unavailable }
			}
			cost = 150
			removal_cost = 10
			traits = { ideology_F AM_Administrative_Genius }
		}
	# Giacomo Acerbo
		ITA_AM_Giacomo_Acerbo = {
			picture = Generic_Portrait
			allowed = { tag = ITA }
			visible = {
				date > 1946.1.1
				date < 1964.1.1
				NS_Minister_Allowed = yes
				NOT = { has_country_flag = Giacomo_Acerbo_unavailable }
			}
			cost = 150
			removal_cost = 10
			traits = { ideology_F AM_Resource_Industrialist }
		}
	# Romulo Paladini
		ITA_AM_Romulo_Paladini = {
			picture = Generic_Portrait
			allowed = { tag = ITA }
			visible = {
				date > 1947.1.1
				date < 1964.1.1
				NS_Minister_Allowed = yes
				NOT = { has_country_flag = Romulo_Paladini_unavailable }
			}
			cost = 150
			removal_cost = 10
			traits = { ideology_F AM_Tank_Proponent }
		}
	# Alberto de Stefani
		ITA_AM_Alberto_de_Stefani = {
			picture = Generic_Portrait
			allowed = { tag = ITA }
			visible = {
				date > 1920.1.1
				date < 1932.1.1
				FA_Minister_Allowed = yes
				NOT = { has_country_flag = Alberto_de_Stefani_unavailable }
			}
			cost = 150
			removal_cost = 10
			traits = { ideology_F AM_Infantry_Proponent }
		}
	# Benito Mussolini
		ITA_AM_Benito_Mussolini = {
			picture = Generic_Portrait
			allowed = { tag = ITA }
			visible = {
				date > 1933.1.1
				date < 1964.1.1
				FA_Minister_Allowed = yes
				NOT = { has_country_flag = Benito_Mussolini_unavailable }
			}
			cost = 150
			removal_cost = 10
			traits = { ideology_F AM_Autarkic_Fascist }
		}
	# Alberto Pariani
		ITA_AM_Alberto_Pariani = {
			picture = Generic_Portrait
			allowed = { tag = ITA }
			visible = {
				date > 1933.1.1
				date < 1964.1.1
				FA_Minister_Allowed = yes
				NOT = { has_country_flag = Alberto_Pariani_unavailable }
			}
			cost = 150
			removal_cost = 10
			traits = { ideology_F AM_Reformer }
		}
	# Alfredo Guzzoni
		ITA_AM_Alfredo_Guzzoni = {
			picture = Generic_Portrait
			allowed = { tag = ITA }
			visible = {
				date > 1933.1.1
				date < 1964.1.1
				FA_Minister_Allowed = yes
				NOT = { has_country_flag = Alfredo_Guzzoni_unavailable }
			}
			cost = 150
			removal_cost = 10
			traits = { ideology_F AM_Submarine_Proponent }
		}
	# Antonio Sorice
		ITA_AM_Antonio_Sorice = {
			picture = Generic_Portrait
			allowed = { tag = ITA }
			visible = {
				date > 1933.1.1
				date < 1964.1.1
				FA_Minister_Allowed = yes
				NOT = { has_country_flag = Antonio_Sorice_unavailable }
			}
			cost = 150
			removal_cost = 10
			traits = { ideology_F AM_Corrupt_Kleptocrat }
		}
	# Ubaldo Soddu
		ITA_AM_Ubaldo_Soddu = {
			picture = Generic_Portrait
			allowed = { tag = ITA }
			visible = {
				date > 1939.1.1
				date < 1964.1.1
				FA_Minister_Allowed = yes
				NOT = { has_country_flag = Ubaldo_Soddu_unavailable }
			}
			cost = 150
			removal_cost = 10
			traits = { ideology_F AM_Military_Entrepreneur }
		}
	# Arturo Michelini
		ITA_AM_Arturo_Michelini = {
			picture = Generic_Portrait
			allowed = { tag = ITA }
			visible = {
				date > 1954.1.1
				date < 1964.1.1
				FA_Minister_Allowed = yes
				NOT = { has_country_flag = Arturo_Michelini_unavailable }
			}
			cost = 150
			removal_cost = 10
			traits = { ideology_F AM_Laissez-faire_Capitalist }
		}
	# Domenico Bartolini
		ITA_AM_Domenico_Bartolini = {
			picture = Generic_Portrait
			allowed = { tag = ITA }
			visible = {
				date > 1933.1.1
				date < 1964.1.1
				PA_Minister_Allowed = yes
				NOT = { has_country_flag = Domenico_Bartolini_unavailable }
			}
			cost = 150
			removal_cost = 10
			traits = { ideology_A AM_Theoretical_Scientist }
		}
	# Guido Jung
		ITA_AM_Guido_Jung = {
			picture = Generic_Portrait
			allowed = { tag = ITA }
			visible = {
				date > 1933.1.1
				date < 1964.1.1
				PA_Minister_Allowed = yes
				NOT = { has_country_flag = Guido_Jung_unavailable }
			}
			cost = 150
			removal_cost = 10
			traits = { ideology_A AM_Administrative_Genius }
		}
	# Alberto Theodoli
		ITA_AM_Alberto_Theodoli = {
			picture = Generic_Portrait
			allowed = { tag = ITA }
			visible = {
				date > 1933.1.1
				date < 1964.1.1
				SC_Minister_Allowed = yes
				NOT = { has_country_flag = Alberto_Theodoli_unavailable }
			}
			cost = 150
			removal_cost = 10
			traits = { ideology_D AM_Infantry_Proponent }
		}
	# Randolfo Pacciardi
		ITA_AM_Randolfo_Pacciardi = {
			picture = Generic_Portrait
			allowed = { tag = ITA }
			visible = {
				date > 1933.1.1
				date < 1964.1.1
				SC_Minister_Allowed = yes
				NOT = { has_country_flag = Randolfo_Pacciardi_unavailable }
			}
			cost = 150
			removal_cost = 10
			traits = { ideology_D AM_Military_Entrepreneur }
		}
	# Francesco Orestano
		ITA_AM_Francesco_Orestano = {
			picture = Generic_Portrait
			allowed = { tag = ITA }
			visible = {
				date > 1939.1.1
				date < 1964.1.1
				SC_Minister_Allowed = yes
				NOT = { has_country_flag = Francesco_Orestano_unavailable }
			}
			cost = 150
			removal_cost = 10
			traits = { ideology_D AM_Military_Entrepreneur }
		}
	# Fulberto Vivaldi
		ITA_AM_Fulberto_Vivaldi = {
			picture = Generic_Portrait
			allowed = { tag = ITA }
			visible = {
				date > 1941.1.1
				date < 1964.1.1
				SC_Minister_Allowed = yes
				NOT = { has_country_flag = Fulberto_Vivaldi_unavailable }
			}
			cost = 150
			removal_cost = 10
			traits = { ideology_D AM_Air_To_Ground_Proponent }
		}
	# Cipriano Facchinetti
		ITA_AM_Cipriano_Facchinetti = {
			picture = Generic_Portrait
			allowed = { tag = ITA }
			visible = {
				date > 1943.1.1
				date < 1964.1.1
				SC_Minister_Allowed = yes
				NOT = { has_country_flag = Cipriano_Facchinetti_unavailable }
			}
			cost = 150
			removal_cost = 10
			traits = { ideology_D AM_Resource_Industrialist }
		}
	# Taddeo Orlando
		ITA_AM_Taddeo_Orlando = {
			picture = Generic_Portrait
			allowed = { tag = ITA }
			visible = {
				date > 1944.1.1
				date < 1964.1.1
				SC_Minister_Allowed = yes
				NOT = { has_country_flag = Taddeo_Orlando_unavailable }
			}
			cost = 150
			removal_cost = 10
			traits = { ideology_D AM_Theoretical_Scientist }
		}
	# Manlio Brosio
		ITA_AM_Manlio_Brosio = {
			picture = Generic_Portrait
			allowed = { tag = ITA }
			visible = {
				date > 1946.1.1
				date < 1964.1.1
				SC_Minister_Allowed = yes
				NOT = { has_country_flag = Manlio_Brosio_unavailable }
			}
			cost = 150
			removal_cost = 10
			traits = { ideology_D AM_Infantry_Proponent }
		}
	# Emilio Paolo Taviani
		ITA_AM_Emilio_Paolo_Taviani = {
			picture = Generic_Portrait
			allowed = { tag = ITA }
			visible = {
				date > 1953.1.1
				date < 1964.1.1
				SC_Minister_Allowed = yes
				NOT = { has_country_flag = Emilio_Paolo_Taviani_unavailable }
			}
			cost = 150
			removal_cost = 10
			traits = { ideology_D AM_Theoretical_Scientist }
		}
	# Felice Napoleone Canevaro
		ITA_AM_Felice_Napoleone_Canevaro = {
			picture = Generic_Portrait
			allowed = { tag = ITA }
			visible = {
				date > 1914.1.1
				date < 1932.1.1
				ML_Minister_Allowed = yes
				NOT = { has_country_flag = Felice_Napoleone_Canevaro_unavailable }
			}
			cost = 150
			removal_cost = 10
			traits = { ideology_D AM_Battle_Fleet_Proponent }
		}
	# Paolo Carcano
		ITA_AM_Paolo_Carcano = {
			picture = Generic_Portrait
			allowed = { tag = ITA }
			visible = {
				date > 1914.1.1
				date < 1932.1.1
				ML_Minister_Allowed = yes
				NOT = { has_country_flag = Paolo_Carcano_unavailable }
			}
			cost = 150
			removal_cost = 10
			traits = { ideology_D AM_Laissez-faire_Capitalist }
		}
	# Luigi Facta
		ITA_AM_Luigi_Facta = {
			picture = Generic_Portrait
			allowed = { tag = ITA }
			visible = {
				date > 1914.1.1
				date < 1932.1.1
				ML_Minister_Allowed = yes
				NOT = { has_country_flag = Luigi_Facta_unavailable }
			}
			cost = 150
			removal_cost = 10
			traits = { ideology_D AM_Administrative_Genius }
		}
	# Luigi Luzzatti
		ITA_AM_Luigi_Luzzatti = {
			picture = Generic_Portrait
			allowed = { tag = ITA }
			visible = {
				date > 1914.1.1
				date < 1932.1.1
				ML_Minister_Allowed = yes
				NOT = { has_country_flag = Luigi_Luzzatti_unavailable }
			}
			cost = 150
			removal_cost = 10
			traits = { ideology_D AM_Resource_Industrialist }
		}
	# Luigi Pelloux
		ITA_AM_Luigi_Pelloux = {
			picture = Generic_Portrait
			allowed = { tag = ITA }
			visible = {
				date > 1914.1.1
				date < 1932.1.1
				ML_Minister_Allowed = yes
				NOT = { has_country_flag = Luigi_Pelloux_unavailable }
			}
			cost = 150
			removal_cost = 10
			traits = { ideology_D AM_Infantry_Proponent }
		}
	# Luigi Rava
		ITA_AM_Luigi_Rava = {
			picture = Generic_Portrait
			allowed = { tag = ITA }
			visible = {
				date > 1914.1.1
				date < 1932.1.1
				ML_Minister_Allowed = yes
				NOT = { has_country_flag = Luigi_Rava_unavailable }
			}
			cost = 150
			removal_cost = 10
			traits = { ideology_D AM_Administrative_Genius }
		}
	# Antonio Salandra
		ITA_AM_Antonio_Salandra = {
			picture = Generic_Portrait
			allowed = { tag = ITA }
			visible = {
				date > 1914.1.1
				date < 1932.1.1
				ML_Minister_Allowed = yes
				NOT = { has_country_flag = Antonio_Salandra_unavailable }
			}
			cost = 150
			removal_cost = 10
			traits = { ideology_D AM_Laissez-faire_Capitalist }
		}
	# Eduardo Daneo
		ITA_AM_Eduardo_Daneo = {
			picture = Generic_Portrait
			allowed = { tag = ITA }
			visible = {
				date > 1914.1.1
				date < 1932.1.1
				ML_Minister_Allowed = yes
				NOT = { has_country_flag = Eduardo_Daneo_unavailable }
			}
			cost = 150
			removal_cost = 10
			traits = { ideology_D AM_Resource_Industrialist }
		}
	# Enrico Arlotta
		ITA_AM_Enrico_Arlotta = {
			picture = Generic_Portrait
			allowed = { tag = ITA }
			visible = {
				date > 1914.1.1
				date < 1932.1.1
				ML_Minister_Allowed = yes
				NOT = { has_country_flag = Enrico_Arlotta_unavailable }
			}
			cost = 150
			removal_cost = 10
			traits = { ideology_D AM_Resource_Industrialist }
		}
	# Filippo Meda
		ITA_AM_Filippo_Meda = {
			picture = Generic_Portrait
			allowed = { tag = ITA }
			visible = {
				date > 1916.1.1
				date < 1932.1.1
				ML_Minister_Allowed = yes
				NOT = { has_country_flag = Filippo_Meda_unavailable }
			}
			cost = 150
			removal_cost = 10
			traits = { ideology_D AM_Laissez-faire_Capitalist }
		}
	# Giuseppe de Nava
		ITA_AM_Giuseppe_de_Nava = {
			picture = Generic_Portrait
			allowed = { tag = ITA }
			visible = {
				date > 1920.1.1
				date < 1932.1.1
				ML_Minister_Allowed = yes
				NOT = { has_country_flag = Giuseppe_de_Nava_unavailable }
			}
			cost = 150
			removal_cost = 10
			traits = { ideology_D AM_Administrative_Genius }
		}
	# Karl Schanzer
		ITA_AM_Karl_Schanzer = {
			picture = Generic_Portrait
			allowed = { tag = ITA }
			visible = {
				date > 1920.1.1
				date < 1932.1.1
				ML_Minister_Allowed = yes
				NOT = { has_country_flag = Karl_Schanzer_unavailable }
			}
			cost = 150
			removal_cost = 10
			traits = { ideology_D AM_Resource_Industrialist }
		}
	# Gianbattista Bettone
		ITA_AM_Gianbattista_Bettone = {
			picture = Generic_Portrait
			allowed = { tag = ITA }
			visible = {
				date > 1922.1.1
				date < 1932.1.1
				ML_Minister_Allowed = yes
				NOT = { has_country_flag = Gianbattista_Bettone_unavailable }
			}
			cost = 150
			removal_cost = 10
			traits = { ideology_D AM_Laissez-faire_Capitalist }
		}
	# Leone Wollemborg
		ITA_AM_Leone_Wollemborg = {
			picture = Generic_Portrait
			allowed = { tag = ITA }
			visible = {
				date > 1914.1.1
				date < 1932.1.1
				SL_Minister_Allowed = yes
				NOT = { has_country_flag = Leone_Wollemborg_unavailable }
			}
			cost = 150
			removal_cost = 10
			traits = { ideology_D AM_Laissez-faire_Capitalist }
		}
	# Alfredo Dallolio
		ITA_AM_Alfredo_Dallolio = {
			picture = Generic_Portrait
			allowed = { tag = ITA }
			visible = {
				date > 1917.1.1
				date < 1932.1.1
				SL_Minister_Allowed = yes
				NOT = { has_country_flag = Alfredo_Dallolio_unavailable }
			}
			cost = 150
			removal_cost = 10
			traits = { ideology_D AM_Resource_Industrialist }
		}
	# Vittorio Italico Zupelli
		ITA_AM_Vittorio_Italico_Zupelli = {
			picture = Generic_Portrait
			allowed = { tag = ITA }
			visible = {
				date > 1918.1.1
				date < 1932.1.1
				SL_Minister_Allowed = yes
				NOT = { has_country_flag = Vittorio_Italico_Zupelli_unavailable }
			}
			cost = 150
			removal_cost = 10
			traits = { ideology_D AM_Military_Entrepreneur }
		}
	# A. de Marinis de Ricia
		ITA_AM_A_de_Marinis_de_Ricia = {
			picture = Generic_Portrait
			allowed = { tag = ITA }
			visible = {
				date > 1933.1.1
				date < 1964.1.1
				SL_Minister_Allowed = yes
				NOT = { has_country_flag = A_de_Marinis_de_Ricia_unavailable }
			}
			cost = 150
			removal_cost = 10
			traits = { ideology_D AM_Administrative_Genius }
		}
	# Luigi Einaudi
		ITA_AM_Luigi_Einaudi = {
			picture = Generic_Portrait
			allowed = { tag = ITA }
			visible = {
				date > 1933.1.1
				date < 1964.1.1
				SL_Minister_Allowed = yes
				NOT = { has_country_flag = Luigi_Einaudi_unavailable }
			}
			cost = 150
			removal_cost = 10
			traits = { ideology_D AM_Strategic_Air_Proponent }
		}
	# Alessandro Marchese Casati
		ITA_AM_Alessandro_Marchese_Casati = {
			picture = Generic_Portrait
			allowed = { tag = ITA }
			visible = {
				date > 1941.1.1
				date < 1964.1.1
				SL_Minister_Allowed = yes
				NOT = { has_country_flag = Alessandro_Marchese_Casati_unavailable }
			}
			cost = 150
			removal_cost = 10
			traits = { ideology_D AM_Tank_Proponent }
		}
	# Giovanni Ciraolo
		ITA_AM_Giovanni_Ciraolo = {
			picture = Generic_Portrait
			allowed = { tag = ITA }
			visible = {
				date > 1944.1.1
				date < 1964.1.1
				SL_Minister_Allowed = yes
				NOT = { has_country_flag = Giovanni_Ciraolo_unavailable }
			}
			cost = 150
			removal_cost = 10
			traits = { ideology_D AM_Administrative_Genius }
		}
	# G. Barone Paulucci di Calboli
		ITA_AM_G_Barone_Paulucci_di_Calboli = {
			picture = Generic_Portrait
			allowed = { tag = ITA }
			visible = {
				date > 1947.1.1
				date < 1964.1.1
				SL_Minister_Allowed = yes
				NOT = { has_country_flag = G_Barone_Paulucci_di_Calboli_unavailable }
			}
			cost = 150
			removal_cost = 10
			traits = { ideology_D AM_Laissez-faire_Capitalist }
		}
	# Giovanni Goria
		ITA_AM_Giovanni_Goria = {
			picture = Generic_Portrait
			allowed = { tag = ITA }
			visible = {
				date > 1985.1.1
				date < 1992.1.1
				SL_Minister_Allowed = yes
				NOT = { has_country_flag = Giovanni_Goria_unavailable }
			}
			cost = 150
			removal_cost = 10
			traits = { ideology_D AM_Resource_Industrialist }
		}
	# Marcello Saleri
		ITA_AM_Marcello_Saleri = {
			picture = Generic_Portrait
			allowed = { tag = ITA }
			visible = {
				date > 1921.1.1
				date < 1932.1.1
				SD_Minister_Allowed = yes
				NOT = { has_country_flag = Marcello_Saleri_unavailable }
			}
			cost = 150
			removal_cost = 10
			traits = { ideology_D AM_Resource_Industrialist }
		}
	# Antonio Gramsci
		ITA_AM_Antonio_Gramsci = {
			picture = Generic_Portrait
			allowed = { tag = ITA }
			visible = {
				date > 1914.1.1
				date < 1932.1.1
				LWR_Minister_Allowed = yes
				NOT = { has_country_flag = Antonio_Gramsci_unavailable }
			}
			cost = 150
			removal_cost = 10
			traits = { ideology_S AM_Resource_Industrialist }
		}
	# Francesco Tedesco
		ITA_AM_Francesco_Tedesco = {
			picture = Generic_Portrait
			allowed = { tag = ITA }
			visible = {
				date > 1919.1.1
				date < 1932.1.1
				LWR_Minister_Allowed = yes
				NOT = { has_country_flag = Francesco_Tedesco_unavailable }
			}
			cost = 150
			removal_cost = 10
			traits = { ideology_S AM_Resource_Industrialist }
		}
	# Antonio Pesenti
		ITA_AM_Antonio_Pesenti = {
			picture = Generic_Portrait
			allowed = { tag = ITA }
			visible = {
				date > 1933.1.1
				date < 1964.1.1
				LWR_Minister_Allowed = yes
				NOT = { has_country_flag = Antonio_Pesenti_unavailable }
			}
			cost = 150
			removal_cost = 10
			traits = { ideology_S AM_Resource_Industrialist }
		}
	# Vittorio Vidali
		ITA_AM_Vittorio_Vidali = {
			picture = Generic_Portrait
			allowed = { tag = ITA }
			visible = {
				date > 1933.1.1
				date < 1964.1.1
				LE_Minister_Allowed = yes
				NOT = { has_country_flag = Vittorio_Vidali_unavailable }
			}
			cost = 150
			removal_cost = 10
			traits = { ideology_C AM_Infantry_Proponent }
		}
	# Mauro Scoccimarro
		ITA_AM_Mauro_Scoccimarro = {
			picture = Generic_Portrait
			allowed = { tag = ITA }
			visible = {
				date > 1941.1.1
				date < 1964.1.1
				LE_Minister_Allowed = yes
				NOT = { has_country_flag = Mauro_Scoccimarro_unavailable }
			}
			cost = 150
			removal_cost = 10
			traits = { ideology_C AM_Air_To_Sea_Proponent }
		}
}
#################################################
### Head of Intelligence
#################################################
	Head_of_Intelligence = {
	# Giacomo Carboni
		ITA_HoI_Giacomo_Carboni = {
			picture = Generic_Portrait
			allowed = { tag = ITA }
			visible = {
				date > 1933.1.1
				date < 1964.1.1
				NS_Minister_Allowed = yes
				NOT = { has_country_flag = Giacomo_Carboni_unavailable }
			}
			cost = 150
			removal_cost = 10
			traits = { ideology_F HoI_Industrial_Specialist }
		}
	# Cesare Amé
		ITA_HoI_Cesare_Ame = {
			picture = Generic_Portrait
			allowed = { tag = ITA }
			visible = {
				date > 1933.1.1
				date < 1964.1.1
				FA_Minister_Allowed = yes
				NOT = { has_country_flag = Cesare_Ame_unavailable }
			}
			cost = 150
			removal_cost = 10
			traits = { ideology_F HoI_Industrial_Specialist }
		}
	# Enzo Galbiati
		ITA_HoI_Enzo_Galbiati = {
			picture = Generic_Portrait
			allowed = { tag = ITA }
			visible = {
				date > 1933.1.1
				date < 1964.1.1
				FA_Minister_Allowed = yes
				NOT = { has_country_flag = Enzo_Galbiati_unavailable }
			}
			cost = 150
			removal_cost = 10
			traits = { ideology_F HoI_Political_Specialist }
		}
	# Alfredo de Marschio
		ITA_HoI_Alfredo_de_Marschio = {
			picture = Generic_Portrait
			allowed = { tag = ITA }
			visible = {
				date > 1933.1.1
				date < 1964.1.1
				FA_Minister_Allowed = yes
				NOT = { has_country_flag = Alfredo_de_Marschio_unavailable }
			}
			cost = 150
			removal_cost = 10
			traits = { ideology_F HoI_Dismal_Enigma }
		}
	# Dino Grandi
		ITA_HoI_Dino_Grandi = {
			picture = Generic_Portrait
			allowed = { tag = ITA }
			visible = {
				date > 1939.1.1
				date < 1964.1.1
				FA_Minister_Allowed = yes
				NOT = { has_country_flag = Dino_Grandi_unavailable }
			}
			cost = 150
			removal_cost = 10
			traits = { ideology_F HoI_Logistics_Specialist }
		}
	# Umberto Ricci
		ITA_HoI_Umberto_Ricci = {
			picture = Generic_Portrait
			allowed = { tag = ITA }
			visible = {
				date > 1933.1.1
				date < 1964.1.1
				SC_Minister_Allowed = yes
				NOT = { has_country_flag = Umberto_Ricci_unavailable }
			}
			cost = 150
			removal_cost = 10
			traits = { ideology_D HoI_Industrial_Specialist }
		}
	# Maggiorno Ferraris
		ITA_HoI_Maggiorno_Ferraris = {
			picture = Generic_Portrait
			allowed = { tag = ITA }
			visible = {
				date > 1933.1.1
				date < 1964.1.1
				SC_Minister_Allowed = yes
				NOT = { has_country_flag = Maggiorno_Ferraris_unavailable }
			}
			cost = 150
			removal_cost = 10
			traits = { ideology_D HoI_Political_Specialist }
		}
	# Giuseppe Pella
		ITA_HoI_Giuseppe_Pella = {
			picture = Generic_Portrait
			allowed = { tag = ITA }
			visible = {
				date > 1945.1.1
				date < 1964.1.1
				SC_Minister_Allowed = yes
				NOT = { has_country_flag = Giuseppe_Pella_unavailable }
			}
			cost = 150
			removal_cost = 10
			traits = { ideology_D HoI_Logistics_Specialist }
		}
	# Ezio Vanoni
		ITA_HoI_Ezio_Vanoni = {
			picture = Generic_Portrait
			allowed = { tag = ITA }
			visible = {
				date > 1946.1.1
				date < 1964.1.1
				SC_Minister_Allowed = yes
				NOT = { has_country_flag = Ezio_Vanoni_unavailable }
			}
			cost = 150
			removal_cost = 10
			traits = { ideology_D HoI_Naval_Intelligence_Specialist }
		}
	# Eugenio De Rossi
		ITA_HoI_Eugenio_De_Rossi = {
			picture = Generic_Portrait
			allowed = { tag = ITA }
			visible = {
				date > 1914.1.1
				date < 1932.1.1
				ML_Minister_Allowed = yes
				NOT = { has_country_flag = Eugenio_De_Rossi_unavailable }
			}
			cost = 150
			removal_cost = 10
			traits = { ideology_D HoI_Technical_Specialist }
		}
	# Vincenzo Garioni
		ITA_HoI_Vincenzo_Garioni = {
			picture = Generic_Portrait
			allowed = { tag = ITA }
			visible = {
				date > 1914.1.1
				date < 1932.1.1
				ML_Minister_Allowed = yes
				NOT = { has_country_flag = Vincenzo_Garioni_unavailable }
			}
			cost = 150
			removal_cost = 10
			traits = { ideology_D HoI_Technical_Specialist }
		}
	# Felice de Chaurand
		ITA_HoI_Felice_de_Chaurand = {
			picture = Generic_Portrait
			allowed = { tag = ITA }
			visible = {
				date > 1914.1.1
				date < 1932.1.1
				ML_Minister_Allowed = yes
				NOT = { has_country_flag = Felice_de_Chaurand_unavailable }
			}
			cost = 150
			removal_cost = 10
			traits = { ideology_D HoI_Logistics_Specialist }
		}
	# Rosolino Poggi
		ITA_HoI_Rosolino_Poggi = {
			picture = Generic_Portrait
			allowed = { tag = ITA }
			visible = {
				date > 1914.1.1
				date < 1932.1.1
				ML_Minister_Allowed = yes
				NOT = { has_country_flag = Rosolino_Poggi_unavailable }
			}
			cost = 150
			removal_cost = 10
			traits = { ideology_D HoI_Dismal_Enigma }
		}
	# Giovanni Garruccio Melis
		ITA_HoI_Giovanni_Garruccio_Melis = {
			picture = Generic_Portrait
			allowed = { tag = ITA }
			visible = {
				date > 1915.1.1
				date < 1932.1.1
				ML_Minister_Allowed = yes
				NOT = { has_country_flag = Giovanni_Garruccio_Melis_unavailable }
			}
			cost = 150
			removal_cost = 10
			traits = { ideology_D HoI_Dismal_Enigma }
		}
	# Odoardo Marchetti
		ITA_HoI_Odoardo_Marchetti = {
			picture = Generic_Portrait
			allowed = { tag = ITA }
			visible = {
				date > 1917.1.1
				date < 1932.1.1
				ML_Minister_Allowed = yes
				NOT = { has_country_flag = Odoardo_Marchetti_unavailable }
			}
			cost = 150
			removal_cost = 10
			traits = { ideology_D HoI_Dismal_Enigma }
		}
	# A. de Marinis de Ricia
		ITA_HoI_A_de_Marinis_de_Ricia = {
			picture = Generic_Portrait
			allowed = { tag = ITA }
			visible = {
				date > 1933.1.1
				date < 1964.1.1
				SL_Minister_Allowed = yes
				NOT = { has_country_flag = A_de_Marinis_de_Ricia_unavailable }
			}
			cost = 150
			removal_cost = 10
			traits = { ideology_D HoI_Technical_Specialist }
		}
	# Emilio Pagliano
		ITA_HoI_Emilio_Pagliano = {
			picture = Generic_Portrait
			allowed = { tag = ITA }
			visible = {
				date > 1944.1.1
				date < 1964.1.1
				SL_Minister_Allowed = yes
				NOT = { has_country_flag = Emilio_Pagliano_unavailable }
			}
			cost = 150
			removal_cost = 10
			traits = { ideology_D HoI_Industrial_Specialist }
		}
	# Fulvio Martini
		ITA_HoI_Fulvio_Martini = {
			picture = Generic_Portrait
			allowed = { tag = ITA }
			visible = {
				date > 1985.1.1
				date < 1992.1.1
				SD_Minister_Allowed = yes
				NOT = { has_country_flag = Fulvio_Martini_unavailable }
			}
			cost = 150
			removal_cost = 10
			traits = { ideology_D HoI_Industrial_Specialist }
		}
	# Antonio Pesenti
		ITA_HoI_Antonio_Pesenti = {
			picture = Generic_Portrait
			allowed = { tag = ITA }
			visible = {
				date > 1933.1.1
				date < 1964.1.1
				LWR_Minister_Allowed = yes
				NOT = { has_country_flag = Antonio_Pesenti_unavailable }
			}
			cost = 150
			removal_cost = 10
			traits = { ideology_S HoI_Technical_Specialist }
		}
	# Guiseppe di Vittorio
		ITA_HoI_Guiseppe_di_Vittorio = {
			picture = Generic_Portrait
			allowed = { tag = ITA }
			visible = {
				date > 1933.1.1
				date < 1964.1.1
				LE_Minister_Allowed = yes
				NOT = { has_country_flag = Guiseppe_di_Vittorio_unavailable }
			}
			cost = 150
			removal_cost = 10
			traits = { ideology_C HoI_Political_Specialist }
		}
	# Palmiro Togliatti
		ITA_HoI_Palmiro_Togliatti = {
			picture = Generic_Portrait
			allowed = { tag = ITA }
			visible = {
				date > 1939.1.1
				date < 1964.1.1
				LE_Minister_Allowed = yes
				NOT = { has_country_flag = Palmiro_Togliatti_unavailable }
			}
			cost = 150
			removal_cost = 10
			traits = { ideology_C HoI_Technical_Specialist }
		}
}
#################################################
### Chief of Staff
#################################################
	Chief_of_Staff = {
	# Achille Starace
		ITA_CoStaff_Achille_Starace = {
			picture = Generic_Portrait
			allowed = { tag = ITA }
			visible = {
				date > 1933.1.1
				date < 1964.1.1
				NS_Minister_Allowed = yes
				NOT = { has_country_flag = Achille_Starace_unavailable }
			}
			cost = 150
			removal_cost = 10
			traits = { ideology_F CoStaff_School_Of_Psychology }
		}
	# Vito Catastini
		ITA_CoStaff_Vito_Catastini = {
			picture = Generic_Portrait
			allowed = { tag = ITA }
			visible = {
				date > 1945.1.1
				date < 1964.1.1
				NS_Minister_Allowed = yes
				NOT = { has_country_flag = Vito_Catastini_unavailable }
			}
			cost = 150
			removal_cost = 10
			traits = { ideology_F CoStaff_School_Of_Manoeuvre }
		}
	# Gabriele d'Annunzio
		ITA_CoStaff_Gabriele_dAnnunzio = {
			picture = Generic_Portrait
			allowed = { tag = ITA }
			visible = {
				date > 1920.1.1
				date < 1932.1.1
				FA_Minister_Allowed = yes
				NOT = { has_country_flag = Gabriele_dAnnunzio_unavailable }
			}
			cost = 150
			removal_cost = 10
			traits = { ideology_F CoStaff_School_Of_Mass_Combat }
		}
	# Francesco Grazioli
		ITA_CoStaff_Francesco_Grazioli = {
			picture = Generic_Portrait
			allowed = { tag = ITA }
			visible = {
				date > 1933.1.1
				date < 1964.1.1
				FA_Minister_Allowed = yes
				NOT = { has_country_flag = Francesco_Grazioli_unavailable }
			}
			cost = 150
			removal_cost = 10
			traits = { ideology_F CoStaff_School_Of_Mass_Combat }
		}
	# Ugo Cavallero
		ITA_CoStaff_Ugo_Cavallero = {
			picture = Generic_Portrait
			allowed = { tag = ITA }
			visible = {
				date > 1933.1.1
				date < 1964.1.1
				FA_Minister_Allowed = yes
				NOT = { has_country_flag = Ugo_Cavallero_unavailable }
			}
			cost = 150
			removal_cost = 10
			traits = { ideology_F CoStaff_School_Of_Manoeuvre }
		}
	# Pietro Badoglio
		ITA_CoStaff_Pietro_Badoglio = {
			picture = Generic_Portrait
			allowed = { tag = ITA }
			visible = {
				date > 1933.1.1
				date < 1964.1.1
				PA_Minister_Allowed = yes
				NOT = { has_country_flag = Pietro_Badoglio_unavailable }
			}
			cost = 150
			removal_cost = 10
			traits = { ideology_A CoStaff_School_Of_Mass_Combat }
		}
	# Vittorio Ambrosio
		ITA_CoStaff_Vittorio_Ambrosio = {
			picture = Generic_Portrait
			allowed = { tag = ITA }
			visible = {
				date > 1933.1.1
				date < 1964.1.1
				PA_Minister_Allowed = yes
				NOT = { has_country_flag = Vittorio_Ambrosio_unavailable }
			}
			cost = 150
			removal_cost = 10
			traits = { ideology_A CoStaff_School_Of_Psychology }
		}
	# Mario Cingolani
		ITA_CoStaff_Mario_Cingolani = {
			picture = Generic_Portrait
			allowed = { tag = ITA }
			visible = {
				date > 1933.1.1
				date < 1964.1.1
				SC_Minister_Allowed = yes
				NOT = { has_country_flag = Mario_Cingolani_unavailable }
			}
			cost = 150
			removal_cost = 10
			traits = { ideology_D CoStaff_School_Of_Fire_Support }
		}
	# Ettore Conti
		ITA_CoStaff_Ettore_Conti = {
			picture = Generic_Portrait
			allowed = { tag = ITA }
			visible = {
				date > 1945.1.1
				date < 1964.1.1
				SC_Minister_Allowed = yes
				NOT = { has_country_flag = Ettore_Conti_unavailable }
			}
			cost = 150
			removal_cost = 10
			traits = { ideology_D CoStaff_School_Of_Manoeuvre }
		}
	# Randolfo Pacciardi
		ITA_CoStaff_Randolfo_Pacciardi = {
			picture = Generic_Portrait
			allowed = { tag = ITA }
			visible = {
				date > 1946.1.1
				date < 1964.1.1
				SC_Minister_Allowed = yes
				NOT = { has_country_flag = Randolfo_Pacciardi_unavailable }
			}
			cost = 150
			removal_cost = 10
			traits = { ideology_D CoStaff_School_Of_Defence }
		}
	# Luigi Cadorna
		ITA_CoStaff_Luigi_Cadorna = {
			picture = Generic_Portrait
			allowed = { tag = ITA }
			visible = {
				date > 1914.1.1
				date < 1932.1.1
				ML_Minister_Allowed = yes
				NOT = { has_country_flag = Luigi_Cadorna_unavailable }
			}
			cost = 150
			removal_cost = 10
			traits = { ideology_D CoStaff_Stubborn_Disciplinarian }
		}
	# Domenico Grandi
		ITA_CoStaff_Domenico_Grandi = {
			picture = Generic_Portrait
			allowed = { tag = ITA }
			visible = {
				date > 1914.1.1
				date < 1932.1.1
				ML_Minister_Allowed = yes
				NOT = { has_country_flag = Domenico_Grandi_unavailable }
			}
			cost = 150
			removal_cost = 10
			traits = { ideology_D CoStaff_School_Of_Defence }
		}
	# Luigi Pelloux
		ITA_CoStaff_Luigi_Pelloux = {
			picture = Generic_Portrait
			allowed = { tag = ITA }
			visible = {
				date > 1914.1.1
				date < 1932.1.1
				ML_Minister_Allowed = yes
				NOT = { has_country_flag = Luigi_Pelloux_unavailable }
			}
			cost = 150
			removal_cost = 10
			traits = { ideology_D CoStaff_School_Of_Defence }
		}
	# Alberto Pollio
		ITA_CoStaff_Alberto_Pollio = {
			picture = Generic_Portrait
			allowed = { tag = ITA }
			visible = {
				date > 1914.1.1
				date < 1932.1.1
				ML_Minister_Allowed = yes
				NOT = { has_country_flag = Alberto_Pollio_unavailable }
			}
			cost = 150
			removal_cost = 10
			traits = { ideology_D CoStaff_School_Of_Fire_Support }
		}
	# Paolo Spingardi
		ITA_CoStaff_Paolo_Spingardi = {
			picture = Generic_Portrait
			allowed = { tag = ITA }
			visible = {
				date > 1914.1.1
				date < 1932.1.1
				ML_Minister_Allowed = yes
				NOT = { has_country_flag = Paolo_Spingardi_unavailable }
			}
			cost = 150
			removal_cost = 10
			traits = { ideology_D CoStaff_School_Of_Fire_Support }
		}
	# Vittorio Italico Zupelli
		ITA_CoStaff_Vittorio_Italico_Zupelli = {
			picture = Generic_Portrait
			allowed = { tag = ITA }
			visible = {
				date > 1914.1.1
				date < 1932.1.1
				ML_Minister_Allowed = yes
				NOT = { has_country_flag = Vittorio_Italico_Zupelli_unavailable }
			}
			cost = 150
			removal_cost = 10
			traits = { ideology_D CoStaff_School_Of_Manoeuvre }
		}
	# Armando Diaz
		ITA_CoStaff_Armando_Diaz = {
			picture = Generic_Portrait
			allowed = { tag = ITA }
			visible = {
				date > 1916.1.1
				date < 1932.1.1
				ML_Minister_Allowed = yes
				NOT = { has_country_flag = Armando_Diaz_unavailable }
			}
			cost = 150
			removal_cost = 10
			traits = { ideology_D CoStaff_School_Of_Defence }
		}
	# Paolo Morrone
		ITA_CoStaff_Paolo_Morrone = {
			picture = Generic_Portrait
			allowed = { tag = ITA }
			visible = {
				date > 1916.1.1
				date < 1932.1.1
				ML_Minister_Allowed = yes
				NOT = { has_country_flag = Paolo_Morrone_unavailable }
			}
			cost = 150
			removal_cost = 10
			traits = { ideology_D CoStaff_School_Of_Mass_Combat }
		}
	# Gaetano Ettore Giardino
		ITA_CoStaff_Gaetano_Ettore_Giardino = {
			picture = Generic_Portrait
			allowed = { tag = ITA }
			visible = {
				date > 1917.1.1
				date < 1932.1.1
				ML_Minister_Allowed = yes
				NOT = { has_country_flag = Gaetano_Ettore_Giardino_unavailable }
			}
			cost = 150
			removal_cost = 10
			traits = { ideology_D CoStaff_School_Of_Defence }
		}
	# Pietro Badoglio
		ITA_CoStaff_Pietro_Badoglio_2 = {
			picture = Generic_Portrait
			allowed = { tag = ITA }
			visible = {
				date > 1919.1.1
				date < 1932.1.1
				ML_Minister_Allowed = yes
				NOT = { has_country_flag = Pietro_Badoglio_unavailable }
			}
			cost = 150
			removal_cost = 10
			traits = { ideology_D CoStaff_School_Of_Defence }
		}
	# Giuseppe Vaccari
		ITA_CoStaff_Giuseppe_Vaccari = {
			picture = Generic_Portrait
			allowed = { tag = ITA }
			visible = {
				date > 1921.1.1
				date < 1932.1.1
				ML_Minister_Allowed = yes
				NOT = { has_country_flag = Giuseppe_Vaccari_unavailable }
			}
			cost = 150
			removal_cost = 10
			traits = { ideology_D CoStaff_School_Of_Fire_Support }
		}
	# Claudio Trezzani
		ITA_CoStaff_Claudio_Trezzani = {
			picture = Generic_Portrait
			allowed = { tag = ITA }
			visible = {
				date > 1945.1.1
				date < 1964.1.1
				ML_Minister_Allowed = yes
				NOT = { has_country_flag = Claudio_Trezzani_unavailable }
			}
			cost = 150
			removal_cost = 10
			traits = { ideology_D CoStaff_School_Of_Defence }
		}
	# Louis Efisio Marras
		ITA_CoStaff_Louis_Efisio_Marras = {
			picture = Generic_Portrait
			allowed = { tag = ITA }
			visible = {
				date > 1950.1.1
				date < 1964.1.1
				ML_Minister_Allowed = yes
				NOT = { has_country_flag = Louis_Efisio_Marras_unavailable }
			}
			cost = 150
			removal_cost = 10
			traits = { ideology_D CoStaff_School_Of_Mass_Combat }
		}
	# Giuseppe Mancinelli
		ITA_CoStaff_Giuseppe_Mancinelli = {
			picture = Generic_Portrait
			allowed = { tag = ITA }
			visible = {
				date > 1954.1.1
				date < 1964.1.1
				ML_Minister_Allowed = yes
				NOT = { has_country_flag = Giuseppe_Mancinelli_unavailable }
			}
			cost = 150
			removal_cost = 10
			traits = { ideology_D CoStaff_School_Of_Defence }
		}
	# Aldo Rossi
		ITA_CoStaff_Aldo_Rossi = {
			picture = Generic_Portrait
			allowed = { tag = ITA }
			visible = {
				date > 1959.1.1
				date < 1964.1.1
				ML_Minister_Allowed = yes
				NOT = { has_country_flag = Aldo_Rossi_unavailable }
			}
			cost = 150
			removal_cost = 10
			traits = { ideology_D CoStaff_School_Of_Fire_Support }
		}
	# Giuseppe Ettore Viganò
		ITA_CoStaff_Giuseppe_Ettore_Vigano = {
			picture = Generic_Portrait
			allowed = { tag = ITA }
			visible = {
				date > 1914.1.1
				date < 1932.1.1
				SL_Minister_Allowed = yes
				NOT = { has_country_flag = Giuseppe_Ettore_Vigano_unavailable }
			}
			cost = 150
			removal_cost = 10
			traits = { ideology_D CoStaff_School_Of_Defence }
		}
	# Vittorio Alfieri
		ITA_CoStaff_Vittorio_Alfieri = {
			picture = Generic_Portrait
			allowed = { tag = ITA }
			visible = {
				date > 1917.1.1
				date < 1932.1.1
				SL_Minister_Allowed = yes
				NOT = { has_country_flag = Vittorio_Alfieri_unavailable }
			}
			cost = 150
			removal_cost = 10
			traits = { ideology_D CoStaff_School_Of_Fire_Support }
		}
	# Vittorio Italico Zupelli
		ITA_CoStaff_Vittorio_Italico_Zupelli_2 = {
			picture = Generic_Portrait
			allowed = { tag = ITA }
			visible = {
				date > 1918.1.1
				date < 1932.1.1
				SL_Minister_Allowed = yes
				NOT = { has_country_flag = Vittorio_Italico_Zupelli_unavailable }
			}
			cost = 150
			removal_cost = 10
			traits = { ideology_D CoStaff_School_Of_Manoeuvre }
		}
	# Enrico Caviglia
		ITA_CoStaff_Enrico_Caviglia = {
			picture = Generic_Portrait
			allowed = { tag = ITA }
			visible = {
				date > 1919.1.1
				date < 1932.1.1
				SL_Minister_Allowed = yes
				NOT = { has_country_flag = Enrico_Caviglia_unavailable }
			}
			cost = 150
			removal_cost = 10
			traits = { ideology_D CoStaff_School_Of_Manoeuvre }
		}
	# Alessandro Casati
		ITA_CoStaff_Alessandro_Casati = {
			picture = Generic_Portrait
			allowed = { tag = ITA }
			visible = {
				date > 1941.1.1
				date < 1964.1.1
				SL_Minister_Allowed = yes
				NOT = { has_country_flag = Alessandro_Casati_unavailable }
			}
			cost = 150
			removal_cost = 10
			traits = { ideology_D CoStaff_School_Of_Defence }
		}
	# Cipriano Facchinetti
		ITA_CoStaff_Cipriano_Facchinetti = {
			picture = Generic_Portrait
			allowed = { tag = ITA }
			visible = {
				date > 1943.1.1
				date < 1964.1.1
				SL_Minister_Allowed = yes
				NOT = { has_country_flag = Cipriano_Facchinetti_unavailable }
			}
			cost = 150
			removal_cost = 10
			traits = { ideology_D CoStaff_School_Of_Mass_Combat }
		}
	# Luigi Gasparotto
		ITA_CoStaff_Luigi_Gasparotto = {
			picture = Generic_Portrait
			allowed = { tag = ITA }
			visible = {
				date > 1943.1.1
				date < 1964.1.1
				SL_Minister_Allowed = yes
				NOT = { has_country_flag = Luigi_Gasparotto_unavailable }
			}
			cost = 150
			removal_cost = 10
			traits = { ideology_D CoStaff_School_Of_Manoeuvre }
		}
	# Lamberto Bartolucci
		ITA_CoStaff_Lamberto_Bartolucci = {
			picture = Generic_Portrait
			allowed = { tag = ITA }
			visible = {
				date > 1985.1.1
				date < 1992.1.1
				SD_Minister_Allowed = yes
				NOT = { has_country_flag = Lamberto_Bartolucci_unavailable }
			}
			cost = 150
			removal_cost = 10
			traits = { ideology_D CoStaff_School_Of_Mass_Combat }
		}
	# Luigi Longo
		ITA_CoStaff_Luigi_Longo = {
			picture = Generic_Portrait
			allowed = { tag = ITA }
			visible = {
				date > 1933.1.1
				date < 1964.1.1
				LWR_Minister_Allowed = yes
				NOT = { has_country_flag = Luigi_Longo_unavailable }
			}
			cost = 150
			removal_cost = 10
			traits = { ideology_S CoStaff_School_Of_Mass_Combat }
		}
}
#################################################
### Chief of Army
#################################################
	Chief_of_Army = {
	# Junio Borghese
		ITA_CoArmy_Junio_Borghese = {
			picture = Generic_Portrait
			allowed = { tag = ITA }
			visible = {
				date > 1943.1.1
				date < 1964.1.1
				NS_Minister_Allowed = yes
				NOT = { has_country_flag = Junio_Borghese_unavailable }
			}
			cost = 150
			removal_cost = 10
			traits = { ideology_F CoArmy_Commando_Doctrine_Army }
		}
	# Gabriele d'Annunzio
		ITA_CoArmy_Gabriele_dAnnunzio = {
			picture = Generic_Portrait
			allowed = { tag = ITA }
			visible = {
				date > 1920.1.1
				date < 1932.1.1
				FA_Minister_Allowed = yes
				NOT = { has_country_flag = Gabriele_dAnnunzio_unavailable }
			}
			cost = 150
			removal_cost = 10
			traits = { ideology_F CoArmy_Guns_And_Butter_Doctrine }
		}
	# Alberto Pariani
		ITA_CoArmy_Alberto_Pariani = {
			picture = Generic_Portrait
			allowed = { tag = ITA }
			visible = {
				date > 1933.1.1
				date < 1964.1.1
				FA_Minister_Allowed = yes
				NOT = { has_country_flag = Alberto_Pariani_unavailable }
			}
			cost = 150
			removal_cost = 10
			traits = { ideology_F CoArmy_Undersecretary_Of_War }
		}
	# Federico Baistrocchi
		ITA_CoArmy_Federico_Baistrocchi = {
			picture = Generic_Portrait
			allowed = { tag = ITA }
			visible = {
				date > 1933.1.1
				date < 1964.1.1
				FA_Minister_Allowed = yes
				NOT = { has_country_flag = Federico_Baistrocchi_unavailable }
			}
			cost = 150
			removal_cost = 10
			traits = { ideology_F CoArmy_Decisive_Battle_Doctrine }
		}
	# Rodolfo Graziani
		ITA_CoArmy_Rodolfo_Graziani = {
			picture = Generic_Portrait
			allowed = { tag = ITA }
			visible = {
				date > 1933.1.1
				date < 1964.1.1
				FA_Minister_Allowed = yes
				NOT = { has_country_flag = Rodolfo_Graziani_unavailable }
			}
			cost = 150
			removal_cost = 10
			traits = { ideology_F CoArmy_Decisive_Battle_Doctrine }
		}
	# Mario Roatta
		ITA_CoArmy_Mario_Roatta = {
			picture = Generic_Portrait
			allowed = { tag = ITA }
			visible = {
				date > 1933.1.1
				date < 1964.1.1
				FA_Minister_Allowed = yes
				NOT = { has_country_flag = Mario_Roatta_unavailable }
			}
			cost = 150
			removal_cost = 10
			traits = { ideology_F CoArmy_Armoured_Spearhead_Doctrine }
		}
	# Vittorio Ambrosio
		ITA_CoArmy_Vittorio_Ambrosio = {
			picture = Generic_Portrait
			allowed = { tag = ITA }
			visible = {
				date > 1933.1.1
				date < 1964.1.1
				SC_Minister_Allowed = yes
				NOT = { has_country_flag = Vittorio_Ambrosio_unavailable }
			}
			cost = 150
			removal_cost = 10
			traits = { ideology_D CoArmy_Static_Defence_Doctrine }
		}
	# Dionisio Ancelotti
		ITA_CoArmy_Dionisio_Ancelotti = {
			picture = Generic_Portrait
			allowed = { tag = ITA }
			visible = {
				date > 1941.1.1
				date < 1964.1.1
				SC_Minister_Allowed = yes
				NOT = { has_country_flag = Dionisio_Ancelotti_unavailable }
			}
			cost = 150
			removal_cost = 10
			traits = { ideology_D CoArmy_Guns_And_Butter_Doctrine }
		}
	# Enrico Mattei
		ITA_CoArmy_Enrico_Mattei = {
			picture = Generic_Portrait
			allowed = { tag = ITA }
			visible = {
				date > 1943.1.1
				date < 1964.1.1
				SC_Minister_Allowed = yes
				NOT = { has_country_flag = Enrico_Mattei_unavailable }
			}
			cost = 150
			removal_cost = 10
			traits = { ideology_D CoArmy_Decisive_Battle_Doctrine }
		}
	# Enrico Mattei
		ITA_CoArmy_Enrico_Mattei_2 = {
			picture = Generic_Portrait
			allowed = { tag = ITA }
			visible = {
				date > 1943.1.1
				date < 1964.1.1
				SC_Minister_Allowed = yes
				NOT = { has_country_flag = Enrico_Mattei_unavailable }
			}
			cost = 150
			removal_cost = 10
			traits = { ideology_D CoArmy_Decisive_Battle_Doctrine }
		}
	# Carlo Porro
		ITA_CoArmy_Carlo_Porro = {
			picture = Generic_Portrait
			allowed = { tag = ITA }
			visible = {
				date > 1911.1.1
				date < 1918.1.1
				ML_Minister_Allowed = yes
				NOT = { has_country_flag = Carlo_Porro_unavailable }
			}
			cost = 150
			removal_cost = 10
			traits = { ideology_D CoArmy_Guns_And_Butter_Doctrine }
		}
	# Luigi Cadorna
		ITA_CoArmy_Luigi_Cadorna = {
			picture = Generic_Portrait
			allowed = { tag = ITA }
			visible = {
				date > 1914.1.1
				date < 1932.1.1
				ML_Minister_Allowed = yes
				NOT = { has_country_flag = Luigi_Cadorna_unavailable }
			}
			cost = 150
			removal_cost = 10
			traits = { ideology_D CoArmy_Decisive_Battle_Doctrine }
		}
	# Alberto Pollio
		ITA_CoArmy_Alberto_Pollio = {
			picture = Generic_Portrait
			allowed = { tag = ITA }
			visible = {
				date > 1914.1.1
				date < 1932.1.1
				ML_Minister_Allowed = yes
				NOT = { has_country_flag = Alberto_Pollio_unavailable }
			}
			cost = 150
			removal_cost = 10
			traits = { ideology_D CoArmy_Guns_And_Butter_Doctrine }
		}
	# Armando Diaz
		ITA_CoArmy_Armando_Diaz = {
			picture = Generic_Portrait
			allowed = { tag = ITA }
			visible = {
				date > 1916.1.1
				date < 1932.1.1
				ML_Minister_Allowed = yes
				NOT = { has_country_flag = Armando_Diaz_unavailable }
			}
			cost = 150
			removal_cost = 10
			traits = { ideology_D CoArmy_Static_Defence_Doctrine }
		}
	# Pietro Badoglio
		ITA_CoArmy_Pietro_Badoglio = {
			picture = Generic_Portrait
			allowed = { tag = ITA }
			visible = {
				date > 1919.1.1
				date < 1932.1.1
				ML_Minister_Allowed = yes
				NOT = { has_country_flag = Pietro_Badoglio_unavailable }
			}
			cost = 150
			removal_cost = 10
			traits = { ideology_D CoArmy_Elastic_Defence_Doctrine }
		}
	# Giuseppe Vaccari
		ITA_CoArmy_Giuseppe_Vaccari = {
			picture = Generic_Portrait
			allowed = { tag = ITA }
			visible = {
				date > 1921.1.1
				date < 1932.1.1
				ML_Minister_Allowed = yes
				NOT = { has_country_flag = Giuseppe_Vaccari_unavailable }
			}
			cost = 150
			removal_cost = 10
			traits = { ideology_D CoArmy_Decisive_Battle_Doctrine }
		}
	# Raffaele Cadorna Jr.
		ITA_CoArmy_Raffaele_Cadorna_Jr = {
			picture = Generic_Portrait
			allowed = { tag = ITA }
			visible = {
				date > 1945.1.1
				date < 1964.1.1
				ML_Minister_Allowed = yes
				NOT = { has_country_flag = Raffaele_Cadorna_Jr_unavailable }
			}
			cost = 150
			removal_cost = 10
			traits = { ideology_D CoArmy_Elastic_Defence_Doctrine }
		}
	# Louis Efisio Marras
		ITA_CoArmy_Louis_Efisio_Marras = {
			picture = Generic_Portrait
			allowed = { tag = ITA }
			visible = {
				date > 1947.1.1
				date < 1964.1.1
				ML_Minister_Allowed = yes
				NOT = { has_country_flag = Louis_Efisio_Marras_unavailable }
			}
			cost = 150
			removal_cost = 10
			traits = { ideology_D CoArmy_Decisive_Battle_Doctrine }
		}
	# Ernesto Cappa
		ITA_CoArmy_Ernesto_Cappa = {
			picture = Generic_Portrait
			allowed = { tag = ITA }
			visible = {
				date > 1950.1.1
				date < 1965.1.1
				ML_Minister_Allowed = yes
				NOT = { has_country_flag = Ernesto_Cappa_unavailable }
			}
			cost = 150
			removal_cost = 10
			traits = { ideology_D CoArmy_Guns_And_Butter_Doctrine }
		}
	# Giuseppe Pizzorno
		ITA_CoArmy_Giuseppe_Pizzorno = {
			picture = Generic_Portrait
			allowed = { tag = ITA }
			visible = {
				date > 1952.1.1
				date < 1965.1.1
				ML_Minister_Allowed = yes
				NOT = { has_country_flag = Giuseppe_Pizzorno_unavailable }
			}
			cost = 150
			removal_cost = 10
			traits = { ideology_D CoArmy_Static_Defence_Doctrine }
		}
	# Giorgio Liuzzi
		ITA_CoArmy_Giorgio_Liuzzi = {
			picture = Generic_Portrait
			allowed = { tag = ITA }
			visible = {
				date > 1954.1.1
				date < 1965.1.1
				ML_Minister_Allowed = yes
				NOT = { has_country_flag = Giorgio_Liuzzi_unavailable }
			}
			cost = 150
			removal_cost = 10
			traits = { ideology_D CoArmy_Guns_And_Butter_Doctrine }
		}
	# Bruno Lucini
		ITA_CoArmy_Bruno_Lucini = {
			picture = Generic_Portrait
			allowed = { tag = ITA }
			visible = {
				date > 1959.1.1
				date < 1965.1.1
				ML_Minister_Allowed = yes
				NOT = { has_country_flag = Bruno_Lucini_unavailable }
			}
			cost = 150
			removal_cost = 10
			traits = { ideology_D CoArmy_Decisive_Battle_Doctrine }
		}
	# Antonio Gualano
		ITA_CoArmy_Antonio_Gualano = {
			picture = Generic_Portrait
			allowed = { tag = ITA }
			visible = {
				date > 1960.1.1
				date < 1965.1.1
				ML_Minister_Allowed = yes
				NOT = { has_country_flag = Antonio_Gualano_unavailable }
			}
			cost = 150
			removal_cost = 10
			traits = { ideology_D CoArmy_Guns_And_Butter_Doctrine }
		}
	# Giuseppe Aloia
		ITA_CoArmy_Giuseppe_Aloia = {
			picture = Generic_Portrait
			allowed = { tag = ITA }
			visible = {
				date > 1962.1.1
				date < 1965.1.1
				ML_Minister_Allowed = yes
				NOT = { has_country_flag = Giuseppe_Aloia_unavailable }
			}
			cost = 150
			removal_cost = 10
			traits = { ideology_D CoArmy_Static_Defence_Doctrine }
		}
	# Umberto Cappuzzo
		ITA_CoArmy_Umberto_Cappuzzo = {
			picture = Generic_Portrait
			allowed = { tag = ITA }
			visible = {
				date > 1985.1.1
				date < 1992.1.1
				ML_Minister_Allowed = yes
				NOT = { has_country_flag = Umberto_Cappuzzo_unavailable }
			}
			cost = 150
			removal_cost = 10
			traits = { ideology_D CoArmy_Guns_And_Butter_Doctrine }
		}
	# A. de Marinis de Ricia
		ITA_CoArmy_A_de_Marinis_de_Ricia = {
			picture = Generic_Portrait
			allowed = { tag = ITA }
			visible = {
				date > 1933.1.1
				date < 1964.1.1
				SL_Minister_Allowed = yes
				NOT = { has_country_flag = A_de_Marinis_de_Ricia_unavailable }
			}
			cost = 150
			removal_cost = 10
			traits = { ideology_D CoArmy_Elastic_Defence_Doctrine }
		}
	# Giancarlo Pajetta
		ITA_CoArmy_Giancarlo_Pajetta = {
			picture = Generic_Portrait
			allowed = { tag = ITA }
			visible = {
				date > 1933.1.1
				date < 1964.1.1
				LWR_Minister_Allowed = yes
				NOT = { has_country_flag = Giancarlo_Pajetta_unavailable }
			}
			cost = 150
			removal_cost = 10
			traits = { ideology_S CoArmy_Guns_And_Butter_Doctrine }
		}
}
#################################################
### Chief of Navy
#################################################
	Chief_of_Navy = {
	# Paolo Thaon di Revel
		ITA_CoNavy_Paolo_Thaon_di_Revel_3 = {
			picture = Generic_Portrait
			allowed = { tag = ITA }
			visible = {
				date > 1920.1.1
				date < 1932.1.1
				NS_Minister_Allowed = yes
				NOT = { has_country_flag = Paolo_Thaon_di_Revel_unavailable }
			}
			cost = 150
			removal_cost = 10
			traits = { ideology_F CoNavy_Open_Seas_Doctrine }
		}
	# Paolo Thaon di Revel
		ITA_CoNavy_Paolo_Thaon_di_Revel = {
			picture = Generic_Portrait
			allowed = { tag = ITA }
			visible = {
				date > 1933.1.1
				date < 1964.1.1
				NS_Minister_Allowed = yes
				NOT = { has_country_flag = Paolo_Thaon_di_Revel_unavailable }
			}
			cost = 150
			removal_cost = 10
			traits = { ideology_F CoNavy_Open_Seas_Doctrine }
		}
	# Alfredo Rocco
		ITA_CoNavy_Alfredo_Rocco = {
			picture = Generic_Portrait
			allowed = { tag = ITA }
			visible = {
				date > 1933.1.1
				date < 1964.1.1
				NS_Minister_Allowed = yes
				NOT = { has_country_flag = Alfredo_Rocco_unavailable }
			}
			cost = 150
			removal_cost = 10
			traits = { ideology_F CoNavy_Decisive_Naval_Battle_Doctrine }
		}
	# Domenico Cavagnari
		ITA_CoNavy_Domenico_Cavagnari = {
			picture = Generic_Portrait
			allowed = { tag = ITA }
			visible = {
				date > 1933.1.1
				date < 1964.1.1
				FA_Minister_Allowed = yes
				NOT = { has_country_flag = Domenico_Cavagnari_unavailable }
			}
			cost = 150
			removal_cost = 10
			traits = { ideology_F CoNavy_Old_School_Admiral }
		}
	# Arturo Riccardi
		ITA_CoNavy_Arturo_Riccardi = {
			picture = Generic_Portrait
			allowed = { tag = ITA }
			visible = {
				date > 1933.1.1
				date < 1964.1.1
				FA_Minister_Allowed = yes
				NOT = { has_country_flag = Arturo_Riccardi_unavailable }
			}
			cost = 150
			removal_cost = 10
			traits = { ideology_F CoNavy_Indirect_Approach_Doctrine }
		}
	# Dino Grandi
		ITA_CoNavy_Dino_Grandi = {
			picture = Generic_Portrait
			allowed = { tag = ITA }
			visible = {
				date > 1933.1.1
				date < 1964.1.1
				PA_Minister_Allowed = yes
				NOT = { has_country_flag = Dino_Grandi_unavailable }
			}
			cost = 150
			removal_cost = 10
			traits = { ideology_A CoNavy_Power_Projection_Doctrine }
		}
	# Raffaele de Courten
		ITA_CoNavy_Raffaele_de_Courten = {
			picture = Generic_Portrait
			allowed = { tag = ITA }
			visible = {
				date > 1933.1.1
				date < 1964.1.1
				SC_Minister_Allowed = yes
				NOT = { has_country_flag = Raffaele_de_Courten_unavailable }
			}
			cost = 150
			removal_cost = 10
			traits = { ideology_D CoNavy_Open_Seas_Doctrine }
		}
	# Allesandrino Ceresa
		ITA_CoNavy_Allesandrino_Ceresa = {
			picture = Generic_Portrait
			allowed = { tag = ITA }
			visible = {
				date > 1933.1.1
				date < 1964.1.1
				SC_Minister_Allowed = yes
				NOT = { has_country_flag = Allesandrino_Ceresa_unavailable }
			}
			cost = 150
			removal_cost = 10
			traits = { ideology_D CoNavy_Open_Seas_Doctrine }
		}
	# Paolo Thaon di Revel
		ITA_CoNavy_Paolo_Thaon_di_Revel_2 = {
			picture = Generic_Portrait
			allowed = { tag = ITA }
			visible = {
				date > 1914.1.1
				date < 1932.1.1
				ML_Minister_Allowed = yes
				NOT = { has_country_flag = Paolo_Thaon_di_Revel_unavailable }
			}
			cost = 150
			removal_cost = 10
			traits = { ideology_D CoNavy_Open_Seas_Doctrine }
		}
	# Leone Viale
		ITA_CoNavy_Leone_Viale = {
			picture = Generic_Portrait
			allowed = { tag = ITA }
			visible = {
				date > 1914.1.1
				date < 1932.1.1
				ML_Minister_Allowed = yes
				NOT = { has_country_flag = Leone_Viale_unavailable }
			}
			cost = 150
			removal_cost = 10
			traits = { ideology_D CoNavy_Base_Control_Doctrine }
		}
	# Camillo Corsi
		ITA_CoNavy_Camillo_Corsi = {
			picture = Generic_Portrait
			allowed = { tag = ITA }
			visible = {
				date > 1916.1.1
				date < 1932.1.1
				ML_Minister_Allowed = yes
				NOT = { has_country_flag = Camillo_Corsi_unavailable }
			}
			cost = 150
			removal_cost = 10
			traits = { ideology_D CoNavy_Decisive_Naval_Battle_Doctrine }
		}
	# Duca degli Abruzzi
		ITA_CoNavy_Duca_degli_Abruzzi = {
			picture = Generic_Portrait
			allowed = { tag = ITA }
			visible = {
				date > 1919.1.1
				date < 1932.1.1
				ML_Minister_Allowed = yes
				NOT = { has_country_flag = Duca_degli_Abruzzi_unavailable }
			}
			cost = 150
			removal_cost = 10
			traits = { ideology_D CoNavy_Decisive_Naval_Battle_Doctrine }
		}
	# Vittorio Scialoja
		ITA_CoNavy_Vittorio_Scialoja = {
			picture = Generic_Portrait
			allowed = { tag = ITA }
			visible = {
				date > 1946.1.1
				date < 1964.1.1
				SL_Minister_Allowed = yes
				NOT = { has_country_flag = Vittorio_Scialoja_unavailable }
			}
			cost = 150
			removal_cost = 10
			traits = { ideology_D CoNavy_Power_Projection_Doctrine }
		}
	# Vittorio Marulli
		ITA_CoNavy_Vittorio_Marulli = {
			picture = Generic_Portrait
			allowed = { tag = ITA }
			visible = {
				date > 1985.1.1
				date < 1992.1.1
				SL_Minister_Allowed = yes
				NOT = { has_country_flag = Vittorio_Marulli_unavailable }
			}
			cost = 150
			removal_cost = 10
			traits = { ideology_D CoNavy_Decisive_Naval_Battle_Doctrine }
		}
	# Giancarlo Pajetta
		ITA_CoNavy_Giancarlo_Pajetta = {
			picture = Generic_Portrait
			allowed = { tag = ITA }
			visible = {
				date > 1933.1.1
				date < 1964.1.1
				LWR_Minister_Allowed = yes
				NOT = { has_country_flag = Giancarlo_Pajetta_unavailable }
			}
			cost = 150
			removal_cost = 10
			traits = { ideology_S CoNavy_Open_Seas_Doctrine }
		}
}
#################################################
### Chief of Airforce
#################################################
	Chief_of_Airforce = {
	# Maurizio Moris
		ITA_CoAir_Maurizio_Moris = {
			picture = Generic_Portrait
			allowed = { tag = ITA }
			visible = {
				date > 1914.1.1
				date < 1933.1.1
				FA_Minister_Allowed = yes
				NOT = { has_country_flag = Maurizio_Moris_unavailable }
			}
			cost = 150
			removal_cost = 10
			traits = { ideology_F CoAir_Army_Aviation_Doctrine }
		}
	# Gabriele d'Annunzio
		ITA_CoAir_Gabriele_dAnnunzio = {
			picture = Generic_Portrait
			allowed = { tag = ITA }
			visible = {
				date > 1920.1.1
				date < 1932.1.1
				FA_Minister_Allowed = yes
				NOT = { has_country_flag = Gabriele_dAnnunzio_unavailable }
			}
			cost = 150
			removal_cost = 10
			traits = { ideology_F CoAir_Army_Aviation_Doctrine }
		}
	# Giuseppe Valle
		ITA_CoAir_Giuseppe_Valle = {
			picture = Generic_Portrait
			allowed = { tag = ITA }
			visible = {
				date > 1933.1.1
				date < 1964.1.1
				FA_Minister_Allowed = yes
				NOT = { has_country_flag = Giuseppe_Valle_unavailable }
			}
			cost = 150
			removal_cost = 10
			traits = { ideology_F CoAir_Army_Aviation_Doctrine }
		}
	# Francesco Pricolo
		ITA_CoAir_Francesco_Pricolo = {
			picture = Generic_Portrait
			allowed = { tag = ITA }
			visible = {
				date > 1933.1.1
				date < 1964.1.1
				FA_Minister_Allowed = yes
				NOT = { has_country_flag = Francesco_Pricolo_unavailable }
			}
			cost = 150
			removal_cost = 10
			traits = { ideology_F CoAir_Naval_Aviation_Doctrine }
		}
	# Rino Corso Fougier
		ITA_CoAir_Rino_Corso_Fougier = {
			picture = Generic_Portrait
			allowed = { tag = ITA }
			visible = {
				date > 1933.1.1
				date < 1964.1.1
				FA_Minister_Allowed = yes
				NOT = { has_country_flag = Rino_Corso_Fougier_unavailable }
			}
			cost = 150
			removal_cost = 10
			traits = { ideology_F CoAir_Air_Superiority_Doctrine }
		}
	# Renato Sandalli
		ITA_CoAir_Renato_Sandalli = {
			picture = Generic_Portrait
			allowed = { tag = ITA }
			visible = {
				date > 1943.1.1
				date < 1964.1.1
				PA_Minister_Allowed = yes
				NOT = { has_country_flag = Renato_Sandalli_unavailable }
			}
			cost = 150
			removal_cost = 10
			traits = { ideology_A CoAir_Army_Aviation_Doctrine }
		}
	# Tomasso Tittoni
		ITA_CoAir_Tomasso_Tittoni = {
			picture = Generic_Portrait
			allowed = { tag = ITA }
			visible = {
				date > 1933.1.1
				date < 1964.1.1
				SC_Minister_Allowed = yes
				NOT = { has_country_flag = Tomasso_Tittoni_unavailable }
			}
			cost = 150
			removal_cost = 10
			traits = { ideology_D CoAir_Army_Aviation_Doctrine }
		}
	# Pietro Piacentini
		ITA_CoAir_Pietro_Piacentini = {
			picture = Generic_Portrait
			allowed = { tag = ITA }
			visible = {
				date > 1943.1.1
				date < 1964.1.1
				SC_Minister_Allowed = yes
				NOT = { has_country_flag = Pietro_Piacentini_unavailable }
			}
			cost = 150
			removal_cost = 10
			traits = { ideology_D CoAir_Naval_Aviation_Doctrine }
		}
	# Antonio Scialoja
		ITA_CoAir_Antonio_Scialoja = {
			picture = Generic_Portrait
			allowed = { tag = ITA }
			visible = {
				date > 1943.1.1
				date < 1964.1.1
				SC_Minister_Allowed = yes
				NOT = { has_country_flag = Antonio_Scialoja_unavailable }
			}
			cost = 150
			removal_cost = 10
			traits = { ideology_D CoAir_Vertical_Envelopment_Doctrine }
		}
	# Mario Calderara
		ITA_CoAir_Mario_Calderara = {
			picture = Generic_Portrait
			allowed = { tag = ITA }
			visible = {
				date > 1914.1.1
				date < 1932.1.1
				ML_Minister_Allowed = yes
				NOT = { has_country_flag = Mario_Calderara_unavailable }
			}
			cost = 150
			removal_cost = 10
			traits = { ideology_D CoAir_Naval_Aviation_Doctrine }
		}
	# Giulio Douhet
		ITA_CoAir_Giulio_Douhet = {
			picture = Generic_Portrait
			allowed = { tag = ITA }
			visible = {
				date > 1914.1.1
				date < 1932.1.1
				ML_Minister_Allowed = yes
				NOT = { has_country_flag = Giulio_Douhet_unavailable }
			}
			cost = 150
			removal_cost = 10
			traits = { ideology_D CoAir_Carpet_Bombing_Doctrine }
		}
	# Luigi Gasparotto
		ITA_CoAir_Luigi_Gasparotto = {
			picture = Generic_Portrait
			allowed = { tag = ITA }
			visible = {
				date > 1943.1.1
				date < 1964.1.1
				SL_Minister_Allowed = yes
				NOT = { has_country_flag = Luigi_Gasparotto_unavailable }
			}
			cost = 150
			removal_cost = 10
			traits = { ideology_D CoAir_Army_Aviation_Doctrine }
		}
	# Basilio Cottone
		ITA_CoAir_Basilio_Cottone = {
			picture = Generic_Portrait
			allowed = { tag = ITA }
			visible = {
				date > 1985.1.1
				date < 1992.1.1
				SL_Minister_Allowed = yes
				NOT = { has_country_flag = Basilio_Cottone_unavailable }
			}
			cost = 150
			removal_cost = 10
			traits = { ideology_D CoAir_Army_Aviation_Doctrine }
		}
	}
}
