ideas = {
#################################################
### Head of Government
#################################################
	Head_of_Government = {
	# Alfreds Valdmanis
		LAT_HoG_Alfreds_Valdmanis = {
			picture = Generic_Portrait
			allowed = { tag = LAT }
			available = {
				date > 1941.1.1
				date < 1964.1.1
				NS_Minister_Allowed = yes
				NOT = { has_country_flag = Alfreds_Valdmanis_unavailable }
			}
			cost = 150
			removal_cost = 10
			traits = { ideology_F HoG_Smiling_Oilman }
		}
	# Oskars Dankers
		LAT_HoG_Oskars_Dankers = {
			picture = Generic_Portrait
			allowed = { tag = LAT }
			available = {
				date > 1941.1.1
				date < 1964.1.1
				NS_Minister_Allowed = yes
				NOT = { has_country_flag = Oskars_Dankers_unavailable }
			}
			cost = 150
			removal_cost = 10
			traits = { ideology_F HoG_Happy_Amateur }
		}
	# Kàrlis Ulmanis
		LAT_HoG_Karlis_Ulmanis = {
			picture = Generic_Portrait
			allowed = { tag = LAT }
			available = {
				date > 1933.1.1
				date < 1964.1.1
				FA_Minister_Allowed = yes
				NOT = { has_country_flag = Karlis_Ulmanis_unavailable }
			}
			cost = 150
			removal_cost = 10
			traits = { ideology_F HoG_Happy_Amateur }
		}
	# Jànis Kaminskis
		LAT_HoG_Janis_Kaminskis = {
			picture = Generic_Portrait
			allowed = { tag = LAT }
			available = {
				date > 1940.1.1
				date < 1964.1.1
				FA_Minister_Allowed = yes
				NOT = { has_country_flag = Janis_Kaminskis_unavailable }
			}
			cost = 150
			removal_cost = 10
			traits = { ideology_F HoG_Naive_Optimist }
		}
	# Rudolfs Bangerskis
		LAT_HoG_Rudolfs_Bangerskis = {
			picture = Generic_Portrait
			allowed = { tag = LAT }
			available = {
				date > 1945.1.1
				date < 1964.1.1
				PA_Minister_Allowed = yes
				NOT = { has_country_flag = Rudolfs_Bangerskis_unavailable }
			}
			cost = 150
			removal_cost = 10
			traits = { ideology_A HoG_Flamboyant_Tough_Guy }
		}
	# Pauls Kalniñs
		LAT_HoG_Pauls_Kalnins = {
			picture = Generic_Portrait
			allowed = { tag = LAT }
			available = {
				date > 1933.1.1
				date < 1964.1.1
				SC_Minister_Allowed = yes
				NOT = { has_country_flag = Pauls_Kalnins_unavailable }
			}
			cost = 150
			removal_cost = 10
			traits = { ideology_D HoG_Silent_Workhorse }
		}
	# Reinhold K. Zariñs
		LAT_HoG_Reinhold_K_Zarins = {
			picture = Generic_Portrait
			allowed = { tag = LAT }
			available = {
				date > 1940.1.1
				date < 1964.1.1
				SC_Minister_Allowed = yes
				NOT = { has_country_flag = Reinhold_K_Zarins_unavailable }
			}
			cost = 150
			removal_cost = 10
			traits = { ideology_D HoG_Political_Protege }
		}
	# Karlis Ulmanis
		LAT_HoG_Karlis_Ulmanis_2 = {
			picture = Generic_Portrait
			allowed = { tag = LAT }
			available = {
				date > 1914.1.1
				date < 1933.1.1
				ML_Minister_Allowed = yes
				NOT = { has_country_flag = Karlis_Ulmanis_unavailable }
			}
			cost = 150
			removal_cost = 10
			traits = { ideology_D HoG_Corporate_Suit }
		}
	# Andrievs Niedra
		LAT_HoG_Andrievs_Niedra = {
			picture = Generic_Portrait
			allowed = { tag = LAT }
			available = {
				date > 1919.1.1
				date < 1933.1.1
				ML_Minister_Allowed = yes
				NOT = { has_country_flag = Andrievs_Niedra_unavailable }
			}
			cost = 150
			removal_cost = 10
			traits = { ideology_D HoG_Backroom_Backstabber }
		}
	# Zigfrïds Meierovics
		LAT_HoG_Zigfrids_Meierovics = {
			picture = Generic_Portrait
			allowed = { tag = LAT }
			available = {
				date > 1921.1.1
				date < 1933.1.1
				ML_Minister_Allowed = yes
				NOT = { has_country_flag = Zigfrids_Meierovics_unavailable }
			}
			cost = 150
			removal_cost = 10
			traits = { ideology_D HoG_Political_Protege }
		}
	# Janis Pauluks
		LAT_HoG_Janis_Pauluks = {
			picture = Generic_Portrait
			allowed = { tag = LAT }
			available = {
				date > 1923.1.1
				date < 1933.1.1
				ML_Minister_Allowed = yes
				NOT = { has_country_flag = Janis_Pauluks_unavailable }
			}
			cost = 150
			removal_cost = 10
			traits = { ideology_D HoG_Smiling_Oilman }
		}
	# Ivars Godmanis
		LAT_HoG_Ivars_Godmanis = {
			picture = Generic_Portrait
			allowed = { tag = LAT }
			available = {
				date > 1990.1.1
				date < 2020.1.1
				ML_Minister_Allowed = yes
				NOT = { has_country_flag = Ivars_Godmanis_unavailable }
			}
			cost = 150
			removal_cost = 10
			traits = { ideology_D HoG_Naive_Optimist }
		}
	# Voldemars Zamuels
		LAT_HoG_Voldemars_Zamuels = {
			picture = Generic_Portrait
			allowed = { tag = LAT }
			available = {
				date > 1924.1.1
				date < 1933.1.1
				SL_Minister_Allowed = yes
				NOT = { has_country_flag = Voldemars_Zamuels_unavailable }
			}
			cost = 150
			removal_cost = 10
			traits = { ideology_D HoG_Naive_Optimist }
		}
	# Augusts Kirchensteins
		LAT_HoG_Augusts_Kirchensteins = {
			picture = Generic_Portrait
			allowed = { tag = LAT }
			available = {
				date > 1933.1.1
				date < 1964.1.1
				LE_Minister_Allowed = yes
				NOT = { has_country_flag = Augusts_Kirchensteins_unavailable }
			}
			cost = 150
			removal_cost = 10
			traits = { ideology_C HoG_Silent_Workhorse }
		}
	# Janis Peive
		LAT_HoG_Janis_Peive = {
			picture = Generic_Portrait
			allowed = { tag = LAT }
			available = {
				date > 1959.1.1
				date < 1964.1.1
				LE_Minister_Allowed = yes
				NOT = { has_country_flag = Janis_Peive_unavailable }
			}
			cost = 150
			removal_cost = 10
			traits = { ideology_C HoG_Ambitious_Union_Boss }
		}
	# Vitalijs Rubenis
		LAT_HoG_Vitalijs_Rubenis = {
			picture = Generic_Portrait
			allowed = { tag = LAT }
			available = {
				date > 1962.1.1
				date < 1964.1.1
				LE_Minister_Allowed = yes
				NOT = { has_country_flag = Vitalijs_Rubenis_unavailable }
			}
			cost = 150
			removal_cost = 10
			traits = { ideology_C HoG_Old_Airmarshal }
		}
	# Peteris Strautmanis
		LAT_HoG_Peteris_Strautmanis = {
			picture = Generic_Portrait
			allowed = { tag = LAT }
			available = {
				date > 1974.1.1
				date < 1985.1.1
				LE_Minister_Allowed = yes
				NOT = { has_country_flag = Peteris_Strautmanis_unavailable }
			}
			cost = 150
			removal_cost = 10
			traits = { ideology_C HoG_Political_Protege }
		}
	# Janis Vagris
		LAT_HoG_Janis_Vagris = {
			picture = Generic_Portrait
			allowed = { tag = LAT }
			available = {
				date > 1985.1.1
				date < 2020.1.1
				LE_Minister_Allowed = yes
				NOT = { has_country_flag = Janis_Vagris_unavailable }
			}
			cost = 150
			removal_cost = 10
			traits = { ideology_C HoG_Flamboyant_Tough_Guy }
		}
	# Anatolijs Gorbunovs
		LAT_HoG_Anatolijs_Gorbunovs = {
			picture = Generic_Portrait
			allowed = { tag = LAT }
			available = {
				date > 1988.1.1
				date < 2020.1.1
				LE_Minister_Allowed = yes
				NOT = { has_country_flag = Anatolijs_Gorbunovs_unavailable }
			}
			cost = 150
			removal_cost = 10
			traits = { ideology_C HoG_Old_General }
		}
	# Peteris Stucka
		LAT_HoG_Peteris_Stucka = {
			picture = Generic_Portrait
			allowed = { tag = LAT }
			available = {
				date > 1914.1.1
				date < 1933.1.1
				ST_Minister_Allowed = yes
				NOT = { has_country_flag = Peteris_Stucka_unavailable }
			}
			cost = 150
			removal_cost = 10
			traits = { ideology_C HoG_Ambitious_Union_Boss }
		}
	# Roberts Osis
		LAT_HoG_Roberts_Osis = {
			picture = Generic_Portrait
			allowed = { tag = LAT }
			available = {
				date > 1945.1.1
				date < 1964.1.1
				ST_Minister_Allowed = yes
				NOT = { has_country_flag = Roberts_Osis_unavailable }
			}
			cost = 150
			removal_cost = 10
			traits = { ideology_C HoG_Old_General }
		}
	# Vilis Làcis
		LAT_HoG_Vilis_Lacis = {
			picture = Generic_Portrait
			allowed = { tag = LAT }
			available = {
				date > 1946.1.1
				date < 1964.1.1
				ST_Minister_Allowed = yes
				NOT = { has_country_flag = Vilis_Lacis_unavailable }
			}
			cost = 150
			removal_cost = 10
			traits = { ideology_C HoG_Backroom_Backstabber }
		}
}
#################################################
### Foreign Minister
#################################################
	Foreign_Minister = {
	# Alfreds Valdmanis
		LAT_FM_Alfreds_Valdmanis = {
			picture = Generic_Portrait
			allowed = { tag = LAT }
			available = {
				date > 1941.1.1
				date < 1964.1.1
				NS_Minister_Allowed = yes
				NOT = { has_country_flag = Alfreds_Valdmanis_unavailable }
			}
			cost = 150
			removal_cost = 10
			traits = { ideology_F FM_Iron_Fisted_Brute }
		}
	# Oskars Dankers
		LAT_FM_Oskars_Dankers = {
			picture = Generic_Portrait
			allowed = { tag = LAT }
			available = {
				date > 1941.1.1
				date < 1964.1.1
				NS_Minister_Allowed = yes
				NOT = { has_country_flag = Oskars_Dankers_unavailable }
			}
			cost = 150
			removal_cost = 10
			traits = { ideology_F FM_General_Staffer }
		}
	# Màrtiñs Prïmanis
		LAT_FM_Martins_Primanis = {
			picture = Generic_Portrait
			allowed = { tag = LAT }
			available = {
				date > 1944.1.1
				date < 1964.1.1
				NS_Minister_Allowed = yes
				NOT = { has_country_flag = Martins_Primanis_unavailable }
			}
			cost = 150
			removal_cost = 10
			traits = { ideology_F FM_Ideological_Crusader }
		}
	# Kàrlis Ulmanis
		LAT_FM_Karlis_Ulmanis = {
			picture = Generic_Portrait
			allowed = { tag = LAT }
			available = {
				date > 1933.1.1
				date < 1964.1.1
				FA_Minister_Allowed = yes
				NOT = { has_country_flag = Karlis_Ulmanis_unavailable }
			}
			cost = 150
			removal_cost = 10
			traits = { ideology_F FM_Biased_Intellectual }
		}
	# Vilhelms Munters
		LAT_FM_Vilhelms_Munters = {
			picture = Generic_Portrait
			allowed = { tag = LAT }
			available = {
				date > 1933.1.1
				date < 1964.1.1
				FA_Minister_Allowed = yes
				NOT = { has_country_flag = Vilhelms_Munters_unavailable }
			}
			cost = 150
			removal_cost = 10
			traits = { ideology_F FM_Great_Compromiser }
		}
	# Jànis Kaminskis
		LAT_FM_Janis_Kaminskis = {
			picture = Generic_Portrait
			allowed = { tag = LAT }
			available = {
				date > 1945.1.1
				date < 1964.1.1
				PA_Minister_Allowed = yes
				NOT = { has_country_flag = Janis_Kaminskis_unavailable }
			}
			cost = 150
			removal_cost = 10
			traits = { ideology_A FM_Iron_Fisted_Brute }
		}
	# Reinhold K. Zariñs
		LAT_FM_Reinhold_K_Zarins = {
			picture = Generic_Portrait
			allowed = { tag = LAT }
			available = {
				date > 1933.1.1
				date < 1964.1.1
				SC_Minister_Allowed = yes
				NOT = { has_country_flag = Reinhold_K_Zarins_unavailable }
			}
			cost = 150
			removal_cost = 10
			traits = { ideology_D FM_Apologetic_Clerk }
		}
	# Alfreds Bïlmanis
		LAT_FM_Alfreds_Bilmanis = {
			picture = Generic_Portrait
			allowed = { tag = LAT }
			available = {
				date > 1940.1.1
				date < 1964.1.1
				SC_Minister_Allowed = yes
				NOT = { has_country_flag = Alfreds_Bilmanis_unavailable }
			}
			cost = 150
			removal_cost = 10
			traits = { ideology_D FM_Biased_Intellectual }
		}
	# Zigfrids Meierovics
		LAT_FM_Zigfrids_Meierovics = {
			picture = Generic_Portrait
			allowed = { tag = LAT }
			available = {
				date > 1914.1.1
				date < 1933.1.1
				ML_Minister_Allowed = yes
				NOT = { has_country_flag = Zigfrids_Meierovics_unavailable }
			}
			cost = 150
			removal_cost = 10
			traits = { ideology_D FM_Great_Compromiser }
		}
	# Georgs Andrejevs
		LAT_FM_Georgs_Andrejevs = {
			picture = Generic_Portrait
			allowed = { tag = LAT }
			available = {
				date > 1985.1.1
				date < 2020.1.1
				ML_Minister_Allowed = yes
				NOT = { has_country_flag = Georgs_Andrejevs_unavailable }
			}
			cost = 150
			removal_cost = 10
			traits = { ideology_D FM_Great_Compromiser }
		}
	# Kàrlis Seja
		LAT_FM_Karlis_Seja = {
			picture = Generic_Portrait
			allowed = { tag = LAT }
			available = {
				date > 1924.1.1
				date < 1933.1.1
				SL_Minister_Allowed = yes
				NOT = { has_country_flag = Karlis_Seja_unavailable }
			}
			cost = 150
			removal_cost = 10
			traits = { ideology_D FM_Ideological_Crusader }
		}
	# Julijcs Lacis
		LAT_FM_Julijcs_Lacis = {
			picture = Generic_Portrait
			allowed = { tag = LAT }
			available = {
				date > 1933.1.1
				date < 1964.1.1
				LE_Minister_Allowed = yes
				NOT = { has_country_flag = Julijcs_Lacis_unavailable }
			}
			cost = 150
			removal_cost = 10
			traits = { ideology_C FM_Great_Compromiser }
		}
	# Augusts Kirchensteins
		LAT_FM_Augusts_Kirchensteins = {
			picture = Generic_Portrait
			allowed = { tag = LAT }
			available = {
				date > 1940.1.1
				date < 1964.1.1
				LE_Minister_Allowed = yes
				NOT = { has_country_flag = Augusts_Kirchensteins_unavailable }
			}
			cost = 150
			removal_cost = 10
			traits = { ideology_C FM_Ideological_Crusader }
		}
	# Peteris Stucka
		LAT_FM_Peteris_Stucka = {
			picture = Generic_Portrait
			allowed = { tag = LAT }
			available = {
				date > 1914.1.1
				date < 1933.1.1
				ST_Minister_Allowed = yes
				NOT = { has_country_flag = Peteris_Stucka_unavailable }
			}
			cost = 150
			removal_cost = 10
			traits = { ideology_C FM_Ideological_Crusader }
		}
	# Arnolds Skrebers
		LAT_FM_Arnolds_Skrebers = {
			picture = Generic_Portrait
			allowed = { tag = LAT }
			available = {
				date > 1945.1.1
				date < 1964.1.1
				ST_Minister_Allowed = yes
				NOT = { has_country_flag = Arnolds_Skrebers_unavailable }
			}
			cost = 150
			removal_cost = 10
			traits = { ideology_C FM_Great_Compromiser }
		}
	# Peteris Valeskalns
		LAT_FM_Peteris_Valeskalns = {
			picture = Generic_Portrait
			allowed = { tag = LAT }
			available = {
				date > 1946.1.1
				date < 1964.1.1
				ST_Minister_Allowed = yes
				NOT = { has_country_flag = Peteris_Valeskalns_unavailable }
			}
			cost = 150
			removal_cost = 10
			traits = { ideology_C FM_Ideological_Crusader }
		}
	# Ernests Kreismanis
		LAT_FM_Ernests_Kreismanis = {
			picture = Generic_Portrait
			allowed = { tag = LAT }
			available = {
				date > 1947.1.1
				date < 1964.1.1
				ST_Minister_Allowed = yes
				NOT = { has_country_flag = Ernests_Kreismanis_unavailable }
			}
			cost = 150
			removal_cost = 10
			traits = { ideology_C FM_The_Cloak_N_Dagger_Schemer }
		}
}
#################################################
### Minister of Security
#################################################
	Minister_of_Security = {
	# Alfreds Valdmanis
		LAT_MoS_Alfreds_Valdmanis = {
			picture = Generic_Portrait
			allowed = { tag = LAT }
			available = {
				date > 1941.1.1
				date < 1964.1.1
				NS_Minister_Allowed = yes
				NOT = { has_country_flag = Alfreds_Valdmanis_unavailable }
			}
			cost = 150
			removal_cost = 10
			traits = { ideology_F MoS_Crime_Fighter }
		}
	# Teodors Zvejnieks
		LAT_MoS_Teodors_Zvejnieks = {
			picture = Generic_Portrait
			allowed = { tag = LAT }
			available = {
				date > 1941.1.1
				date < 1964.1.1
				NS_Minister_Allowed = yes
				NOT = { has_country_flag = Teodors_Zvejnieks_unavailable }
			}
			cost = 150
			removal_cost = 10
			traits = { ideology_F MoS_Efficient_Sociopath }
		}
	# Alberts Kviesis
		LAT_MoS_Alberts_Kviesis = {
			picture = Generic_Portrait
			allowed = { tag = LAT }
			available = {
				date > 1943.1.1
				date < 1964.1.1
				NS_Minister_Allowed = yes
				NOT = { has_country_flag = Alberts_Kviesis_unavailable }
			}
			cost = 150
			removal_cost = 10
			traits = { ideology_F MoS_Man_Of_The_People }
		}
	# Vilis Gulbis
		LAT_MoS_Vilis_Gulbis = {
			picture = Generic_Portrait
			allowed = { tag = LAT }
			available = {
				date > 1933.1.1
				date < 1964.1.1
				FA_Minister_Allowed = yes
				NOT = { has_country_flag = Vilis_Gulbis_unavailable }
			}
			cost = 150
			removal_cost = 10
			traits = { ideology_F MoS_Crime_Fighter }
		}
	# Hermanis Apsitis
		LAT_MoS_Hermanis_Apsitis = {
			picture = Generic_Portrait
			allowed = { tag = LAT }
			available = {
				date > 1933.1.1
				date < 1964.1.1
				FA_Minister_Allowed = yes
				NOT = { has_country_flag = Hermanis_Apsitis_unavailable }
			}
			cost = 150
			removal_cost = 10
			traits = { ideology_F MoS_Prince_Of_Terror }
		}
	# Jànis Balodis
		LAT_MoS_Janis_Balodis = {
			picture = Generic_Portrait
			allowed = { tag = LAT }
			available = {
				date > 1940.1.1
				date < 1964.1.1
				FA_Minister_Allowed = yes
				NOT = { has_country_flag = Janis_Balodis_unavailable }
			}
			cost = 150
			removal_cost = 10
			traits = { ideology_F MoS_Man_Of_The_People }
		}
	# Janis Andersons
		LAT_MoS_Janis_Andersons = {
			picture = Generic_Portrait
			allowed = { tag = LAT }
			available = {
				date > 1945.1.1
				date < 1964.1.1
				PA_Minister_Allowed = yes
				NOT = { has_country_flag = Janis_Andersons_unavailable }
			}
			cost = 150
			removal_cost = 10
			traits = { ideology_A MoS_Crooked_Kleptocrat }
		}
	# Pauls Kalniñs
		LAT_MoS_Pauls_Kalnins = {
			picture = Generic_Portrait
			allowed = { tag = LAT }
			available = {
				date > 1933.1.1
				date < 1964.1.1
				SC_Minister_Allowed = yes
				NOT = { has_country_flag = Pauls_Kalnins_unavailable }
			}
			cost = 150
			removal_cost = 10
			traits = { ideology_D MoS_Efficient_Sociopath }
		}
	# Jazeps Rancans
		LAT_MoS_Jazeps_Rancans = {
			picture = Generic_Portrait
			allowed = { tag = LAT }
			available = {
				date > 1945.1.1
				date < 1964.1.1
				SC_Minister_Allowed = yes
				NOT = { has_country_flag = Jazeps_Rancans_unavailable }
			}
			cost = 150
			removal_cost = 10
			traits = { ideology_D MoS_Man_Of_The_People }
		}
	# Mikelis Valters
		LAT_MoS_Mikelis_Valters = {
			picture = Generic_Portrait
			allowed = { tag = LAT }
			available = {
				date > 1914.1.1
				date < 1933.1.1
				ML_Minister_Allowed = yes
				NOT = { has_country_flag = Mikelis_Valters_unavailable }
			}
			cost = 150
			removal_cost = 10
			traits = { ideology_D MoS_Man_Of_The_People }
		}
	# Arveds Bergs
		LAT_MoS_Arveds_Bergs = {
			picture = Generic_Portrait
			allowed = { tag = LAT }
			available = {
				date > 1919.1.1
				date < 1933.1.1
				ML_Minister_Allowed = yes
				NOT = { has_country_flag = Arveds_Bergs_unavailable }
			}
			cost = 150
			removal_cost = 10
			traits = { ideology_D MoS_Compassionate_Gentleman }
		}
	# Alfreds Birznieks
		LAT_MoS_Alfreds_Birznieks = {
			picture = Generic_Portrait
			allowed = { tag = LAT }
			available = {
				date > 1919.1.1
				date < 1933.1.1
				ML_Minister_Allowed = yes
				NOT = { has_country_flag = Alfreds_Birznieks_unavailable }
			}
			cost = 150
			removal_cost = 10
			traits = { ideology_D MoS_Crime_Fighter }
		}
	# Alberts Kviesis
		LAT_MoS_Alberts_Kviesis_2 = {
			picture = Generic_Portrait
			allowed = { tag = LAT }
			available = {
				date > 1921.1.1
				date < 1933.1.1
				ML_Minister_Allowed = yes
				NOT = { has_country_flag = Alberts_Kviesis_unavailable }
			}
			cost = 150
			removal_cost = 10
			traits = { ideology_D MoS_Compassionate_Gentleman }
		}
	# Peteris Bergis
		LAT_MoS_Peteris_Bergis = {
			picture = Generic_Portrait
			allowed = { tag = LAT }
			available = {
				date > 1923.1.1
				date < 1933.1.1
				ML_Minister_Allowed = yes
				NOT = { has_country_flag = Peteris_Bergis_unavailable }
			}
			cost = 150
			removal_cost = 10
			traits = { ideology_D MoS_Crime_Fighter }
		}
	# Talavs Jundzis
		LAT_MoS_Talavs_Jundzis = {
			picture = Generic_Portrait
			allowed = { tag = LAT }
			available = {
				date > 1985.1.1
				date < 2020.1.1
				ML_Minister_Allowed = yes
				NOT = { has_country_flag = Talavs_Jundzis_unavailable }
			}
			cost = 150
			removal_cost = 10
			traits = { ideology_D MoS_Crime_Fighter }
		}
	# Edvards-Kàrlis Laimiñs
		LAT_MoS_EdvardsKarlis_Laimins = {
			picture = Generic_Portrait
			allowed = { tag = LAT }
			available = {
				date > 1924.1.1
				date < 1933.1.1
				SL_Minister_Allowed = yes
				NOT = { has_country_flag = EdvardsKarlis_Laimins_unavailable }
			}
			cost = 150
			removal_cost = 10
			traits = { ideology_D MoS_Silent_Lawyer }
		}
	# Jurijs Rabersz
		LAT_MoS_Jurijs_Rabersz = {
			picture = Generic_Portrait
			allowed = { tag = LAT }
			available = {
				date > 1933.1.1
				date < 1964.1.1
				LE_Minister_Allowed = yes
				NOT = { has_country_flag = Jurijs_Rabersz_unavailable }
			}
			cost = 150
			removal_cost = 10
			traits = { ideology_C MoS_Compassionate_Gentleman }
		}
	# Vilis Làcis
		LAT_MoS_Vilis_Lacis = {
			picture = Generic_Portrait
			allowed = { tag = LAT }
			available = {
				date > 1940.1.1
				date < 1964.1.1
				LE_Minister_Allowed = yes
				NOT = { has_country_flag = Vilis_Lacis_unavailable }
			}
			cost = 150
			removal_cost = 10
			traits = { ideology_C MoS_Efficient_Sociopath }
		}
	# Jànis Lencmanis
		LAT_MoS_Janis_Lencmanis = {
			picture = Generic_Portrait
			allowed = { tag = LAT }
			available = {
				date > 1914.1.1
				date < 1933.1.1
				ST_Minister_Allowed = yes
				NOT = { has_country_flag = Janis_Lencmanis_unavailable }
			}
			cost = 150
			removal_cost = 10
			traits = { ideology_C MoS_Prince_Of_Terror }
		}
	# Rodolfs Rocin
		LAT_MoS_Rodolfs_Rocin = {
			picture = Generic_Portrait
			allowed = { tag = LAT }
			available = {
				date > 1945.1.1
				date < 1964.1.1
				ST_Minister_Allowed = yes
				NOT = { has_country_flag = Rodolfs_Rocin_unavailable }
			}
			cost = 150
			removal_cost = 10
			traits = { ideology_C MoS_Silent_Lawyer }
		}
	# Andrejs Jablonskis
		LAT_MoS_Andrejs_Jablonskis = {
			picture = Generic_Portrait
			allowed = { tag = LAT }
			available = {
				date > 1946.1.1
				date < 1964.1.1
				ST_Minister_Allowed = yes
				NOT = { has_country_flag = Andrejs_Jablonskis_unavailable }
			}
			cost = 150
			removal_cost = 10
			traits = { ideology_C MoS_Prince_Of_Terror }
		}
}
#################################################
### Armaments Minister
#################################################
	Armaments_Minister = {
	# Evalds Andersons
		LAT_AM_Evalds_Andersons = {
			picture = Generic_Portrait
			allowed = { tag = LAT }
			available = {
				date > 1941.1.1
				date < 1964.1.1
				NS_Minister_Allowed = yes
				NOT = { has_country_flag = Evalds_Andersons_unavailable }
			}
			cost = 150
			removal_cost = 10
			traits = { ideology_F AM_Military_Entrepreneur }
		}
	# Jànis Skujevics
		LAT_AM_Janis_Skujevics = {
			picture = Generic_Portrait
			allowed = { tag = LAT }
			available = {
				date > 1941.1.1
				date < 1964.1.1
				NS_Minister_Allowed = yes
				NOT = { has_country_flag = Janis_Skujevics_unavailable }
			}
			cost = 150
			removal_cost = 10
			traits = { ideology_F AM_Resource_Industrialist }
		}
	# Jànis Miezis
		LAT_AM_Janis_Miezis = {
			picture = Generic_Portrait
			allowed = { tag = LAT }
			available = {
				date > 1944.1.1
				date < 1964.1.1
				NS_Minister_Allowed = yes
				NOT = { has_country_flag = Janis_Miezis_unavailable }
			}
			cost = 150
			removal_cost = 10
			traits = { ideology_F AM_Infantry_Proponent }
		}
	# Vilis Gulbis
		LAT_AM_Vilis_Gulbis = {
			picture = Generic_Portrait
			allowed = { tag = LAT }
			available = {
				date > 1933.1.1
				date < 1964.1.1
				FA_Minister_Allowed = yes
				NOT = { has_country_flag = Vilis_Gulbis_unavailable }
			}
			cost = 150
			removal_cost = 10
			traits = { ideology_F AM_Air_To_Sea_Proponent }
		}
	# Kornelijs Veidnieks
		LAT_AM_Kornelijs_Veidnieks = {
			picture = Generic_Portrait
			allowed = { tag = LAT }
			available = {
				date > 1938.1.1
				date < 1964.1.1
				FA_Minister_Allowed = yes
				NOT = { has_country_flag = Kornelijs_Veidnieks_unavailable }
			}
			cost = 150
			removal_cost = 10
			traits = { ideology_F AM_Air_Superiority_Proponent }
		}
	# Jànis Kaminskis
		LAT_AM_Janis_Kaminskis = {
			picture = Generic_Portrait
			allowed = { tag = LAT }
			available = {
				date > 1939.1.1
				date < 1964.1.1
				FA_Minister_Allowed = yes
				NOT = { has_country_flag = Janis_Kaminskis_unavailable }
			}
			cost = 150
			removal_cost = 10
			traits = { ideology_F AM_Resource_Industrialist }
		}
	# Alfreds Valdmanis
		LAT_AM_Alfreds_Valdmanis = {
			picture = Generic_Portrait
			allowed = { tag = LAT }
			available = {
				date > 1940.1.1
				date < 1964.1.1
				FA_Minister_Allowed = yes
				NOT = { has_country_flag = Alfreds_Valdmanis_unavailable }
			}
			cost = 150
			removal_cost = 10
			traits = { ideology_F AM_Administrative_Genius }
		}
	# Ludvigs Ctis
		LAT_AM_Ludvigs_Ctis = {
			picture = Generic_Portrait
			allowed = { tag = LAT }
			available = {
				date > 1933.1.1
				date < 1964.1.1
				PA_Minister_Allowed = yes
				NOT = { has_country_flag = Ludvigs_Ctis_unavailable }
			}
			cost = 150
			removal_cost = 10
			traits = { ideology_A AM_Infantry_Proponent }
		}
	# Petrus Apskalns
		LAT_AM_Petrus_Apskalns = {
			picture = Generic_Portrait
			allowed = { tag = LAT }
			available = {
				date > 1933.1.1
				date < 1964.1.1
				SC_Minister_Allowed = yes
				NOT = { has_country_flag = Petrus_Apskalns_unavailable }
			}
			cost = 150
			removal_cost = 10
			traits = { ideology_D AM_Infantry_Proponent }
		}
	# Edgars Andersons
		LAT_AM_Edgars_Andersons = {
			picture = Generic_Portrait
			allowed = { tag = LAT }
			available = {
				date > 1945.1.1
				date < 1964.1.1
				SC_Minister_Allowed = yes
				NOT = { has_country_flag = Edgars_Andersons_unavailable }
			}
			cost = 150
			removal_cost = 10
			traits = { ideology_D AM_Military_Entrepreneur }
		}
	# Kàrlis Puriks
		LAT_AM_Karlis_Puriks = {
			picture = Generic_Portrait
			allowed = { tag = LAT }
			available = {
				date > 1914.1.1
				date < 1933.1.1
				ML_Minister_Allowed = yes
				NOT = { has_country_flag = Karlis_Puriks_unavailable }
			}
			cost = 150
			removal_cost = 10
			traits = { ideology_D AM_Military_Entrepreneur }
		}
	# Roberts Erhards
		LAT_AM_Roberts_Erhards = {
			picture = Generic_Portrait
			allowed = { tag = LAT }
			available = {
				date > 1919.1.1
				date < 1933.1.1
				ML_Minister_Allowed = yes
				NOT = { has_country_flag = Roberts_Erhards_unavailable }
			}
			cost = 150
			removal_cost = 10
			traits = { ideology_D AM_Infantry_Proponent }
		}
	# Ringlods Kalnings
		LAT_AM_Ringlods_Kalnings = {
			picture = Generic_Portrait
			allowed = { tag = LAT }
			available = {
				date > 1921.1.1
				date < 1933.1.1
				ML_Minister_Allowed = yes
				NOT = { has_country_flag = Ringlods_Kalnings_unavailable }
			}
			cost = 150
			removal_cost = 10
			traits = { ideology_D AM_Laissez-faire_Capitalist }
		}
	# Alfreds Riekstiks
		LAT_AM_Alfreds_Riekstiks = {
			picture = Generic_Portrait
			allowed = { tag = LAT }
			available = {
				date > 1922.1.1
				date < 1933.1.1
				ML_Minister_Allowed = yes
				NOT = { has_country_flag = Alfreds_Riekstiks_unavailable }
			}
			cost = 150
			removal_cost = 10
			traits = { ideology_D AM_Administrative_Genius }
		}
	# Hermanis Punga
		LAT_AM_Hermanis_Punga = {
			picture = Generic_Portrait
			allowed = { tag = LAT }
			available = {
				date > 1923.1.1
				date < 1933.1.1
				ML_Minister_Allowed = yes
				NOT = { has_country_flag = Hermanis_Punga_unavailable }
			}
			cost = 150
			removal_cost = 10
			traits = { ideology_D AM_Laissez-faire_Capitalist }
		}
	# Ansis Busnevics
		LAT_AM_Ansis_Busnevics = {
			picture = Generic_Portrait
			allowed = { tag = LAT }
			available = {
				date > 1923.1.1
				date < 1933.1.1
				ML_Minister_Allowed = yes
				NOT = { has_country_flag = Ansis_Busnevics_unavailable }
			}
			cost = 150
			removal_cost = 10
			traits = { ideology_D AM_Administrative_Genius }
		}
	# Talavs Jundzis
		LAT_AM_Talavs_Jundzis = {
			picture = Generic_Portrait
			allowed = { tag = LAT }
			available = {
				date > 1985.1.1
				date < 2020.1.1
				ML_Minister_Allowed = yes
				NOT = { has_country_flag = Talavs_Jundzis_unavailable }
			}
			cost = 150
			removal_cost = 10
			traits = { ideology_D AM_Infantry_Proponent }
		}
	# Jànis Blumbergs
		LAT_AM_Janis_Blumbergs = {
			picture = Generic_Portrait
			allowed = { tag = LAT }
			available = {
				date > 1924.1.1
				date < 1933.1.1
				SL_Minister_Allowed = yes
				NOT = { has_country_flag = Janis_Blumbergs_unavailable }
			}
			cost = 150
			removal_cost = 10
			traits = { ideology_D AM_Resource_Industrialist }
		}
	# Roberts Dambïtis
		LAT_AM_Roberts_Dambitis = {
			picture = Generic_Portrait
			allowed = { tag = LAT }
			available = {
				date > 1933.1.1
				date < 1964.1.1
				LE_Minister_Allowed = yes
				NOT = { has_country_flag = Roberts_Dambitis_unavailable }
			}
			cost = 150
			removal_cost = 10
			traits = { ideology_C AM_Resource_Industrialist }
		}
	# Kàrlis Karlsons
		LAT_AM_Karlis_Karlsons = {
			picture = Generic_Portrait
			allowed = { tag = LAT }
			available = {
				date > 1940.1.1
				date < 1964.1.1
				LE_Minister_Allowed = yes
				NOT = { has_country_flag = Karlis_Karlsons_unavailable }
			}
			cost = 150
			removal_cost = 10
			traits = { ideology_C AM_Military_Entrepreneur }
		}
	# Rudolfs Endrups
		LAT_AM_Rudolfs_Endrups = {
			picture = Generic_Portrait
			allowed = { tag = LAT }
			available = {
				date > 1914.1.1
				date < 1933.1.1
				ST_Minister_Allowed = yes
				NOT = { has_country_flag = Rudolfs_Endrups_unavailable }
			}
			cost = 150
			removal_cost = 10
			traits = { ideology_C AM_Resource_Industrialist }
		}
	# Aleksandrs Bulle
		LAT_AM_Aleksandrs_Bulle = {
			picture = Generic_Portrait
			allowed = { tag = LAT }
			available = {
				date > 1945.1.1
				date < 1964.1.1
				ST_Minister_Allowed = yes
				NOT = { has_country_flag = Aleksandrs_Bulle_unavailable }
			}
			cost = 150
			removal_cost = 10
			traits = { ideology_C AM_Laissez-faire_Capitalist }
		}
	# Arnolds Tabaks
		LAT_AM_Arnolds_Tabaks = {
			picture = Generic_Portrait
			allowed = { tag = LAT }
			available = {
				date > 1946.1.1
				date < 1964.1.1
				ST_Minister_Allowed = yes
				NOT = { has_country_flag = Arnolds_Tabaks_unavailable }
			}
			cost = 150
			removal_cost = 10
			traits = { ideology_C AM_Resource_Industrialist }
		}
}
#################################################
### Head of Intelligence
#################################################
	Head_of_Intelligence = {
	# Hans Heinrich Lohse
		LAT_HoI_Hans_Heinrich_Lohse = {
			picture = Generic_Portrait
			allowed = { tag = LAT }
			available = {
				date > 1941.1.1
				date < 1964.1.1
				NS_Minister_Allowed = yes
				NOT = { has_country_flag = Hans_Heinrich_Lohse_unavailable }
			}
			cost = 150
			removal_cost = 10
			traits = { ideology_F HoI_Industrial_Specialist }
		}
	# Erich Koch
		LAT_HoI_Erich_Koch = {
			picture = Generic_Portrait
			allowed = { tag = LAT }
			available = {
				date > 1943.1.1
				date < 1964.1.1
				NS_Minister_Allowed = yes
				NOT = { has_country_flag = Erich_Koch_unavailable }
			}
			cost = 150
			removal_cost = 10
			traits = { ideology_F HoI_Logistics_Specialist }
		}
	# Hermanis Apsitis
		LAT_HoI_Hermanis_Apsitis = {
			picture = Generic_Portrait
			allowed = { tag = LAT }
			available = {
				date > 1933.1.1
				date < 1964.1.1
				FA_Minister_Allowed = yes
				NOT = { has_country_flag = Hermanis_Apsitis_unavailable }
			}
			cost = 150
			removal_cost = 10
			traits = { ideology_F HoI_Political_Specialist }
		}
	# Kàrlis Ulmanis
		LAT_HoI_Karlis_Ulmanis = {
			picture = Generic_Portrait
			allowed = { tag = LAT }
			available = {
				date > 1938.1.1
				date < 1964.1.1
				FA_Minister_Allowed = yes
				NOT = { has_country_flag = Karlis_Ulmanis_unavailable }
			}
			cost = 150
			removal_cost = 10
			traits = { ideology_F HoI_Dismal_Enigma }
		}
	# Felix Cielens
		LAT_HoI_Felix_Cielens = {
			picture = Generic_Portrait
			allowed = { tag = LAT }
			available = {
				date > 1933.1.1
				date < 1964.1.1
				SC_Minister_Allowed = yes
				NOT = { has_country_flag = Felix_Cielens_unavailable }
			}
			cost = 150
			removal_cost = 10
			traits = { ideology_D HoI_Industrial_Specialist }
		}
	# Fricis Celmins
		LAT_HoI_Fricis_Celmins = {
			picture = Generic_Portrait
			allowed = { tag = LAT }
			available = {
				date > 1940.1.1
				date < 1964.1.1
				SC_Minister_Allowed = yes
				NOT = { has_country_flag = Fricis_Celmins_unavailable }
			}
			cost = 150
			removal_cost = 10
			traits = { ideology_D HoI_Dismal_Enigma }
		}
	# Reinhold K. Zariñs
		LAT_HoI_Reinhold_K_Zarins = {
			picture = Generic_Portrait
			allowed = { tag = LAT }
			available = {
				date > 1945.1.1
				date < 1964.1.1
				SC_Minister_Allowed = yes
				NOT = { has_country_flag = Reinhold_K_Zarins_unavailable }
			}
			cost = 150
			removal_cost = 10
			traits = { ideology_D HoI_Technical_Specialist }
		}
	# Talavs Jundzis
		LAT_HoI_Talavs_Jundzis = {
			picture = Generic_Portrait
			allowed = { tag = LAT }
			available = {
				date > 1985.1.1
				date < 2020.1.1
				ML_Minister_Allowed = yes
				NOT = { has_country_flag = Talavs_Jundzis_unavailable }
			}
			cost = 150
			removal_cost = 10
			traits = { ideology_D HoI_Political_Specialist }
		}
	# Jurijs Rabersz
		LAT_HoI_Jurijs_Rabersz = {
			picture = Generic_Portrait
			allowed = { tag = LAT }
			available = {
				date > 1933.1.1
				date < 1964.1.1
				LE_Minister_Allowed = yes
				NOT = { has_country_flag = Jurijs_Rabersz_unavailable }
			}
			cost = 150
			removal_cost = 10
			traits = { ideology_C HoI_Technical_Specialist }
		}
	# Jànis Lencmanis
		LAT_HoI_Janis_Lencmanis = {
			picture = Generic_Portrait
			allowed = { tag = LAT }
			available = {
				date > 1914.1.1
				date < 1933.1.1
				ST_Minister_Allowed = yes
				NOT = { has_country_flag = Janis_Lencmanis_unavailable }
			}
			cost = 150
			removal_cost = 10
			traits = { ideology_C HoI_Political_Specialist }
		}
	# Teodors Zvejnieks
		LAT_HoI_Teodors_Zvejnieks = {
			picture = Generic_Portrait
			allowed = { tag = LAT }
			available = {
				date > 1945.1.1
				date < 1964.1.1
				ST_Minister_Allowed = yes
				NOT = { has_country_flag = Teodors_Zvejnieks_unavailable }
			}
			cost = 150
			removal_cost = 10
			traits = { ideology_C HoI_Naval_Intelligence_Specialist }
		}
	# Vilis Làcis
		LAT_HoI_Vilis_Lacis = {
			picture = Generic_Portrait
			allowed = { tag = LAT }
			available = {
				date > 1946.1.1
				date < 1964.1.1
				ST_Minister_Allowed = yes
				NOT = { has_country_flag = Vilis_Lacis_unavailable }
			}
			cost = 150
			removal_cost = 10
			traits = { ideology_C HoI_Logistics_Specialist }
		}
}
#################################################
### Chief of Staff
#################################################
	Chief_of_Staff = {
	# Konstantins Cakste
		LAT_CoStaff_Konstantins_Cakste = {
			picture = Generic_Portrait
			allowed = { tag = LAT }
			available = {
				date > 1941.1.1
				date < 1964.1.1
				NS_Minister_Allowed = yes
				NOT = { has_country_flag = Konstantins_Cakste_unavailable }
			}
			cost = 150
			removal_cost = 10
			traits = { ideology_F CoStaff_School_Of_Fire_Support }
		}
	# Arturs M. Silgailis
		LAT_CoStaff_Arturs_M_Silgailis = {
			picture = Generic_Portrait
			allowed = { tag = LAT }
			available = {
				date > 1943.1.1
				date < 1964.1.1
				NS_Minister_Allowed = yes
				NOT = { has_country_flag = Arturs_M_Silgailis_unavailable }
			}
			cost = 150
			removal_cost = 10
			traits = { ideology_F CoStaff_School_Of_Fire_Support }
		}
	# Jànis Balodis
		LAT_CoStaff_Janis_Balodis = {
			picture = Generic_Portrait
			allowed = { tag = LAT }
			available = {
				date > 1933.1.1
				date < 1964.1.1
				FA_Minister_Allowed = yes
				NOT = { has_country_flag = Janis_Balodis_unavailable }
			}
			cost = 150
			removal_cost = 10
			traits = { ideology_F CoStaff_School_Of_Defence }
		}
	# Krisjànis Berkis
		LAT_CoStaff_Krisjanis_Berkis = {
			picture = Generic_Portrait
			allowed = { tag = LAT }
			available = {
				date > 1939.1.1
				date < 1964.1.1
				FA_Minister_Allowed = yes
				NOT = { has_country_flag = Krisjanis_Berkis_unavailable }
			}
			cost = 150
			removal_cost = 10
			traits = { ideology_F CoStaff_School_Of_Manoeuvre }
		}
	# Rudolfs Kociñs
		LAT_CoStaff_Rudolfs_Kocins = {
			picture = Generic_Portrait
			allowed = { tag = LAT }
			available = {
				date > 1945.1.1
				date < 1964.1.1
				PA_Minister_Allowed = yes
				NOT = { has_country_flag = Rudolfs_Kocins_unavailable }
			}
			cost = 150
			removal_cost = 10
			traits = { ideology_A CoStaff_School_Of_Psychology }
		}
	# Verners Tefpers
		LAT_CoStaff_Verners_Tefpers = {
			picture = Generic_Portrait
			allowed = { tag = LAT }
			available = {
				date > 1933.1.1
				date < 1964.1.1
				SC_Minister_Allowed = yes
				NOT = { has_country_flag = Verners_Tefpers_unavailable }
			}
			cost = 150
			removal_cost = 10
			traits = { ideology_D CoStaff_School_Of_Manoeuvre }
		}
	# Rudolfs Bangerskis
		LAT_CoStaff_Rudolfs_Bangerskis = {
			picture = Generic_Portrait
			allowed = { tag = LAT }
			available = {
				date > 1914.1.1
				date < 1933.1.1
				ML_Minister_Allowed = yes
				NOT = { has_country_flag = Rudolfs_Bangerskis_unavailable }
			}
			cost = 150
			removal_cost = 10
			traits = { ideology_D CoStaff_School_Of_Defence }
		}
	# Janis Berzins
		LAT_CoStaff_Janis_Berzins = {
			picture = Generic_Portrait
			allowed = { tag = LAT }
			available = {
				date > 1933.1.1
				date < 1964.1.1
				LE_Minister_Allowed = yes
				NOT = { has_country_flag = Janis_Berzins_unavailable }
			}
			cost = 150
			removal_cost = 10
			traits = { ideology_C CoStaff_School_Of_Mass_Combat }
		}
	# Roberts Dambïtis
		LAT_CoStaff_Roberts_Dambitis = {
			picture = Generic_Portrait
			allowed = { tag = LAT }
			available = {
				date > 1938.1.1
				date < 1964.1.1
				LE_Minister_Allowed = yes
				NOT = { has_country_flag = Roberts_Dambitis_unavailable }
			}
			cost = 150
			removal_cost = 10
			traits = { ideology_C CoStaff_School_Of_Fire_Support }
		}
	# Izglitibas Tautas
		LAT_CoStaff_Izglitibas_Tautas = {
			picture = Generic_Portrait
			allowed = { tag = LAT }
			available = {
				date > 1945.1.1
				date < 1964.1.1
				ST_Minister_Allowed = yes
				NOT = { has_country_flag = Izglitibas_Tautas_unavailable }
			}
			cost = 150
			removal_cost = 10
			traits = { ideology_C CoStaff_School_Of_Mass_Combat }
		}
	# Arturs Sprogis
		LAT_CoStaff_Arturs_Sprogis = {
			picture = Generic_Portrait
			allowed = { tag = LAT }
			available = {
				date > 1946.1.1
				date < 1964.1.1
				ST_Minister_Allowed = yes
				NOT = { has_country_flag = Arturs_Sprogis_unavailable }
			}
			cost = 150
			removal_cost = 10
			traits = { ideology_C CoStaff_School_Of_Fire_Support }
		}
}
#################################################
### Chief of Army
#################################################
	Chief_of_Army = {
	# Otto Hellmich
		LAT_CoArmy_Otto_Hellmich = {
			picture = Generic_Portrait
			allowed = { tag = LAT }
			available = {
				date > 1941.1.1
				date < 1964.1.1
				NS_Minister_Allowed = yes
				NOT = { has_country_flag = Otto_Hellmich_unavailable }
			}
			cost = 150
			removal_cost = 10
			traits = { ideology_F CoArmy_Elastic_Defence_Doctrine }
		}
	# Rudolfs Bangerskis
		LAT_CoArmy_Rudolfs_Bangerskis = {
			picture = Generic_Portrait
			allowed = { tag = LAT }
			available = {
				date > 1933.1.1
				date < 1964.1.1
				FA_Minister_Allowed = yes
				NOT = { has_country_flag = Rudolfs_Bangerskis_unavailable }
			}
			cost = 150
			removal_cost = 10
			traits = { ideology_F CoArmy_Static_Defence_Doctrine }
		}
	# Fricis Celmins
		LAT_CoArmy_Fricis_Celmins = {
			picture = Generic_Portrait
			allowed = { tag = LAT }
			available = {
				date > 1937.1.1
				date < 1964.1.1
				FA_Minister_Allowed = yes
				NOT = { has_country_flag = Fricis_Celmins_unavailable }
			}
			cost = 150
			removal_cost = 10
			traits = { ideology_F CoArmy_Elastic_Defence_Doctrine }
		}
	# Rudolfs Kociñs
		LAT_CoArmy_Rudolfs_Kocins = {
			picture = Generic_Portrait
			allowed = { tag = LAT }
			available = {
				date > 1945.1.1
				date < 1964.1.1
				PA_Minister_Allowed = yes
				NOT = { has_country_flag = Rudolfs_Kocins_unavailable }
			}
			cost = 150
			removal_cost = 10
			traits = { ideology_A CoArmy_Elastic_Defence_Doctrine }
		}
	# von Timroth
		LAT_CoArmy_von_Timroth = {
			picture = Generic_Portrait
			allowed = { tag = LAT }
			available = {
				date > 1914.1.1
				date < 1933.1.1
				ML_Minister_Allowed = yes
				NOT = { has_country_flag = von_Timroth_unavailable }
			}
			cost = 150
			removal_cost = 10
			traits = { ideology_D CoArmy_Static_Defence_Doctrine }
		}
	# Janis Berzins
		LAT_CoArmy_Janis_Berzins = {
			picture = Generic_Portrait
			allowed = { tag = LAT }
			available = {
				date > 1933.1.1
				date < 1964.1.1
				LE_Minister_Allowed = yes
				NOT = { has_country_flag = Janis_Berzins_unavailable }
			}
			cost = 150
			removal_cost = 10
			traits = { ideology_C CoArmy_Decisive_Battle_Doctrine }
		}
	# Roberts Dambïtis
		LAT_CoArmy_Roberts_Dambitis = {
			picture = Generic_Portrait
			allowed = { tag = LAT }
			available = {
				date > 1938.1.1
				date < 1964.1.1
				LE_Minister_Allowed = yes
				NOT = { has_country_flag = Roberts_Dambitis_unavailable }
			}
			cost = 150
			removal_cost = 10
			traits = { ideology_C CoArmy_Guns_And_Butter_Doctrine }
		}
	# Arturs Sprogis
		LAT_CoArmy_Arturs_Sprogis = {
			picture = Generic_Portrait
			allowed = { tag = LAT }
			available = {
				date > 1945.1.1
				date < 1964.1.1
				ST_Minister_Allowed = yes
				NOT = { has_country_flag = Arturs_Sprogis_unavailable }
			}
			cost = 150
			removal_cost = 10
			traits = { ideology_C CoArmy_Decisive_Battle_Doctrine }
		}
	# Roberts Osis
		LAT_CoArmy_Roberts_Osis = {
			picture = Generic_Portrait
			allowed = { tag = LAT }
			available = {
				date > 1946.1.1
				date < 1964.1.1
				ST_Minister_Allowed = yes
				NOT = { has_country_flag = Roberts_Osis_unavailable }
			}
			cost = 150
			removal_cost = 10
			traits = { ideology_C CoArmy_Guns_And_Butter_Doctrine }
		}
}
#################################################
### Chief of Navy
#################################################
	Chief_of_Navy = {
	# Konstantins Cakste
		LAT_CoNavy_Konstantins_Cakste = {
			picture = Generic_Portrait
			allowed = { tag = LAT }
			available = {
				date > 1941.1.1
				date < 1964.1.1
				NS_Minister_Allowed = yes
				NOT = { has_country_flag = Konstantins_Cakste_unavailable }
			}
			cost = 150
			removal_cost = 10
			traits = { ideology_F CoNavy_Base_Control_Doctrine }
		}
	# Tomas Spade
		LAT_CoNavy_Tomas_Spade = {
			picture = Generic_Portrait
			allowed = { tag = LAT }
			available = {
				date > 1933.1.1
				date < 1964.1.1
				FA_Minister_Allowed = yes
				NOT = { has_country_flag = Tomas_Spade_unavailable }
			}
			cost = 150
			removal_cost = 10
			traits = { ideology_F CoNavy_Decisive_Naval_Battle_Doctrine }
		}
	# Janis Andersons
		LAT_CoNavy_Janis_Andersons = {
			picture = Generic_Portrait
			allowed = { tag = LAT }
			available = {
				date > 1933.1.1
				date < 1964.1.1
				SC_Minister_Allowed = yes
				NOT = { has_country_flag = Janis_Andersons_unavailable }
			}
			cost = 150
			removal_cost = 10
			traits = { ideology_D CoNavy_Base_Control_Doctrine }
		}
	# Augusts Kirchensteins
		LAT_CoNavy_Augusts_Kirchensteins = {
			picture = Generic_Portrait
			allowed = { tag = LAT }
			available = {
				date > 1933.1.1
				date < 1964.1.1
				LE_Minister_Allowed = yes
				NOT = { has_country_flag = Augusts_Kirchensteins_unavailable }
			}
			cost = 150
			removal_cost = 10
			traits = { ideology_C CoNavy_Open_Seas_Doctrine }
		}
	# Julijcs Lacis
		LAT_CoNavy_Julijcs_Lacis = {
			picture = Generic_Portrait
			allowed = { tag = LAT }
			available = {
				date > 1940.1.1
				date < 1964.1.1
				LE_Minister_Allowed = yes
				NOT = { has_country_flag = Julijcs_Lacis_unavailable }
			}
			cost = 150
			removal_cost = 10
			traits = { ideology_C CoNavy_Indirect_Approach_Doctrine }
		}
	# Teodors Zvejnieks
		LAT_CoNavy_Teodors_Zvejnieks = {
			picture = Generic_Portrait
			allowed = { tag = LAT }
			available = {
				date > 1945.1.1
				date < 1964.1.1
				ST_Minister_Allowed = yes
				NOT = { has_country_flag = Teodors_Zvejnieks_unavailable }
			}
			cost = 150
			removal_cost = 10
			traits = { ideology_C CoNavy_Power_Projection_Doctrine }
		}
}
#################################################
### Chief of Airforce
#################################################
	Chief_of_Airforce = {
	# Konstantins Cakste
		LAT_CoAir_Konstantins_Cakste = {
			picture = Generic_Portrait
			allowed = { tag = LAT }
			available = {
				date > 1941.1.1
				date < 1964.1.1
				NS_Minister_Allowed = yes
				NOT = { has_country_flag = Konstantins_Cakste_unavailable }
			}
			cost = 150
			removal_cost = 10
			traits = { ideology_F CoAir_Army_Aviation_Doctrine }
		}
	# Janis Indans
		LAT_CoAir_Janis_Indans = {
			picture = Generic_Portrait
			allowed = { tag = LAT }
			available = {
				date > 1933.1.1
				date < 1964.1.1
				FA_Minister_Allowed = yes
				NOT = { has_country_flag = Janis_Indans_unavailable }
			}
			cost = 150
			removal_cost = 10
			traits = { ideology_F CoAir_Army_Aviation_Doctrine }
		}
	# Rudolfs Bangerskis
		LAT_CoAir_Rudolfs_Bangerskis = {
			picture = Generic_Portrait
			allowed = { tag = LAT }
			available = {
				date > 1945.1.1
				date < 1964.1.1
				PA_Minister_Allowed = yes
				NOT = { has_country_flag = Rudolfs_Bangerskis_unavailable }
			}
			cost = 150
			removal_cost = 10
			traits = { ideology_A CoAir_Army_Aviation_Doctrine }
		}
	# Jucums Vacietis
		LAT_CoAir_Jucums_Vacietis = {
			picture = Generic_Portrait
			allowed = { tag = LAT }
			available = {
				date > 1933.1.1
				date < 1964.1.1
				SC_Minister_Allowed = yes
				NOT = { has_country_flag = Jucums_Vacietis_unavailable }
			}
			cost = 150
			removal_cost = 10
			traits = { ideology_D CoAir_Air_Superiority_Doctrine }
		}
	# Edgars Andersons
		LAT_CoAir_Edgars_Andersons = {
			picture = Generic_Portrait
			allowed = { tag = LAT }
			available = {
				date > 1945.1.1
				date < 1964.1.1
				SC_Minister_Allowed = yes
				NOT = { has_country_flag = Edgars_Andersons_unavailable }
			}
			cost = 150
			removal_cost = 10
			traits = { ideology_D CoAir_Vertical_Envelopment_Doctrine }
		}
	# Izglitibas Tautas
		LAT_CoAir_Izglitibas_Tautas = {
			picture = Generic_Portrait
			allowed = { tag = LAT }
			available = {
				date > 1933.1.1
				date < 1964.1.1
				LE_Minister_Allowed = yes
				NOT = { has_country_flag = Izglitibas_Tautas_unavailable }
			}
			cost = 150
			removal_cost = 10
			traits = { ideology_C CoAir_Naval_Aviation_Doctrine }
		}
	}
}
