ideas = {
#################################################
### Head of Government
#################################################
	Head_of_Government = {
	# Franz Burri
		SWI_HoG_Franz_Burri = {
			picture = Generic_Portrait
			allowed = { tag = SWI }
			available = {
				date > 1933.1.1
				date < 1964.1.1
				FA_Minister_Allowed = yes
				NOT = { has_country_flag = Franz_Burri_unavailable }
			}
			cost = 150
			removal_cost = 10
			traits = { ideology_F HoG_Old_Admiral }
		}
	# Ulrich Wille
		SWI_HoG_Ulrich_Wille = {
			picture = Generic_Portrait
			allowed = { tag = SWI }
			available = {
				date > 1914.1.1
				date < 1933.1.1
				PA_Minister_Allowed = yes
				NOT = { has_country_flag = Ulrich_Wille_unavailable }
			}
			cost = 150
			removal_cost = 10
			traits = { ideology_A HoG_Old_General }
		}
	# Oskar Leimgruber
		SWI_HoG_Oskar_Leimgruber = {
			picture = Generic_Portrait
			allowed = { tag = SWI }
			available = {
				date > 1944.1.1
				date < 1964.1.1
				SC_Minister_Allowed = yes
				NOT = { has_country_flag = Oskar_Leimgruber_unavailable }
			}
			cost = 150
			removal_cost = 10
			traits = { ideology_D HoG_Smiling_Oilman }
		}
	# Eduard von Steiger
		SWI_HoG_Eduard_von_Steiger_2 = {
			picture = Generic_Portrait
			allowed = { tag = SWI }
			available = {
				date > 1951.1.1
				date < 1964.1.1
				SC_Minister_Allowed = yes
				NOT = { has_country_flag = Eduard_von_Steiger_unavailable }
			}
			cost = 150
			removal_cost = 10
			traits = { ideology_D HoG_Corporate_Suit }
		}
	# Hans Schatzmann
		SWI_HoG_Hans_Schatzmann = {
			picture = Generic_Portrait
			allowed = { tag = SWI }
			available = {
				date > 1909.1.1
				date < 1923.1.1
				ML_Minister_Allowed = yes
				NOT = { has_country_flag = Hans_Schatzmann_unavailable }
			}
			cost = 150
			removal_cost = 10
			traits = { ideology_D HoG_Silent_Workhorse }
		}
	# Albert Meyer
		SWI_HoG_Albert_Meyer = {
			picture = Generic_Portrait
			allowed = { tag = SWI }
			available = {
				date > 1933.1.1
				date < 1964.1.1
				ML_Minister_Allowed = yes
				NOT = { has_country_flag = Albert_Meyer_unavailable }
			}
			cost = 150
			removal_cost = 10
			traits = { ideology_D HoG_Silent_Workhorse }
		}
	# Johannes Baumann
		SWI_HoG_Johannes_Baumann = {
			picture = Generic_Portrait
			allowed = { tag = SWI }
			available = {
				date > 1938.1.1
				date < 1964.1.1
				ML_Minister_Allowed = yes
				NOT = { has_country_flag = Johannes_Baumann_unavailable }
			}
			cost = 150
			removal_cost = 10
			traits = { ideology_D HoG_Ambitious_Union_Boss }
		}
	# Ernst Wetter
		SWI_HoG_Ernst_Wetter = {
			picture = Generic_Portrait
			allowed = { tag = SWI }
			available = {
				date > 1941.1.1
				date < 1964.1.1
				ML_Minister_Allowed = yes
				NOT = { has_country_flag = Ernst_Wetter_unavailable }
			}
			cost = 150
			removal_cost = 10
			traits = { ideology_D HoG_Backroom_Backstabber }
		}
	# Walter Stampfli
		SWI_HoG_Walter_Stampfli = {
			picture = Generic_Portrait
			allowed = { tag = SWI }
			available = {
				date > 1944.1.1
				date < 1964.1.1
				ML_Minister_Allowed = yes
				NOT = { has_country_flag = Walter_Stampfli_unavailable }
			}
			cost = 150
			removal_cost = 10
			traits = { ideology_D HoG_Naive_Optimist }
		}
	# Karl Kobelt
		SWI_HoG_Karl_Kobelt = {
			picture = Generic_Portrait
			allowed = { tag = SWI }
			available = {
				date > 1946.1.1
				date < 1964.1.1
				ML_Minister_Allowed = yes
				NOT = { has_country_flag = Karl_Kobelt_unavailable }
			}
			cost = 150
			removal_cost = 10
			traits = { ideology_D HoG_Happy_Amateur }
		}
	# Walther Bringolf
		SWI_HoG_Walther_Bringolf_2 = {
			picture = Generic_Portrait
			allowed = { tag = SWI }
			available = {
				date > 1959.1.1
				date < 1982.1.1
				ML_Minister_Allowed = yes
				NOT = { has_country_flag = Walther_Bringolf_unavailable }
			}
			cost = 150
			removal_cost = 10
			traits = { ideology_D HoG_Backroom_Backstabber }
		}
	# Karl Huber
		SWI_HoG_Karl_Huber = {
			picture = Generic_Portrait
			allowed = { tag = SWI }
			available = {
				date > 1967.1.1
				date < 1980.1.1
				ML_Minister_Allowed = yes
				NOT = { has_country_flag = Karl_Huber_unavailable }
			}
			cost = 150
			removal_cost = 10
			traits = { ideology_D HoG_Flamboyant_Tough_Guy }
		}
	# Yann Richter
		SWI_HoG_Yann_Richter = {
			picture = Generic_Portrait
			allowed = { tag = SWI }
			available = {
				date > 1983.1.1
				date < 2009.1.1
				ML_Minister_Allowed = yes
				NOT = { has_country_flag = Yann_Richter_unavailable }
			}
			cost = 150
			removal_cost = 10
			traits = { ideology_D HoG_Ambitious_Union_Boss }
		}
	# Bruno Hunziker
		SWI_HoG_Bruno_Hunziker = {
			picture = Generic_Portrait
			allowed = { tag = SWI }
			available = {
				date > 1987.1.1
				date < 2001.1.1
				ML_Minister_Allowed = yes
				NOT = { has_country_flag = Bruno_Hunziker_unavailable }
			}
			cost = 150
			removal_cost = 10
			traits = { ideology_D HoG_Naive_Optimist }
		}
	# François Couchepin
		SWI_HoG_Francois_Couchepin = {
			picture = Generic_Portrait
			allowed = { tag = SWI }
			available = {
				date > 1991.1.1
				date < 2020.1.1
				ML_Minister_Allowed = yes
				NOT = { has_country_flag = Francois_Couchepin_unavailable }
			}
			cost = 150
			removal_cost = 10
			traits = { ideology_D HoG_Flamboyant_Tough_Guy }
		}
	# Giuseppe Motta
		SWI_HoG_Giuseppe_Motta = {
			picture = Generic_Portrait
			allowed = { tag = SWI }
			available = {
				date > 1937.1.1
				date < 1964.1.1
				SL_Minister_Allowed = yes
				NOT = { has_country_flag = Giuseppe_Motta_unavailable }
			}
			cost = 150
			removal_cost = 10
			traits = { ideology_D HoG_Silent_Workhorse }
		}
	# Philipp Etter
		SWI_HoG_Philipp_Etter = {
			picture = Generic_Portrait
			allowed = { tag = SWI }
			available = {
				date > 1939.1.1
				date < 1964.1.1
				SL_Minister_Allowed = yes
				NOT = { has_country_flag = Philipp_Etter_unavailable }
			}
			cost = 150
			removal_cost = 10
			traits = { ideology_D HoG_Flamboyant_Tough_Guy }
		}
	# Eduard von Steiger
		SWI_HoG_Eduard_von_Steiger = {
			picture = Generic_Portrait
			allowed = { tag = SWI }
			available = {
				date > 1945.1.1
				date < 1964.1.1
				SL_Minister_Allowed = yes
				NOT = { has_country_flag = Eduard_von_Steiger_unavailable }
			}
			cost = 150
			removal_cost = 10
			traits = { ideology_D HoG_Smiling_Oilman }
		}
	# Hans Oprecht
		SWI_HoG_Hans_Oprecht = {
			picture = Generic_Portrait
			allowed = { tag = SWI }
			available = {
				date > 1947.1.1
				date < 1964.1.1
				SL_Minister_Allowed = yes
				NOT = { has_country_flag = Hans_Oprecht_unavailable }
			}
			cost = 150
			removal_cost = 10
			traits = { ideology_D HoG_Backroom_Backstabber }
		}
	# Max Petitpierre
		SWI_HoG_Max_Petitpierre = {
			picture = Generic_Portrait
			allowed = { tag = SWI }
			available = {
				date > 1950.1.1
				date < 1964.1.1
				SL_Minister_Allowed = yes
				NOT = { has_country_flag = Max_Petitpierre_unavailable }
			}
			cost = 150
			removal_cost = 10
			traits = { ideology_D HoG_Political_Protege }
		}
	# Charles Oser
		SWI_HoG_Charles_Oser = {
			picture = Generic_Portrait
			allowed = { tag = SWI }
			available = {
				date > 1951.1.1
				date < 1964.1.1
				SL_Minister_Allowed = yes
				NOT = { has_country_flag = Charles_Oser_unavailable }
			}
			cost = 150
			removal_cost = 10
			traits = { ideology_D HoG_Corporate_Suit }
		}
	# Walther Bringolf
		SWI_HoG_Walther_Bringolf = {
			picture = Generic_Portrait
			allowed = { tag = SWI }
			available = {
				date > 1955.1.1
				date < 1964.1.1
				SL_Minister_Allowed = yes
				NOT = { has_country_flag = Walther_Bringolf_unavailable }
			}
			cost = 150
			removal_cost = 10
			traits = { ideology_D HoG_Corporate_Suit }
		}
	# Fritz Grüter
		SWI_HoG_Fritz_Gruter = {
			picture = Generic_Portrait
			allowed = { tag = SWI }
			available = {
				date > 1963.1.1
				date < 1965.1.1
				SL_Minister_Allowed = yes
				NOT = { has_country_flag = Fritz_Gruter_unavailable }
			}
			cost = 150
			removal_cost = 10
			traits = { ideology_D HoG_Old_Airmarshal }
		}
	# Arthur Schmid
		SWI_HoG_Arthur_Schmid = {
			picture = Generic_Portrait
			allowed = { tag = SWI }
			available = {
				date > 1971.1.1
				date < 1990.1.1
				SL_Minister_Allowed = yes
				NOT = { has_country_flag = Arthur_Schmid_unavailable }
			}
			cost = 150
			removal_cost = 10
			traits = { ideology_D HoG_Political_Protege }
		}
	# Helmut Hubacher
		SWI_HoG_Helmut_Hubacher = {
			picture = Generic_Portrait
			allowed = { tag = SWI }
			available = {
				date > 1975.1.1
				date < 2020.1.1
				SL_Minister_Allowed = yes
				NOT = { has_country_flag = Helmut_Hubacher_unavailable }
			}
			cost = 150
			removal_cost = 10
			traits = { ideology_D HoG_Flamboyant_Tough_Guy }
		}
	# Walter Buser
		SWI_HoG_Walter_Buser = {
			picture = Generic_Portrait
			allowed = { tag = SWI }
			available = {
				date > 1979.1.1
				date < 2020.1.1
				SL_Minister_Allowed = yes
				NOT = { has_country_flag = Walter_Buser_unavailable }
			}
			cost = 150
			removal_cost = 10
			traits = { ideology_D HoG_Corporate_Suit }
		}
	# Peter Bodenmann
		SWI_HoG_Peter_Bodenmann = {
			picture = Generic_Portrait
			allowed = { tag = SWI }
			available = {
				date > 1991.1.1
				date < 2020.1.1
				SL_Minister_Allowed = yes
				NOT = { has_country_flag = Peter_Bodenmann_unavailable }
			}
			cost = 150
			removal_cost = 10
			traits = { ideology_D HoG_Corporate_Suit }
		}
	# Marcel Pilet-Golaz
		SWI_HoG_Marcel_PiletGolaz = {
			picture = Generic_Portrait
			allowed = { tag = SWI }
			available = {
				date > 1940.1.1
				date < 1964.1.1
				SD_Minister_Allowed = yes
				NOT = { has_country_flag = Marcel_PiletGolaz_unavailable }
			}
			cost = 150
			removal_cost = 10
			traits = { ideology_D HoG_Political_Protege }
		}
	# Enrico Celio
		SWI_HoG_Enrico_Celio = {
			picture = Generic_Portrait
			allowed = { tag = SWI }
			available = {
				date > 1943.1.1
				date < 1964.1.1
				SD_Minister_Allowed = yes
				NOT = { has_country_flag = Enrico_Celio_unavailable }
			}
			cost = 150
			removal_cost = 10
			traits = { ideology_D HoG_Corporate_Suit }
		}
	# Ernst Nobs
		SWI_HoG_Ernst_Nobs = {
			picture = Generic_Portrait
			allowed = { tag = SWI }
			available = {
				date > 1949.1.1
				date < 1964.1.1
				SD_Minister_Allowed = yes
				NOT = { has_country_flag = Ernst_Nobs_unavailable }
			}
			cost = 150
			removal_cost = 10
			traits = { ideology_D HoG_Happy_Amateur }
		}
	# Josef Wiktor Widmann
		SWI_HoG_Josef_Wiktor_Widmann = {
			picture = Generic_Portrait
			allowed = { tag = SWI }
			available = {
				date > 1933.1.1
				date < 1964.1.1
				LWR_Minister_Allowed = yes
				NOT = { has_country_flag = Josef_Wiktor_Widmann_unavailable }
			}
			cost = 150
			removal_cost = 10
			traits = { ideology_S HoG_Ambitious_Union_Boss }
		}
	# Jules Humbert-Droz
		SWI_HoG_Jules_HumbertDroz = {
			picture = Generic_Portrait
			allowed = { tag = SWI }
			available = {
				date > 1918.1.1
				date < 1933.1.1
				ST_Minister_Allowed = yes
				NOT = { has_country_flag = Jules_HumbertDroz_unavailable }
			}
			cost = 150
			removal_cost = 10
			traits = { ideology_C HoG_Flamboyant_Tough_Guy }
		}
}
#################################################
### Foreign Minister
#################################################
	Foreign_Minister = {
	# Jacob Lorenz
		SWI_FM_Jacob_Lorenz = {
			picture = Generic_Portrait
			allowed = { tag = SWI }
			available = {
				date > 1933.1.1
				date < 1964.1.1
				FA_Minister_Allowed = yes
				NOT = { has_country_flag = Jacob_Lorenz_unavailable }
			}
			cost = 150
			removal_cost = 10
			traits = { ideology_F FM_Iron_Fisted_Brute }
		}
	# Giuseppe Motta
		SWI_FM_Giuseppe_Motta_2 = {
			picture = Generic_Portrait
			allowed = { tag = SWI }
			available = {
				date > 1920.1.1
				date < 1933.1.1
				ML_Minister_Allowed = yes
				NOT = { has_country_flag = Giuseppe_Motta_unavailable }
			}
			cost = 150
			removal_cost = 10
			traits = { ideology_D FM_Great_Compromiser }
		}
	# Paul Usteri
		SWI_FM_Paul_Usteri = {
			picture = Generic_Portrait
			allowed = { tag = SWI }
			available = {
				date > 1937.1.1
				date < 1964.1.1
				ML_Minister_Allowed = yes
				NOT = { has_country_flag = Paul_Usteri_unavailable }
			}
			cost = 150
			removal_cost = 10
			traits = { ideology_D FM_Ideological_Crusader }
		}
	# Justus Stöcklin
		SWI_FM_Justus_Stocklin = {
			picture = Generic_Portrait
			allowed = { tag = SWI }
			available = {
				date > 1938.1.1
				date < 1964.1.1
				ML_Minister_Allowed = yes
				NOT = { has_country_flag = Justus_Stocklin_unavailable }
			}
			cost = 150
			removal_cost = 10
			traits = { ideology_D FM_Great_Compromiser }
		}
	# Marcel Pilet-Golaz
		SWI_FM_Marcel_PiletGolaz = {
			picture = Generic_Portrait
			allowed = { tag = SWI }
			available = {
				date > 1940.1.1
				date < 1964.1.1
				ML_Minister_Allowed = yes
				NOT = { has_country_flag = Marcel_PiletGolaz_unavailable }
			}
			cost = 150
			removal_cost = 10
			traits = { ideology_D FM_Great_Compromiser }
		}
	# Walter Stampfli
		SWI_FM_Walter_Stampfli = {
			picture = Generic_Portrait
			allowed = { tag = SWI }
			available = {
				date > 1943.1.1
				date < 1964.1.1
				ML_Minister_Allowed = yes
				NOT = { has_country_flag = Walter_Stampfli_unavailable }
			}
			cost = 150
			removal_cost = 10
			traits = { ideology_D FM_Iron_Fisted_Brute }
		}
	# Arthur Hoffmann
		SWI_FM_Arthur_Hoffmann = {
			picture = Generic_Portrait
			allowed = { tag = SWI }
			available = {
				date > 1914.1.1
				date < 1933.1.1
				SL_Minister_Allowed = yes
				NOT = { has_country_flag = Arthur_Hoffmann_unavailable }
			}
			cost = 150
			removal_cost = 10
			traits = { ideology_D FM_Apologetic_Clerk }
		}
	# Gustave Ador
		SWI_FM_Gustave_Ador = {
			picture = Generic_Portrait
			allowed = { tag = SWI }
			available = {
				date > 1917.1.1
				date < 1933.1.1
				SL_Minister_Allowed = yes
				NOT = { has_country_flag = Gustave_Ador_unavailable }
			}
			cost = 150
			removal_cost = 10
			traits = { ideology_D FM_Great_Compromiser }
		}
	# Felix Louis Calonder
		SWI_FM_Felix_Louis_Calonder = {
			picture = Generic_Portrait
			allowed = { tag = SWI }
			available = {
				date > 1918.1.1
				date < 1933.1.1
				SL_Minister_Allowed = yes
				NOT = { has_country_flag = Felix_Louis_Calonder_unavailable }
			}
			cost = 150
			removal_cost = 10
			traits = { ideology_D FM_Apologetic_Clerk }
		}
	# Giuseppe Motta
		SWI_FM_Giuseppe_Motta = {
			picture = Generic_Portrait
			allowed = { tag = SWI }
			available = {
				date > 1933.1.1
				date < 1964.1.1
				SL_Minister_Allowed = yes
				NOT = { has_country_flag = Giuseppe_Motta_unavailable }
			}
			cost = 150
			removal_cost = 10
			traits = { ideology_D FM_Apologetic_Clerk }
		}
	# Jakob I. Huber
		SWI_FM_Jakob_I_Huber = {
			picture = Generic_Portrait
			allowed = { tag = SWI }
			available = {
				date > 1939.1.1
				date < 1964.1.1
				SL_Minister_Allowed = yes
				NOT = { has_country_flag = Jakob_I_Huber_unavailable }
			}
			cost = 150
			removal_cost = 10
			traits = { ideology_D FM_General_Staffer }
		}
	# Nicolas Lejeune
		SWI_FM_Nicolas_Lejeune = {
			picture = Generic_Portrait
			allowed = { tag = SWI }
			available = {
				date > 1940.1.1
				date < 1964.1.1
				SL_Minister_Allowed = yes
				NOT = { has_country_flag = Nicolas_Lejeune_unavailable }
			}
			cost = 150
			removal_cost = 10
			traits = { ideology_D FM_Apologetic_Clerk }
		}
	# Karl Zeltner
		SWI_FM_Karl_Zeltner = {
			picture = Generic_Portrait
			allowed = { tag = SWI }
			available = {
				date > 1941.1.1
				date < 1964.1.1
				SL_Minister_Allowed = yes
				NOT = { has_country_flag = Karl_Zeltner_unavailable }
			}
			cost = 150
			removal_cost = 10
			traits = { ideology_D FM_The_Cloak_N_Dagger_Schemer }
		}
	# Max Kauffmann
		SWI_FM_Max_Kauffmann = {
			picture = Generic_Portrait
			allowed = { tag = SWI }
			available = {
				date > 1944.1.1
				date < 1964.1.1
				SL_Minister_Allowed = yes
				NOT = { has_country_flag = Max_Kauffmann_unavailable }
			}
			cost = 150
			removal_cost = 10
			traits = { ideology_D FM_Biased_Intellectual }
		}
	# Max Petitpierre
		SWI_FM_Max_Petitpierre = {
			picture = Generic_Portrait
			allowed = { tag = SWI }
			available = {
				date > 1945.1.1
				date < 1964.1.1
				SL_Minister_Allowed = yes
				NOT = { has_country_flag = Max_Petitpierre_unavailable }
			}
			cost = 150
			removal_cost = 10
			traits = { ideology_D FM_Iron_Fisted_Brute }
		}
	# Paul Manz
		SWI_FM_Paul_Manz = {
			picture = Generic_Portrait
			allowed = { tag = SWI }
			available = {
				date > 1945.1.1
				date < 1964.1.1
				SL_Minister_Allowed = yes
				NOT = { has_country_flag = Paul_Manz_unavailable }
			}
			cost = 150
			removal_cost = 10
			traits = { ideology_D FM_Great_Compromiser }
		}
	# Otto Buess
		SWI_FM_Otto_Buess = {
			picture = Generic_Portrait
			allowed = { tag = SWI }
			available = {
				date > 1941.1.1
				date < 1964.1.1
				SD_Minister_Allowed = yes
				NOT = { has_country_flag = Otto_Buess_unavailable }
			}
			cost = 150
			removal_cost = 10
			traits = { ideology_D FM_Iron_Fisted_Brute }
		}
	# Enrico Celio
		SWI_FM_Enrico_Celio = {
			picture = Generic_Portrait
			allowed = { tag = SWI }
			available = {
				date > 1942.1.1
				date < 1964.1.1
				SD_Minister_Allowed = yes
				NOT = { has_country_flag = Enrico_Celio_unavailable }
			}
			cost = 150
			removal_cost = 10
			traits = { ideology_D FM_Ideological_Crusader }
		}
	# Hermann Hessel-Lorenz
		SWI_FM_Hermann_HesselLorenz = {
			picture = Generic_Portrait
			allowed = { tag = SWI }
			available = {
				date > 1933.1.1
				date < 1964.1.1
				LWR_Minister_Allowed = yes
				NOT = { has_country_flag = Hermann_HesselLorenz_unavailable }
			}
			cost = 150
			removal_cost = 10
			traits = { ideology_S FM_The_Cloak_N_Dagger_Schemer }
		}
	# Rudolf Gelpke
		SWI_FM_Rudolf_Gelpke = {
			picture = Generic_Portrait
			allowed = { tag = SWI }
			available = {
				date > 1933.1.1
				date < 1964.1.1
				LE_Minister_Allowed = yes
				NOT = { has_country_flag = Rudolf_Gelpke_unavailable }
			}
			cost = 150
			removal_cost = 10
			traits = { ideology_C FM_Ideological_Crusader }
		}
	# Jules Humbert-Droz
		SWI_FM_Jules_HumbertDroz = {
			picture = Generic_Portrait
			allowed = { tag = SWI }
			available = {
				date > 1918.1.1
				date < 1933.1.1
				ST_Minister_Allowed = yes
				NOT = { has_country_flag = Jules_HumbertDroz_unavailable }
			}
			cost = 150
			removal_cost = 10
			traits = { ideology_C FM_Ideological_Crusader }
		}
}
#################################################
### Minister of Security
#################################################
	Minister_of_Security = {
	# Franz Burri
		SWI_MoS_Franz_Burri = {
			picture = Generic_Portrait
			allowed = { tag = SWI }
			available = {
				date > 1933.1.1
				date < 1964.1.1
				FA_Minister_Allowed = yes
				NOT = { has_country_flag = Franz_Burri_unavailable }
			}
			cost = 150
			removal_cost = 10
			traits = { ideology_F MoS_Crooked_Kleptocrat }
		}
	# Eduard Müller 
		SWI_MoS_Eduard_Muller_ = {
			picture = Generic_Portrait
			allowed = { tag = SWI }
			available = {
				date > 1914.1.1
				date < 1919.1.1
				ML_Minister_Allowed = yes
				NOT = { has_country_flag = Eduard_Muller__unavailable }
			}
			cost = 150
			removal_cost = 10
			traits = { ideology_D MoS_Compassionate_Gentleman }
		}
	# Johannes Baumann
		SWI_MoS_Johannes_Baumann = {
			picture = Generic_Portrait
			allowed = { tag = SWI }
			available = {
				date > 1933.1.1
				date < 1964.1.1
				ML_Minister_Allowed = yes
				NOT = { has_country_flag = Johannes_Baumann_unavailable }
			}
			cost = 150
			removal_cost = 10
			traits = { ideology_D MoS_Compassionate_Gentleman }
		}
	# Gustave Adoor
		SWI_MoS_Gustave_Adoor = {
			picture = Generic_Portrait
			allowed = { tag = SWI }
			available = {
				date > 1933.1.1
				date < 1964.1.1
				ML_Minister_Allowed = yes
				NOT = { has_country_flag = Gustave_Adoor_unavailable }
			}
			cost = 150
			removal_cost = 10
			traits = { ideology_D MoS_Man_Of_The_People }
		}
	# Heinrich Rothmund
		SWI_MoS_Heinrich_Rothmund = {
			picture = Generic_Portrait
			allowed = { tag = SWI }
			available = {
				date > 1940.1.1
				date < 1964.1.1
				ML_Minister_Allowed = yes
				NOT = { has_country_flag = Heinrich_Rothmund_unavailable }
			}
			cost = 150
			removal_cost = 10
			traits = { ideology_D MoS_Crime_Fighter }
		}
	# Paul Frutig
		SWI_MoS_Paul_Frutig = {
			picture = Generic_Portrait
			allowed = { tag = SWI }
			available = {
				date > 1942.1.1
				date < 1964.1.1
				ML_Minister_Allowed = yes
				NOT = { has_country_flag = Paul_Frutig_unavailable }
			}
			cost = 150
			removal_cost = 10
			traits = { ideology_D MoS_Silent_Lawyer }
		}
	# Clemens Stöckli
		SWI_MoS_Clemens_Stockli = {
			picture = Generic_Portrait
			allowed = { tag = SWI }
			available = {
				date > 1944.1.1
				date < 1964.1.1
				ML_Minister_Allowed = yes
				NOT = { has_country_flag = Clemens_Stockli_unavailable }
			}
			cost = 150
			removal_cost = 10
			traits = { ideology_D MoS_Silent_Lawyer }
		}
	# Arthur Hoffmann
		SWI_MoS_Arthur_Hoffmann = {
			picture = Generic_Portrait
			allowed = { tag = SWI }
			available = {
				date > 1914.1.1
				date < 1933.1.1
				SL_Minister_Allowed = yes
				NOT = { has_country_flag = Arthur_Hoffmann_unavailable }
			}
			cost = 150
			removal_cost = 10
			traits = { ideology_D MoS_Silent_Lawyer }
		}
	# Camille Decoppet
		SWI_MoS_Camille_Decoppet = {
			picture = Generic_Portrait
			allowed = { tag = SWI }
			available = {
				date > 1914.1.1
				date < 1933.1.1
				SL_Minister_Allowed = yes
				NOT = { has_country_flag = Camille_Decoppet_unavailable }
			}
			cost = 150
			removal_cost = 10
			traits = { ideology_D MoS_Silent_Lawyer }
		}
	# Heinrich Häberlin
		SWI_MoS_Heinrich_Haberlin = {
			picture = Generic_Portrait
			allowed = { tag = SWI }
			available = {
				date > 1920.1.1
				date < 1933.1.1
				SL_Minister_Allowed = yes
				NOT = { has_country_flag = Heinrich_Haberlin_unavailable }
			}
			cost = 150
			removal_cost = 10
			traits = { ideology_D MoS_Crime_Fighter }
		}
	# Felic Calonder
		SWI_MoS_Felic_Calonder = {
			picture = Generic_Portrait
			allowed = { tag = SWI }
			available = {
				date > 1933.1.1
				date < 1964.1.1
				SL_Minister_Allowed = yes
				NOT = { has_country_flag = Felic_Calonder_unavailable }
			}
			cost = 150
			removal_cost = 10
			traits = { ideology_D MoS_Back_Stabber }
		}
	# Gonzague de Reynold
		SWI_MoS_Gonzague_de_Reynold = {
			picture = Generic_Portrait
			allowed = { tag = SWI }
			available = {
				date > 1937.1.1
				date < 1964.1.1
				SL_Minister_Allowed = yes
				NOT = { has_country_flag = Gonzague_de_Reynold_unavailable }
			}
			cost = 150
			removal_cost = 10
			traits = { ideology_D MoS_Compassionate_Gentleman }
		}
	# Edmond Schulthess
		SWI_MoS_Edmond_Schulthess = {
			picture = Generic_Portrait
			allowed = { tag = SWI }
			available = {
				date > 1938.1.1
				date < 1964.1.1
				SL_Minister_Allowed = yes
				NOT = { has_country_flag = Edmond_Schulthess_unavailable }
			}
			cost = 150
			removal_cost = 10
			traits = { ideology_D MoS_Prince_Of_Terror }
		}
	# Hugo Gschwind
		SWI_MoS_Hugo_Gschwind = {
			picture = Generic_Portrait
			allowed = { tag = SWI }
			available = {
				date > 1939.1.1
				date < 1964.1.1
				SL_Minister_Allowed = yes
				NOT = { has_country_flag = Hugo_Gschwind_unavailable }
			}
			cost = 150
			removal_cost = 10
			traits = { ideology_D MoS_Crime_Fighter }
		}
	# Philipp Etter
		SWI_MoS_Philipp_Etter = {
			picture = Generic_Portrait
			allowed = { tag = SWI }
			available = {
				date > 1939.1.1
				date < 1964.1.1
				SL_Minister_Allowed = yes
				NOT = { has_country_flag = Philipp_Etter_unavailable }
			}
			cost = 150
			removal_cost = 10
			traits = { ideology_D MoS_Crime_Fighter }
		}
	# Eduard von Steiger
		SWI_MoS_Eduard_von_Steiger = {
			picture = Generic_Portrait
			allowed = { tag = SWI }
			available = {
				date > 1941.1.1
				date < 1964.1.1
				SL_Minister_Allowed = yes
				NOT = { has_country_flag = Eduard_von_Steiger_unavailable }
			}
			cost = 150
			removal_cost = 10
			traits = { ideology_D MoS_Silent_Lawyer }
		}
	# Max Waibel
		SWI_MoS_Max_Waibel = {
			picture = Generic_Portrait
			allowed = { tag = SWI }
			available = {
				date > 1942.1.1
				date < 1964.1.1
				SL_Minister_Allowed = yes
				NOT = { has_country_flag = Max_Waibel_unavailable }
			}
			cost = 150
			removal_cost = 10
			traits = { ideology_D MoS_Efficient_Sociopath }
		}
	# Guido Miescher
		SWI_MoS_Guido_Miescher = {
			picture = Generic_Portrait
			allowed = { tag = SWI }
			available = {
				date > 1938.1.1
				date < 1964.1.1
				SD_Minister_Allowed = yes
				NOT = { has_country_flag = Guido_Miescher_unavailable }
			}
			cost = 150
			removal_cost = 10
			traits = { ideology_D MoS_Prince_Of_Terror }
		}
	# Hans Leupin
		SWI_MoS_Hans_Leupin = {
			picture = Generic_Portrait
			allowed = { tag = SWI }
			available = {
				date > 1940.1.1
				date < 1964.1.1
				SD_Minister_Allowed = yes
				NOT = { has_country_flag = Hans_Leupin_unavailable }
			}
			cost = 150
			removal_cost = 10
			traits = { ideology_D MoS_Back_Stabber }
		}
	# Traugott Meyer
		SWI_MoS_Traugott_Meyer = {
			picture = Generic_Portrait
			allowed = { tag = SWI }
			available = {
				date > 1943.1.1
				date < 1964.1.1
				SD_Minister_Allowed = yes
				NOT = { has_country_flag = Traugott_Meyer_unavailable }
			}
			cost = 150
			removal_cost = 10
			traits = { ideology_D MoS_Man_Of_The_People }
		}
	# Ernst Lolliger
		SWI_MoS_Ernst_Lolliger = {
			picture = Generic_Portrait
			allowed = { tag = SWI }
			available = {
				date > 1944.1.1
				date < 1964.1.1
				SD_Minister_Allowed = yes
				NOT = { has_country_flag = Ernst_Lolliger_unavailable }
			}
			cost = 150
			removal_cost = 10
			traits = { ideology_D MoS_Man_Of_The_People }
		}
	# Walther Bringholf
		SWI_MoS_Walther_Bringholf = {
			picture = Generic_Portrait
			allowed = { tag = SWI }
			available = {
				date > 1918.1.1
				date < 1933.1.1
				ST_Minister_Allowed = yes
				NOT = { has_country_flag = Walther_Bringholf_unavailable }
			}
			cost = 150
			removal_cost = 10
			traits = { ideology_C MoS_Man_Of_The_People }
		}
	# Heinrich Abbegg
		SWI_MoS_Heinrich_Abbegg = {
			picture = Generic_Portrait
			allowed = { tag = SWI }
			available = {
				date > 1933.1.1
				date < 1964.1.1
				ST_Minister_Allowed = yes
				NOT = { has_country_flag = Heinrich_Abbegg_unavailable }
			}
			cost = 150
			removal_cost = 10
			traits = { ideology_C MoS_Crime_Fighter }
		}
}
#################################################
### Armaments Minister
#################################################
	Armaments_Minister = {
	# Hans Oehler
		SWI_AM_Hans_Oehler = {
			picture = Generic_Portrait
			allowed = { tag = SWI }
			available = {
				date > 1933.1.1
				date < 1964.1.1
				FA_Minister_Allowed = yes
				NOT = { has_country_flag = Hans_Oehler_unavailable }
			}
			cost = 150
			removal_cost = 10
			traits = { ideology_F AM_Military_Entrepreneur }
		}
	# Ulrich Wille
		SWI_AM_Ulrich_Wille = {
			picture = Generic_Portrait
			allowed = { tag = SWI }
			available = {
				date > 1914.1.1
				date < 1933.1.1
				PA_Minister_Allowed = yes
				NOT = { has_country_flag = Ulrich_Wille_unavailable }
			}
			cost = 150
			removal_cost = 10
			traits = { ideology_A AM_Infantry_Proponent }
		}
	# Giuseppe Motta
		SWI_AM_Giuseppe_Motta = {
			picture = Generic_Portrait
			allowed = { tag = SWI }
			available = {
				date > 1914.1.1
				date < 1933.1.1
				ML_Minister_Allowed = yes
				NOT = { has_country_flag = Giuseppe_Motta_unavailable }
			}
			cost = 150
			removal_cost = 10
			traits = { ideology_D AM_Laissez-faire_Capitalist }
		}
	# Jean-Marie Musy
		SWI_AM_JeanMarie_Musy = {
			picture = Generic_Portrait
			allowed = { tag = SWI }
			available = {
				date > 1920.1.1
				date < 1933.1.1
				ML_Minister_Allowed = yes
				NOT = { has_country_flag = JeanMarie_Musy_unavailable }
			}
			cost = 150
			removal_cost = 10
			traits = { ideology_D AM_Resource_Industrialist }
		}
	# Albert Meyer
		SWI_AM_Albert_Meyer = {
			picture = Generic_Portrait
			allowed = { tag = SWI }
			available = {
				date > 1933.1.1
				date < 1964.1.1
				ML_Minister_Allowed = yes
				NOT = { has_country_flag = Albert_Meyer_unavailable }
			}
			cost = 150
			removal_cost = 10
			traits = { ideology_D AM_Laissez-faire_Capitalist }
		}
	# Ernst Wetter
		SWI_AM_Ernst_Wetter = {
			picture = Generic_Portrait
			allowed = { tag = SWI }
			available = {
				date > 1939.1.1
				date < 1964.1.1
				ML_Minister_Allowed = yes
				NOT = { has_country_flag = Ernst_Wetter_unavailable }
			}
			cost = 150
			removal_cost = 10
			traits = { ideology_D AM_Resource_Industrialist }
		}
	# Friedrich Traugott-Wahlen
		SWI_AM_Friedrich_TraugottWahlen = {
			picture = Generic_Portrait
			allowed = { tag = SWI }
			available = {
				date > 1940.1.1
				date < 1964.1.1
				ML_Minister_Allowed = yes
				NOT = { has_country_flag = Friedrich_TraugottWahlen_unavailable }
			}
			cost = 150
			removal_cost = 10
			traits = { ideology_D AM_Resource_Industrialist }
		}
	# John Gignoux
		SWI_AM_John_Gignoux = {
			picture = Generic_Portrait
			allowed = { tag = SWI }
			available = {
				date > 1942.1.1
				date < 1964.1.1
				ML_Minister_Allowed = yes
				NOT = { has_country_flag = John_Gignoux_unavailable }
			}
			cost = 150
			removal_cost = 10
			traits = { ideology_D AM_Resource_Industrialist }
		}
	# Rudolf Minger
		SWI_AM_Rudolf_Minger = {
			picture = Generic_Portrait
			allowed = { tag = SWI }
			available = {
				date > 1944.1.1
				date < 1964.1.1
				ML_Minister_Allowed = yes
				NOT = { has_country_flag = Rudolf_Minger_unavailable }
			}
			cost = 150
			removal_cost = 10
			traits = { ideology_D AM_Administrative_Genius }
		}
	# Karl Kobelt
		SWI_AM_Karl_Kobelt = {
			picture = Generic_Portrait
			allowed = { tag = SWI }
			available = {
				date > 1944.1.1
				date < 1964.1.1
				ML_Minister_Allowed = yes
				NOT = { has_country_flag = Karl_Kobelt_unavailable }
			}
			cost = 150
			removal_cost = 10
			traits = { ideology_D AM_Infantry_Proponent }
		}
	# Albert Einstein
		SWI_AM_Albert_Einstein = {
			picture = Generic_Portrait
			allowed = { tag = SWI }
			available = {
				date > 1933.1.1
				date < 1964.1.1
				SL_Minister_Allowed = yes
				NOT = { has_country_flag = Albert_Einstein_unavailable }
			}
			cost = 150
			removal_cost = 10
			traits = { ideology_D AM_Theoretical_Scientist }
		}
	# Heinrich Handschein
		SWI_AM_Heinrich_Handschein = {
			picture = Generic_Portrait
			allowed = { tag = SWI }
			available = {
				date > 1937.1.1
				date < 1964.1.1
				SL_Minister_Allowed = yes
				NOT = { has_country_flag = Heinrich_Handschein_unavailable }
			}
			cost = 150
			removal_cost = 10
			traits = { ideology_D AM_Laissez-faire_Capitalist }
		}
	# Jakob Mosimann
		SWI_AM_Jakob_Mosimann = {
			picture = Generic_Portrait
			allowed = { tag = SWI }
			available = {
				date > 1937.1.1
				date < 1964.1.1
				SL_Minister_Allowed = yes
				NOT = { has_country_flag = Jakob_Mosimann_unavailable }
			}
			cost = 150
			removal_cost = 10
			traits = { ideology_D AM_Military_Entrepreneur }
		}
	# Jakob I. Huber
		SWI_AM_Jakob_I_Huber = {
			picture = Generic_Portrait
			allowed = { tag = SWI }
			available = {
				date > 1938.1.1
				date < 1964.1.1
				SL_Minister_Allowed = yes
				NOT = { has_country_flag = Jakob_I_Huber_unavailable }
			}
			cost = 150
			removal_cost = 10
			traits = { ideology_D AM_Infantry_Proponent }
		}
	# Ernst Weber
		SWI_AM_Ernst_Weber = {
			picture = Generic_Portrait
			allowed = { tag = SWI }
			available = {
				date > 1941.1.1
				date < 1964.1.1
				SL_Minister_Allowed = yes
				NOT = { has_country_flag = Ernst_Weber_unavailable }
			}
			cost = 150
			removal_cost = 10
			traits = { ideology_D AM_Administrative_Genius }
		}
	# Leonardo Castelli
		SWI_AM_Leonardo_Castelli = {
			picture = Generic_Portrait
			allowed = { tag = SWI }
			available = {
				date > 1942.1.1
				date < 1964.1.1
				SL_Minister_Allowed = yes
				NOT = { has_country_flag = Leonardo_Castelli_unavailable }
			}
			cost = 150
			removal_cost = 10
			traits = { ideology_D AM_Tank_Proponent }
		}
	# Otto Gass
		SWI_AM_Otto_Gass = {
			picture = Generic_Portrait
			allowed = { tag = SWI }
			available = {
				date > 1938.1.1
				date < 1964.1.1
				SD_Minister_Allowed = yes
				NOT = { has_country_flag = Otto_Gass_unavailable }
			}
			cost = 150
			removal_cost = 10
			traits = { ideology_D AM_Air_To_Ground_Proponent }
		}
	# Werner Jenni
		SWI_AM_Werner_Jenni = {
			picture = Generic_Portrait
			allowed = { tag = SWI }
			available = {
				date > 1940.1.1
				date < 1964.1.1
				SD_Minister_Allowed = yes
				NOT = { has_country_flag = Werner_Jenni_unavailable }
			}
			cost = 150
			removal_cost = 10
			traits = { ideology_D AM_Tank_Proponent }
		}
	# Ernst Nobs
		SWI_AM_Ernst_Nobs = {
			picture = Generic_Portrait
			allowed = { tag = SWI }
			available = {
				date > 1944.1.1
				date < 1964.1.1
				SD_Minister_Allowed = yes
				NOT = { has_country_flag = Ernst_Nobs_unavailable }
			}
			cost = 150
			removal_cost = 10
			traits = { ideology_D AM_Resource_Industrialist }
		}
	# Leo Schweizer
		SWI_AM_Leo_Schweizer = {
			picture = Generic_Portrait
			allowed = { tag = SWI }
			available = {
				date > 1944.1.1
				date < 1964.1.1
				SD_Minister_Allowed = yes
				NOT = { has_country_flag = Leo_Schweizer_unavailable }
			}
			cost = 150
			removal_cost = 10
			traits = { ideology_D AM_Administrative_Genius }
		}
	# Emil Frey
		SWI_AM_Emil_Frey = {
			picture = Generic_Portrait
			allowed = { tag = SWI }
			available = {
				date > 1933.1.1
				date < 1964.1.1
				LWR_Minister_Allowed = yes
				NOT = { has_country_flag = Emil_Frey_unavailable }
			}
			cost = 150
			removal_cost = 10
			traits = { ideology_S AM_Infantry_Proponent }
		}
	# Jakob Herzog
		SWI_AM_Jakob_Herzog = {
			picture = Generic_Portrait
			allowed = { tag = SWI }
			available = {
				date > 1918.1.1
				date < 1933.1.1
				ST_Minister_Allowed = yes
				NOT = { has_country_flag = Jakob_Herzog_unavailable }
			}
			cost = 150
			removal_cost = 10
			traits = { ideology_C AM_Resource_Industrialist }
		}
}
#################################################
### Head of Intelligence
#################################################
	Head_of_Intelligence = {
	# Ulrich Wille
		SWI_HoI_Ulrich_Wille = {
			picture = Generic_Portrait
			allowed = { tag = SWI }
			available = {
				date > 1914.1.1
				date < 1933.1.1
				PA_Minister_Allowed = yes
				NOT = { has_country_flag = Ulrich_Wille_unavailable }
			}
			cost = 150
			removal_cost = 10
			traits = { ideology_A HoI_Logistics_Specialist }
		}
	# Alfred Sarasin
		SWI_HoI_Alfred_Sarasin = {
			picture = Generic_Portrait
			allowed = { tag = SWI }
			available = {
				date > 1933.1.1
				date < 1964.1.1
				PA_Minister_Allowed = yes
				NOT = { has_country_flag = Alfred_Sarasin_unavailable }
			}
			cost = 150
			removal_cost = 10
			traits = { ideology_A HoI_Dismal_Enigma }
		}
	# Camille Decoppet
		SWI_HoI_Camille_Decoppet = {
			picture = Generic_Portrait
			allowed = { tag = SWI }
			available = {
				date > 1914.1.1
				date < 1919.1.1
				ML_Minister_Allowed = yes
				NOT = { has_country_flag = Camille_Decoppet_unavailable }
			}
			cost = 150
			removal_cost = 10
			traits = { ideology_D HoI_Industrial_Specialist }
		}
	# William Rappard
		SWI_HoI_William_Rappard = {
			picture = Generic_Portrait
			allowed = { tag = SWI }
			available = {
				date > 1938.1.1
				date < 1964.1.1
				ML_Minister_Allowed = yes
				NOT = { has_country_flag = William_Rappard_unavailable }
			}
			cost = 150
			removal_cost = 10
			traits = { ideology_D HoI_Industrial_Specialist }
		}
	# Roger Masson
		SWI_HoI_Roger_Masson = {
			picture = Generic_Portrait
			allowed = { tag = SWI }
			available = {
				date > 1933.1.1
				date < 1964.1.1
				SL_Minister_Allowed = yes
				NOT = { has_country_flag = Roger_Masson_unavailable }
			}
			cost = 150
			removal_cost = 10
			traits = { ideology_D HoI_Industrial_Specialist }
		}
	# Albert Einstein
		SWI_HoI_Albert_Einstein = {
			picture = Generic_Portrait
			allowed = { tag = SWI }
			available = {
				date > 1937.1.1
				date < 1964.1.1
				SL_Minister_Allowed = yes
				NOT = { has_country_flag = Albert_Einstein_unavailable }
			}
			cost = 150
			removal_cost = 10
			traits = { ideology_D HoI_Technical_Specialist }
		}
	# Gilles Le Pierre
		SWI_HoI_Gilles_Le_Pierre = {
			picture = Generic_Portrait
			allowed = { tag = SWI }
			available = {
				date > 1939.1.1
				date < 1964.1.1
				SL_Minister_Allowed = yes
				NOT = { has_country_flag = Gilles_Le_Pierre_unavailable }
			}
			cost = 150
			removal_cost = 10
			traits = { ideology_D HoI_Logistics_Specialist }
		}
	# Max Waibel
		SWI_HoI_Max_Waibel = {
			picture = Generic_Portrait
			allowed = { tag = SWI }
			available = {
				date > 1943.1.1
				date < 1964.1.1
				SL_Minister_Allowed = yes
				NOT = { has_country_flag = Max_Waibel_unavailable }
			}
			cost = 150
			removal_cost = 10
			traits = { ideology_D HoI_Dismal_Enigma }
		}
	# Hans Konrad Sonderegger
		SWI_HoI_Hans_Konrad_Sonderegger = {
			picture = Generic_Portrait
			allowed = { tag = SWI }
			available = {
				date > 1940.1.1
				date < 1964.1.1
				SD_Minister_Allowed = yes
				NOT = { has_country_flag = Hans_Konrad_Sonderegger_unavailable }
			}
			cost = 150
			removal_cost = 10
			traits = { ideology_D HoI_Industrial_Specialist }
		}
	# Theo Maier
		SWI_HoI_Theo_Maier = {
			picture = Generic_Portrait
			allowed = { tag = SWI }
			available = {
				date > 1933.1.1
				date < 1964.1.1
				LWR_Minister_Allowed = yes
				NOT = { has_country_flag = Theo_Maier_unavailable }
			}
			cost = 150
			removal_cost = 10
			traits = { ideology_S HoI_Technical_Specialist }
		}
	# Leonie Kascher
		SWI_HoI_Leonie_Kascher = {
			picture = Generic_Portrait
			allowed = { tag = SWI }
			available = {
				date > 1918.1.1
				date < 1933.1.1
				ST_Minister_Allowed = yes
				NOT = { has_country_flag = Leonie_Kascher_unavailable }
			}
			cost = 150
			removal_cost = 10
			traits = { ideology_C HoI_Political_Specialist }
		}
}
#################################################
### Chief of Staff
#################################################
	Chief_of_Staff = {
	# Eugen Bircher
		SWI_CoStaff_Eugen_Bircher = {
			picture = Generic_Portrait
			allowed = { tag = SWI }
			available = {
				date > 1933.1.1
				date < 1964.1.1
				FA_Minister_Allowed = yes
				NOT = { has_country_flag = Eugen_Bircher_unavailable }
			}
			cost = 150
			removal_cost = 10
			traits = { ideology_F CoStaff_School_Of_Psychology }
		}
	# Alfred Audéoud
		SWI_CoStaff_Alfred_Audeoud = {
			picture = Generic_Portrait
			allowed = { tag = SWI }
			available = {
				date > 1914.1.1
				date < 1933.1.1
				PA_Minister_Allowed = yes
				NOT = { has_country_flag = Alfred_Audeoud_unavailable }
			}
			cost = 150
			removal_cost = 10
			traits = { ideology_A CoStaff_School_Of_Defence }
		}
	# Alfred Audéoud
		SWI_CoStaff_Alfred_Audeoud_2 = {
			picture = Generic_Portrait
			allowed = { tag = SWI }
			available = {
				date > 1914.1.1
				date < 1933.1.1
				ML_Minister_Allowed = yes
				NOT = { has_country_flag = Alfred_Audeoud_unavailable }
			}
			cost = 150
			removal_cost = 10
			traits = { ideology_D CoStaff_School_Of_Defence }
		}
	# Ulrich Wille
		SWI_CoStaff_Ulrich_Wille = {
			picture = Generic_Portrait
			allowed = { tag = SWI }
			available = {
				date > 1914.1.1
				date < 1933.1.1
				ML_Minister_Allowed = yes
				NOT = { has_country_flag = Ulrich_Wille_unavailable }
			}
			cost = 150
			removal_cost = 10
			traits = { ideology_D CoStaff_School_Of_Mass_Combat }
		}
	# Louis-Henri Bornand
		SWI_CoStaff_LouisHenri_Bornand = {
			picture = Generic_Portrait
			allowed = { tag = SWI }
			available = {
				date > 1917.1.1
				date < 1933.1.1
				ML_Minister_Allowed = yes
				NOT = { has_country_flag = LouisHenri_Bornand_unavailable }
			}
			cost = 150
			removal_cost = 10
			traits = { ideology_D CoStaff_School_Of_Fire_Support }
		}
	# Hans Max Huber
		SWI_CoStaff_Hans_Max_Huber = {
			picture = Generic_Portrait
			allowed = { tag = SWI }
			available = {
				date > 1937.1.1
				date < 1964.1.1
				ML_Minister_Allowed = yes
				NOT = { has_country_flag = Hans_Max_Huber_unavailable }
			}
			cost = 150
			removal_cost = 10
			traits = { ideology_D CoStaff_School_Of_Psychology }
		}
	# Theophil Sprecher von Bernegg
		SWI_CoStaff_Theophil_Sprecher_von_Bernegg = {
			picture = Generic_Portrait
			allowed = { tag = SWI }
			available = {
				date > 1914.1.1
				date < 1919.1.1
				SL_Minister_Allowed = yes
				NOT = { has_country_flag = Theophil_Sprecher_von_Bernegg_unavailable }
			}
			cost = 150
			removal_cost = 10
			traits = { ideology_D CoStaff_School_Of_Defence }
		}
	# Jakob I. Huber
		SWI_CoStaff_Jakob_I_Huber = {
			picture = Generic_Portrait
			allowed = { tag = SWI }
			available = {
				date > 1933.1.1
				date < 1964.1.1
				SL_Minister_Allowed = yes
				NOT = { has_country_flag = Jakob_I_Huber_unavailable }
			}
			cost = 150
			removal_cost = 10
			traits = { ideology_D CoStaff_School_Of_Fire_Support }
		}
	# Henri Guisan
		SWI_CoStaff_Henri_Guisan = {
			picture = Generic_Portrait
			allowed = { tag = SWI }
			available = {
				date > 1938.1.1
				date < 1964.1.1
				SL_Minister_Allowed = yes
				NOT = { has_country_flag = Henri_Guisan_unavailable }
			}
			cost = 150
			removal_cost = 10
			traits = { ideology_D CoStaff_School_Of_Mass_Combat }
		}
	# Paul Gürtler
		SWI_CoStaff_Paul_Gurtler = {
			picture = Generic_Portrait
			allowed = { tag = SWI }
			available = {
				date > 1942.1.1
				date < 1964.1.1
				SD_Minister_Allowed = yes
				NOT = { has_country_flag = Paul_Gurtler_unavailable }
			}
			cost = 150
			removal_cost = 10
			traits = { ideology_D CoStaff_School_Of_Psychology }
		}
	# Traugott Meyer
		SWI_CoStaff_Traugott_Meyer = {
			picture = Generic_Portrait
			allowed = { tag = SWI }
			available = {
				date > 1933.1.1
				date < 1964.1.1
				LWR_Minister_Allowed = yes
				NOT = { has_country_flag = Traugott_Meyer_unavailable }
			}
			cost = 150
			removal_cost = 10
			traits = { ideology_S CoStaff_School_Of_Fire_Support }
		}
}
#################################################
### Chief of Army
#################################################
	Chief_of_Army = {
	# Eugen Bircher
		SWI_CoArmy_Eugen_Bircher = {
			picture = Generic_Portrait
			allowed = { tag = SWI }
			available = {
				date > 1933.1.1
				date < 1964.1.1
				FA_Minister_Allowed = yes
				NOT = { has_country_flag = Eugen_Bircher_unavailable }
			}
			cost = 150
			removal_cost = 10
			traits = { ideology_F CoArmy_Guns_And_Butter_Doctrine }
		}
	# Alfred Audéoud
		SWI_CoArmy_Alfred_Audeoud_2 = {
			picture = Generic_Portrait
			allowed = { tag = SWI }
			available = {
				date > 1914.1.1
				date < 1933.1.1
				PA_Minister_Allowed = yes
				NOT = { has_country_flag = Alfred_Audeoud_unavailable }
			}
			cost = 150
			removal_cost = 10
			traits = { ideology_A CoArmy_Static_Defence_Doctrine }
		}
	# Alfred Audéoud
		SWI_CoArmy_Alfred_Audeoud = {
			picture = Generic_Portrait
			allowed = { tag = SWI }
			available = {
				date > 1914.1.1
				date < 1933.1.1
				ML_Minister_Allowed = yes
				NOT = { has_country_flag = Alfred_Audeoud_unavailable }
			}
			cost = 150
			removal_cost = 10
			traits = { ideology_D CoArmy_Static_Defence_Doctrine }
		}
	# Ulrich Wille
		SWI_CoArmy_Ulrich_Wille = {
			picture = Generic_Portrait
			allowed = { tag = SWI }
			available = {
				date > 1914.1.1
				date < 1933.1.1
				ML_Minister_Allowed = yes
				NOT = { has_country_flag = Ulrich_Wille_unavailable }
			}
			cost = 150
			removal_cost = 10
			traits = { ideology_D CoArmy_Elastic_Defence_Doctrine }
		}
	# Louis-Henri Bornand
		SWI_CoArmy_LouisHenri_Bornand = {
			picture = Generic_Portrait
			allowed = { tag = SWI }
			available = {
				date > 1917.1.1
				date < 1933.1.1
				ML_Minister_Allowed = yes
				NOT = { has_country_flag = LouisHenri_Bornand_unavailable }
			}
			cost = 150
			removal_cost = 10
			traits = { ideology_D CoArmy_Guns_And_Butter_Doctrine }
		}
	# Johann August Sutter
		SWI_CoArmy_Johann_August_Sutter = {
			picture = Generic_Portrait
			allowed = { tag = SWI }
			available = {
				date > 1933.1.1
				date < 1964.1.1
				ML_Minister_Allowed = yes
				NOT = { has_country_flag = Johann_August_Sutter_unavailable }
			}
			cost = 150
			removal_cost = 10
			traits = { ideology_D CoArmy_Static_Defence_Doctrine }
		}
	# Ernst Laur
		SWI_CoArmy_Ernst_Laur = {
			picture = Generic_Portrait
			allowed = { tag = SWI }
			available = {
				date > 1933.1.1
				date < 1964.1.1
				ML_Minister_Allowed = yes
				NOT = { has_country_flag = Ernst_Laur_unavailable }
			}
			cost = 150
			removal_cost = 10
			traits = { ideology_D CoArmy_Guns_And_Butter_Doctrine }
		}
	# Henri Guisan
		SWI_CoArmy_Henri_Guisan = {
			picture = Generic_Portrait
			allowed = { tag = SWI }
			available = {
				date > 1938.1.1
				date < 1964.1.1
				SL_Minister_Allowed = yes
				NOT = { has_country_flag = Henri_Guisan_unavailable }
			}
			cost = 150
			removal_cost = 10
			traits = { ideology_D CoArmy_Elastic_Defence_Doctrine }
		}
	# Paul Rossy
		SWI_CoArmy_Paul_Rossy = {
			picture = Generic_Portrait
			allowed = { tag = SWI }
			available = {
				date > 1941.1.1
				date < 1964.1.1
				SD_Minister_Allowed = yes
				NOT = { has_country_flag = Paul_Rossy_unavailable }
			}
			cost = 150
			removal_cost = 10
			traits = { ideology_D CoArmy_Guns_And_Butter_Doctrine }
		}
	# Emil Frey
		SWI_CoArmy_Emil_Frey = {
			picture = Generic_Portrait
			allowed = { tag = SWI }
			available = {
				date > 1933.1.1
				date < 1964.1.1
				LWR_Minister_Allowed = yes
				NOT = { has_country_flag = Emil_Frey_unavailable }
			}
			cost = 150
			removal_cost = 10
			traits = { ideology_S CoArmy_Armoured_Spearhead_Doctrine }
		}
}
#################################################
### Chief of Navy
#################################################
	Chief_of_Navy = {
	# Hans Oehler
		SWI_CoNavy_Hans_Oehler = {
			picture = Generic_Portrait
			allowed = { tag = SWI }
			available = {
				date > 1933.1.1
				date < 1964.1.1
				FA_Minister_Allowed = yes
				NOT = { has_country_flag = Hans_Oehler_unavailable }
			}
			cost = 150
			removal_cost = 10
			traits = { ideology_F CoNavy_Decisive_Naval_Battle_Doctrine }
		}
	# Ulrich Wille
		SWI_CoNavy_Ulrich_Wille = {
			picture = Generic_Portrait
			allowed = { tag = SWI }
			available = {
				date > 1914.1.1
				date < 1933.1.1
				ML_Minister_Allowed = yes
				NOT = { has_country_flag = Ulrich_Wille_unavailable }
			}
			cost = 150
			removal_cost = 10
			traits = { ideology_D CoNavy_Base_Control_Doctrine }
		}
	# Rene von Graffenried
		SWI_CoNavy_Rene_von_Graffenried = {
			picture = Generic_Portrait
			allowed = { tag = SWI }
			available = {
				date > 1933.1.1
				date < 1964.1.1
				ML_Minister_Allowed = yes
				NOT = { has_country_flag = Rene_von_Graffenried_unavailable }
			}
			cost = 150
			removal_cost = 10
			traits = { ideology_D CoNavy_Base_Control_Doctrine }
		}
	# Hans Peter Bichsel-Sohn
		SWI_CoNavy_Hans_Peter_BichselSohn = {
			picture = Generic_Portrait
			allowed = { tag = SWI }
			available = {
				date > 1938.1.1
				date < 1964.1.1
				SL_Minister_Allowed = yes
				NOT = { has_country_flag = Hans_Peter_BichselSohn_unavailable }
			}
			cost = 150
			removal_cost = 10
			traits = { ideology_D CoNavy_Open_Seas_Doctrine }
		}
	# Hermann Hessel-Lorenz
		SWI_CoNavy_Hermann_HesselLorenz = {
			picture = Generic_Portrait
			allowed = { tag = SWI }
			available = {
				date > 1933.1.1
				date < 1964.1.1
				LWR_Minister_Allowed = yes
				NOT = { has_country_flag = Hermann_HesselLorenz_unavailable }
			}
			cost = 150
			removal_cost = 10
			traits = { ideology_S CoNavy_Indirect_Approach_Doctrine }
		}
}
#################################################
### Chief of Airforce
#################################################
	Chief_of_Airforce = {
	# Alfred Sarasin
		SWI_CoAir_Alfred_Sarasin = {
			picture = Generic_Portrait
			allowed = { tag = SWI }
			available = {
				date > 1933.1.1
				date < 1964.1.1
				FA_Minister_Allowed = yes
				NOT = { has_country_flag = Alfred_Sarasin_unavailable }
			}
			cost = 150
			removal_cost = 10
			traits = { ideology_F CoAir_Naval_Aviation_Doctrine }
		}
	# Theodor Real
		SWI_CoAir_Theodor_Real = {
			picture = Generic_Portrait
			allowed = { tag = SWI }
			available = {
				date > 1914.1.1
				date < 1933.1.1
				ML_Minister_Allowed = yes
				NOT = { has_country_flag = Theodor_Real_unavailable }
			}
			cost = 150
			removal_cost = 10
			traits = { ideology_D CoAir_Army_Aviation_Doctrine }
		}
	# Marc Schleppy
		SWI_CoAir_Marc_Schleppy = {
			picture = Generic_Portrait
			allowed = { tag = SWI }
			available = {
				date > 1916.1.1
				date < 1933.1.1
				ML_Minister_Allowed = yes
				NOT = { has_country_flag = Marc_Schleppy_unavailable }
			}
			cost = 150
			removal_cost = 10
			traits = { ideology_D CoAir_Air_Superiority_Doctrine }
		}
	# Walter Scherrer
		SWI_CoAir_Walter_Scherrer = {
			picture = Generic_Portrait
			allowed = { tag = SWI }
			available = {
				date > 1917.1.1
				date < 1933.1.1
				ML_Minister_Allowed = yes
				NOT = { has_country_flag = Walter_Scherrer_unavailable }
			}
			cost = 150
			removal_cost = 10
			traits = { ideology_D CoAir_Air_Superiority_Doctrine }
		}
	# Arnold Isler
		SWI_CoAir_Arnold_Isler = {
			picture = Generic_Portrait
			allowed = { tag = SWI }
			available = {
				date > 1918.1.1
				date < 1933.1.1
				ML_Minister_Allowed = yes
				NOT = { has_country_flag = Arnold_Isler_unavailable }
			}
			cost = 150
			removal_cost = 10
			traits = { ideology_D CoAir_Army_Aviation_Doctrine }
		}
	# Albert Müller
		SWI_CoAir_Albert_Muller = {
			picture = Generic_Portrait
			allowed = { tag = SWI }
			available = {
				date > 1920.1.1
				date < 1933.1.1
				ML_Minister_Allowed = yes
				NOT = { has_country_flag = Albert_Muller_unavailable }
			}
			cost = 150
			removal_cost = 10
			traits = { ideology_D CoAir_Carpet_Bombing_Doctrine }
		}
	# Oskar Bider
		SWI_CoAir_Oskar_Bider = {
			picture = Generic_Portrait
			allowed = { tag = SWI }
			available = {
				date > 1933.1.1
				date < 1964.1.1
				ML_Minister_Allowed = yes
				NOT = { has_country_flag = Oskar_Bider_unavailable }
			}
			cost = 150
			removal_cost = 10
			traits = { ideology_D CoAir_Air_Superiority_Doctrine }
		}
	# Carl Burckhardt de Reynold
		SWI_CoAir_Carl_Burckhardt_de_Reynold = {
			picture = Generic_Portrait
			allowed = { tag = SWI }
			available = {
				date > 1941.1.1
				date < 1964.1.1
				ML_Minister_Allowed = yes
				NOT = { has_country_flag = Carl_Burckhardt_de_Reynold_unavailable }
			}
			cost = 150
			removal_cost = 10
			traits = { ideology_D CoAir_Vertical_Envelopment_Doctrine }
		}
	# Fritz Rihner
		SWI_CoAir_Fritz_Rihner = {
			picture = Generic_Portrait
			allowed = { tag = SWI }
			available = {
				date > 1938.1.1
				date < 1964.1.1
				SL_Minister_Allowed = yes
				NOT = { has_country_flag = Fritz_Rihner_unavailable }
			}
			cost = 150
			removal_cost = 10
			traits = { ideology_D CoAir_Army_Aviation_Doctrine }
		}
	# Etienne Primault
		SWI_CoAir_Etienne_Primault = {
			picture = Generic_Portrait
			allowed = { tag = SWI }
			available = {
				date > 1944.1.1
				date < 1964.1.1
				SL_Minister_Allowed = yes
				NOT = { has_country_flag = Etienne_Primault_unavailable }
			}
			cost = 150
			removal_cost = 10
			traits = { ideology_D CoAir_Air_Superiority_Doctrine }
		}
	# J.D. de Montenach
		SWI_CoAir_JD_de_Montenach = {
			picture = Generic_Portrait
			allowed = { tag = SWI }
			available = {
				date > 1937.1.1
				date < 1964.1.1
				SD_Minister_Allowed = yes
				NOT = { has_country_flag = JD_de_Montenach_unavailable }
			}
			cost = 150
			removal_cost = 10
			traits = { ideology_D CoAir_Vertical_Envelopment_Doctrine }
		}
	# Josef Wiktor Widmann
		SWI_CoAir_Josef_Wiktor_Widmann = {
			picture = Generic_Portrait
			allowed = { tag = SWI }
			available = {
				date > 1933.1.1
				date < 1964.1.1
				LWR_Minister_Allowed = yes
				NOT = { has_country_flag = Josef_Wiktor_Widmann_unavailable }
			}
			cost = 150
			removal_cost = 10
			traits = { ideology_S CoAir_Naval_Aviation_Doctrine }
		}
	}
}
