ideas = {
#################################################
### Head of State
#################################################
	Head_of_Government = {
	# G.H.H Villiers
		SAF_HoS_GHH_Villiers = {
			picture = Generic_Portrait
			allowed = { tag = SAF }
			available = {
				date > 1931.1.1
				date < 1955.1.1
				SC_Minister_Allowed = yes
				NOT = { has_country_flag = GHH_Villiers_unavailable }
			}
			cost = 150
			removal_cost = 10
			traits = { ideology_D POSITION_Governor_General HoS_Stern_Imperialist }
		}
	# Sir Patrick Duncan
		SAF_HoS_Sir_Patrick_Duncan = {
			picture = Generic_Portrait
			allowed = { tag = SAF }
			available = {
				date > 1937.1.1
				date < 1943.7.17
				SC_Minister_Allowed = yes
				NOT = { has_country_flag = Sir_Patrick_Duncan_unavailable }
			}
			cost = 150
			removal_cost = 10
			traits = { ideology_D POSITION_Governor_General HoS_Autocratic_Charmer }
		}
	#################################################
	### Head of Government
	#################################################	
	# Christiaan De Wet
		SAF_HoG_Christiaan_De_Wet = {
			picture = Generic_Portrait
			allowed = { tag = SAF }
			available = {
				date > 1914.1.1
				date < 1933.1.1
				FA_Minister_Allowed = yes
				NOT = { has_country_flag = Christiaan_De_Wet_unavailable }
			}
			cost = 150
			removal_cost = 10
			traits = { ideology_F HoG_Flamboyant_Tough_Guy }
		}
	# J. F. van Rensburg
		SAF_HoG_J_F_van_Rensburg = {
			picture = Generic_Portrait
			allowed = { tag = SAF }
			available = {
				date > 1933.1.1
				date < 1964.1.1
				FA_Minister_Allowed = yes
				NOT = { has_country_flag = J_F_van_Rensburg_unavailable }
			}
			cost = 150
			removal_cost = 10
			traits = { ideology_F HoG_Old_General }
		}
	# B. J. Vorster
		SAF_HoG_B_J_Vorster = {
			picture = Generic_Portrait
			allowed = { tag = SAF }
			available = {
				date > 1966.1.1
				date < 1984.1.1
				FA_Minister_Allowed = yes
				NOT = { has_country_flag = B_J_Vorster_unavailable }
			}
			cost = 150
			removal_cost = 10
			traits = { ideology_F HoG_Backroom_Backstabber }
		}

	# James Hertzog
		SAF_HoG_James_Hertzog_2 = {
			picture = Generic_Portrait
			allowed = { tag = SAF }
			available = {
				date > 1914.1.1
				date < 1933.1.1
				SC_Minister_Allowed = yes
				NOT = { has_country_flag = James_Hertzog_unavailable }
			}
			cost = 150
			removal_cost = 10
			traits = { ideology_D HoG_Political_Protege }
		}
	# D. F. Malan
		SAF_HoG_D_F_Malan = {
			picture = Generic_Portrait
			allowed = { tag = SAF }
			available = {
				date > 1933.1.1
				date < 1964.1.1
				SC_Minister_Allowed = yes
				NOT = { has_country_flag = D_F_Malan_unavailable }
			}
			cost = 150
			removal_cost = 10
			traits = { ideology_D HoG_Flamboyant_Tough_Guy }
		}
	# J. G. Strijdom
		SAF_HoG_J_G_Strijdom = {
			picture = Generic_Portrait
			allowed = { tag = SAF }
			available = {
				date > 1954.1.1
				date < 1964.1.1
				SC_Minister_Allowed = yes
				NOT = { has_country_flag = J_G_Strijdom_unavailable }
			}
			cost = 150
			removal_cost = 10
			traits = { ideology_D HoG_Backroom_Backstabber }
		}
	# Hendrik F. Verwoerd
		SAF_HoG_Hendrik_F_Verwoerd = {
			picture = Generic_Portrait
			allowed = { tag = SAF }
			available = {
				date > 1958.1.1
				date < 1964.1.1
				SC_Minister_Allowed = yes
				NOT = { has_country_flag = Hendrik_F_Verwoerd_unavailable }
			}
			cost = 150
			removal_cost = 10
			traits = { ideology_D HoG_Ambitious_Union_Boss }
		}
	# Colin Eglin
		SAF_HoG_Colin_Eglin = {
			picture = Generic_Portrait
			allowed = { tag = SAF }
			available = {
				date > 1977.1.1
				date < 2014.1.1
				SC_Minister_Allowed = yes
				NOT = { has_country_flag = Colin_Eglin_unavailable }
			}
			cost = 150
			removal_cost = 10
			traits = { ideology_D HoG_Ambitious_Union_Boss }
		}
	# P.W. Botha
		SAF_HoG_PW_Botha = {
			picture = Generic_Portrait
			allowed = { tag = SAF }
			available = {
				date > 1978.1.1
				date < 2007.1.1
				SC_Minister_Allowed = yes
				NOT = { has_country_flag = PW_Botha_unavailable }
			}
			cost = 150
			removal_cost = 10
			traits = { ideology_D HoG_Old_General }
		}
	# Frederik van Zyl Slabbert
		SAF_HoG_Frederik_van_Zyl_Slabbert = {
			picture = Generic_Portrait
			allowed = { tag = SAF }
			available = {
				date > 1981.1.1
				date < 2011.1.1
				SC_Minister_Allowed = yes
				NOT = { has_country_flag = Frederik_van_Zyl_Slabbert_unavailable }
			}
			cost = 150
			removal_cost = 10
			traits = { ideology_D HoG_Flamboyant_Tough_Guy }
		}
	# Louis Botha
		SAF_HoG_Louis_Botha = {
			picture = Generic_Portrait
			allowed = { tag = SAF }
			available = {
				date > 1910.1.1
				date < 1933.1.1
				ML_Minister_Allowed = yes
				NOT = { has_country_flag = Louis_Botha_unavailable }
			}
			cost = 150
			removal_cost = 10
			traits = { ideology_D HoG_Flamboyant_Tough_Guy }
		}
	# James Hertzog
		SAF_HoG_James_Hertzog = {
			picture = Generic_Portrait
			allowed = { tag = SAF }
			available = {
				date > 1933.1.1
				date < 1964.1.1
				ML_Minister_Allowed = yes
				NOT = { has_country_flag = James_Hertzog_unavailable }
			}
			cost = 150
			removal_cost = 10
			traits = { ideology_D HoG_Old_General }
		}
	# Jan C. Smuts
		SAF_HoG_Jan_C_Smuts = {
			picture = Generic_Portrait
			allowed = { tag = SAF }
			available = {
				date > 1938.1.1
				date < 1964.1.1
				ML_Minister_Allowed = yes
				NOT = { has_country_flag = Jan_C_Smuts_unavailable }
			}
			cost = 150
			removal_cost = 10
			traits = { ideology_D HoG_Backroom_Backstabber }
		}
	# Jacobus G. N. Strauss
		SAF_HoG_Jacobus_G_N_Strauss = {
			picture = Generic_Portrait
			allowed = { tag = SAF }
			available = {
				date > 1953.1.1
				date < 1991.1.1
				ML_Minister_Allowed = yes
				NOT = { has_country_flag = Jacobus_G_N_Strauss_unavailable }
			}
			cost = 150
			removal_cost = 10
			traits = { ideology_D HoG_Silent_Workhorse }
		}
	# Zach de Beer
		SAF_HoG_Zach_de_Beer = {
			picture = Generic_Portrait
			allowed = { tag = SAF }
			available = {
				date > 1989.1.1
				date < 2000.1.1
				ML_Minister_Allowed = yes
				NOT = { has_country_flag = Zach_de_Beer_unavailable }
			}
			cost = 150
			removal_cost = 10
			traits = { ideology_D HoG_Happy_Amateur }
		}
	# Leander Jameson
		SAF_HoG_Leander_Jameson = {
			picture = Generic_Portrait
			allowed = { tag = SAF }
			available = {
				date > 1914.1.1
				date < 1933.1.1
				SL_Minister_Allowed = yes
				NOT = { has_country_flag = Leander_Jameson_unavailable }
			}
			cost = 150
			removal_cost = 10
			traits = { ideology_D HoG_Political_Protege }
		}
	# Baron de Villiers Graaf
		SAF_HoG_Baron_de_Villiers_Graaf = {
			picture = Generic_Portrait
			allowed = { tag = SAF }
			available = {
				date > 1950.1.1
				date < 1964.1.1
				SL_Minister_Allowed = yes
				NOT = { has_country_flag = Baron_de_Villiers_Graaf_unavailable }
			}
			cost = 150
			removal_cost = 10
			traits = { ideology_D HoG_Happy_Amateur }
		}
}
#################################################
### Foreign Minister
#################################################
	Foreign_Minister = {
	# Gert Cronje
		SAF_FM_Gert_Cronje = {
			picture = Generic_Portrait
			allowed = { tag = SAF }
			available = {
				date > 1933.1.1
				date < 1964.1.1
				PA_Minister_Allowed = yes
				NOT = { has_country_flag = Gert_Cronje_unavailable }
			}
			cost = 150
			removal_cost = 10
			traits = { ideology_A FM_Iron_Fisted_Brute }
		}
	# L. J. du Plessis
		SAF_FM_L_J_du_Plessis = {
			picture = Generic_Portrait
			allowed = { tag = SAF }
			available = {
				date > 1943.1.1
				date < 1964.1.1
				PA_Minister_Allowed = yes
				NOT = { has_country_flag = L_J_du_Plessis_unavailable }
			}
			cost = 150
			removal_cost = 10
			traits = { ideology_A FM_Ideological_Crusader }
		}
	# James Hertzog
		SAF_FM_James_Hertzog_2 = {
			picture = Generic_Portrait
			allowed = { tag = SAF }
			available = {
				date > 1914.1.1
				date < 1933.1.1
				SC_Minister_Allowed = yes
				NOT = { has_country_flag = James_Hertzog_unavailable }
			}
			cost = 150
			removal_cost = 10
			traits = { ideology_D FM_Biased_Intellectual }
		}
	# Eric H. Louw
		SAF_FM_Eric_H_Louw = {
			picture = Generic_Portrait
			allowed = { tag = SAF }
			available = {
				date > 1933.1.1
				date < 1964.1.1
				SC_Minister_Allowed = yes
				NOT = { has_country_flag = Eric_H_Louw_unavailable }
			}
			cost = 150
			removal_cost = 10
			traits = { ideology_D FM_Biased_Intellectual }
		}
	# Reginald Blankenberg
		SAF_FM_Reginald_Blankenberg = {
			picture = Generic_Portrait
			allowed = { tag = SAF }
			available = {
				date > 1937.1.1
				date < 1964.1.1
				SC_Minister_Allowed = yes
				NOT = { has_country_flag = Reginald_Blankenberg_unavailable }
			}
			cost = 150
			removal_cost = 10
			traits = { ideology_D FM_Biased_Intellectual }
		}
	# Pierre van Ryneveld
		SAF_FM_Pierre_van_Ryneveld = {
			picture = Generic_Portrait
			allowed = { tag = SAF }
			available = {
				date > 1941.1.1
				date < 1964.1.1
				SC_Minister_Allowed = yes
				NOT = { has_country_flag = Pierre_van_Ryneveld_unavailable }
			}
			cost = 150
			removal_cost = 10
			traits = { ideology_D FM_General_Staffer }
		}
	# D. F. Malan
		SAF_FM_D_F_Malan = {
			picture = Generic_Portrait
			allowed = { tag = SAF }
			available = {
				date > 1943.1.1
				date < 1964.1.1
				SC_Minister_Allowed = yes
				NOT = { has_country_flag = D_F_Malan_unavailable }
			}
			cost = 150
			removal_cost = 10
			traits = { ideology_D FM_The_Cloak_N_Dagger_Schemer }
		}
	# Pik Botha
		SAF_FM_Pik_Botha = {
			picture = Generic_Portrait
			allowed = { tag = SAF }
			available = {
				date > 1985.1.1
				date < 1992.1.1
				SC_Minister_Allowed = yes
				NOT = { has_country_flag = Pik_Botha_unavailable }
			}
			cost = 150
			removal_cost = 10
			traits = { ideology_D FM_General_Staffer }
		}
	# Louis Botha
		SAF_FM_Louis_Botha = {
			picture = Generic_Portrait
			allowed = { tag = SAF }
			available = {
				date > 1910.1.1
				date < 1933.1.1
				ML_Minister_Allowed = yes
				NOT = { has_country_flag = Louis_Botha_unavailable }
			}
			cost = 150
			removal_cost = 10
			traits = { ideology_D FM_Iron_Fisted_Brute }
		}
	# Jan C. Smuts
		SAF_FM_Jan_C_Smuts = {
			picture = Generic_Portrait
			allowed = { tag = SAF }
			available = {
				date > 1919.1.1
				date < 1964.1.1
				ML_Minister_Allowed = yes
				NOT = { has_country_flag = Jan_C_Smuts_unavailable }
			}
			cost = 150
			removal_cost = 10
			traits = { ideology_D FM_Ideological_Crusader }
		}
	# James Hertzog
		SAF_FM_James_Hertzog = {
			picture = Generic_Portrait
			allowed = { tag = SAF }
			available = {
				date > 1933.1.1
				date < 1964.1.1
				ML_Minister_Allowed = yes
				NOT = { has_country_flag = James_Hertzog_unavailable }
			}
			cost = 150
			removal_cost = 10
			traits = { ideology_D FM_General_Staffer }
		}
	# Graham Botha
		SAF_FM_Graham_Botha = {
			picture = Generic_Portrait
			allowed = { tag = SAF }
			available = {
				date > 1938.1.1
				date < 1964.1.1
				ML_Minister_Allowed = yes
				NOT = { has_country_flag = Graham_Botha_unavailable }
			}
			cost = 150
			removal_cost = 10
			traits = { ideology_D FM_Apologetic_Clerk }
		}
	# E.G. Jansen
		SAF_FM_EG_Jansen = {
			picture = Generic_Portrait
			allowed = { tag = SAF }
			available = {
				date > 1941.1.1
				date < 1964.1.1
				ML_Minister_Allowed = yes
				NOT = { has_country_flag = EG_Jansen_unavailable }
			}
			cost = 150
			removal_cost = 10
			traits = { ideology_D FM_Great_Compromiser }
		}
	# Leander Jameson
		SAF_FM_Leander_Jameson = {
			picture = Generic_Portrait
			allowed = { tag = SAF }
			available = {
				date > 1914.1.1
				date < 1933.1.1
				SL_Minister_Allowed = yes
				NOT = { has_country_flag = Leander_Jameson_unavailable }
			}
			cost = 150
			removal_cost = 10
			traits = { ideology_D FM_Apologetic_Clerk }
		}
	# Jacobus de Beer
		SAF_FM_Jacobus_de_Beer = {
			picture = Generic_Portrait
			allowed = { tag = SAF }
			available = {
				date > 1950.1.1
				date < 1964.1.1
				SL_Minister_Allowed = yes
				NOT = { has_country_flag = Jacobus_de_Beer_unavailable }
			}
			cost = 150
			removal_cost = 10
			traits = { ideology_D FM_Great_Compromiser }
		}
}
#################################################
### Minister of Security
#################################################
	Minister_of_Security = {
	# C. de Weenburg du Toit
		SAF_MoS_C_de_Weenburg_du_Toit = {
			picture = Generic_Portrait
			allowed = { tag = SAF }
			available = {
				date > 1943.1.1
				date < 1964.1.1
				PA_Minister_Allowed = yes
				NOT = { has_country_flag = C_de_Weenburg_du_Toit_unavailable }
			}
			cost = 150
			removal_cost = 10
			traits = { ideology_A MoS_Crime_Fighter }
		}
	# Magnus Malan
		SAF_MoS_Magnus_Malan = {
			picture = Generic_Portrait
			allowed = { tag = SAF }
			available = {
				date > 1985.1.1
				date < 1992.1.1
				PA_Minister_Allowed = yes
				NOT = { has_country_flag = Magnus_Malan_unavailable }
			}
			cost = 150
			removal_cost = 10
			traits = { ideology_A MoS_Man_Of_The_People }
		}
	# Daniel Malan
		SAF_MoS_Daniel_Malan = {
			picture = Generic_Portrait
			allowed = { tag = SAF }
			available = {
				date > 1914.1.1
				date < 1933.1.1
				SC_Minister_Allowed = yes
				NOT = { has_country_flag = Daniel_Malan_unavailable }
			}
			cost = 150
			removal_cost = 10
			traits = { ideology_D MoS_Man_Of_The_People }
		}
	# Hendrik F. Verwoerd
		SAF_MoS_Hendrik_F_Verwoerd = {
			picture = Generic_Portrait
			allowed = { tag = SAF }
			available = {
				date > 1933.1.1
				date < 1964.1.1
				SC_Minister_Allowed = yes
				NOT = { has_country_flag = Hendrik_F_Verwoerd_unavailable }
			}
			cost = 150
			removal_cost = 10
			traits = { ideology_D MoS_Prince_Of_Terror }
		}
	# N. J. van der Merwe
		SAF_MoS_N_J_van_der_Merwe = {
			picture = Generic_Portrait
			allowed = { tag = SAF }
			available = {
				date > 1933.1.1
				date < 1964.1.1
				SC_Minister_Allowed = yes
				NOT = { has_country_flag = N_J_van_der_Merwe_unavailable }
			}
			cost = 150
			removal_cost = 10
			traits = { ideology_D MoS_Compassionate_Gentleman }
		}
	# C. R. Swart
		SAF_MoS_C_R_Swart = {
			picture = Generic_Portrait
			allowed = { tag = SAF }
			available = {
				date > 1937.1.1
				date < 1964.1.1
				SC_Minister_Allowed = yes
				NOT = { has_country_flag = C_R_Swart_unavailable }
			}
			cost = 150
			removal_cost = 10
			traits = { ideology_D MoS_Silent_Lawyer }
		}
	# T.E. Dönges
		SAF_MoS_TE_Donges = {
			picture = Generic_Portrait
			allowed = { tag = SAF }
			available = {
				date > 1938.1.1
				date < 1964.1.1
				SC_Minister_Allowed = yes
				NOT = { has_country_flag = TE_Donges_unavailable }
			}
			cost = 150
			removal_cost = 10
			traits = { ideology_D MoS_Man_Of_The_People }
		}
	# D. F. Malan
		SAF_MoS_D_F_Malan = {
			picture = Generic_Portrait
			allowed = { tag = SAF }
			available = {
				date > 1938.1.1
				date < 1964.1.1
				SC_Minister_Allowed = yes
				NOT = { has_country_flag = D_F_Malan_unavailable }
			}
			cost = 150
			removal_cost = 10
			traits = { ideology_D MoS_Crime_Fighter }
		}
	# J. G. Strijdom
		SAF_MoS_J_G_Strijdom = {
			picture = Generic_Portrait
			allowed = { tag = SAF }
			available = {
				date > 1940.1.1
				date < 1964.1.1
				SC_Minister_Allowed = yes
				NOT = { has_country_flag = J_G_Strijdom_unavailable }
			}
			cost = 150
			removal_cost = 10
			traits = { ideology_D MoS_Back_Stabber }
		}
	# F.C. Erasmus
		SAF_MoS_FC_Erasmus = {
			picture = Generic_Portrait
			allowed = { tag = SAF }
			available = {
				date > 1941.1.1
				date < 1964.1.1
				SC_Minister_Allowed = yes
				NOT = { has_country_flag = FC_Erasmus_unavailable }
			}
			cost = 150
			removal_cost = 10
			traits = { ideology_D MoS_Efficient_Sociopath }
		}
	# Jozua F. Naude
		SAF_MoS_Jozua_F_Naude = {
			picture = Generic_Portrait
			allowed = { tag = SAF }
			available = {
				date > 1958.1.1
				date < 1964.1.1
				SC_Minister_Allowed = yes
				NOT = { has_country_flag = Jozua_F_Naude_unavailable }
			}
			cost = 150
			removal_cost = 10
			traits = { ideology_D MoS_Compassionate_Gentleman }
		}
	# Johannes de Klerk
		SAF_MoS_Johannes_de_Klerk = {
			picture = Generic_Portrait
			allowed = { tag = SAF }
			available = {
				date > 1961.1.1
				date < 1964.1.1
				SC_Minister_Allowed = yes
				NOT = { has_country_flag = Johannes_de_Klerk_unavailable }
			}
			cost = 150
			removal_cost = 10
			traits = { ideology_D MoS_Silent_Lawyer }
		}
	# Jan C. Smuts
		SAF_MoS_Jan_C_Smuts = {
			picture = Generic_Portrait
			allowed = { tag = SAF }
			available = {
				date > 1933.1.1
				date < 1964.1.1
				ML_Minister_Allowed = yes
				NOT = { has_country_flag = Jan_C_Smuts_unavailable }
			}
			cost = 150
			removal_cost = 10
			traits = { ideology_D MoS_Man_Of_The_People }
		}
	# C. F. Stallard
		SAF_MoS_C_F_Stallard = {
			picture = Generic_Portrait
			allowed = { tag = SAF }
			available = {
				date > 1938.1.1
				date < 1964.1.1
				ML_Minister_Allowed = yes
				NOT = { has_country_flag = C_F_Stallard_unavailable }
			}
			cost = 150
			removal_cost = 10
			traits = { ideology_D MoS_Silent_Lawyer }
		}
	# E.G. Jansen
		SAF_MoS_EG_Jansen = {
			picture = Generic_Portrait
			allowed = { tag = SAF }
			available = {
				date > 1939.1.1
				date < 1964.1.1
				ML_Minister_Allowed = yes
				NOT = { has_country_flag = EG_Jansen_unavailable }
			}
			cost = 150
			removal_cost = 10
			traits = { ideology_D MoS_Silent_Lawyer }
		}
	# H.G. Lawrence
		SAF_MoS_HG_Lawrence = {
			picture = Generic_Portrait
			allowed = { tag = SAF }
			available = {
				date > 1943.1.1
				date < 1964.1.1
				ML_Minister_Allowed = yes
				NOT = { has_country_flag = HG_Lawrence_unavailable }
			}
			cost = 150
			removal_cost = 10
			traits = { ideology_D MoS_Prince_Of_Terror }
		}
	# Jozua F. Naude
		SAF_MoS_Jozua_F_Naude_2 = {
			picture = Generic_Portrait
			allowed = { tag = SAF }
			available = {
				date > 1961.1.1
				date < 1964.1.1
				SL_Minister_Allowed = yes
				NOT = { has_country_flag = Jozua_F_Naude_unavailable }
			}
			cost = 150
			removal_cost = 10
			traits = { ideology_D MoS_Man_Of_The_People }
		}
}
#################################################
### Armaments Minister
#################################################
	Armaments_Minister = {
	# Christiaan De Wet
		SAF_AM_Christiaan_De_Wet = {
			picture = Generic_Portrait
			allowed = { tag = SAF }
			available = {
				date > 1914.1.1
				date < 1933.1.1
				FA_Minister_Allowed = yes
				NOT = { has_country_flag = Christiaan_De_Wet_unavailable }
			}
			cost = 150
			removal_cost = 10
			traits = { ideology_F AM_Infantry_Proponent }
		}
	# C. de Weenburg du Toit
		SAF_AM_C_de_Weenburg_du_Toit = {
			picture = Generic_Portrait
			allowed = { tag = SAF }
			available = {
				date > 1933.1.1
				date < 1964.1.1
				PA_Minister_Allowed = yes
				NOT = { has_country_flag = C_de_Weenburg_du_Toit_unavailable }
			}
			cost = 150
			removal_cost = 10
			traits = { ideology_A AM_Tank_Proponent }
		}
	# J. G. Strijdom
		SAF_AM_J_G_Strijdom = {
			picture = Generic_Portrait
			allowed = { tag = SAF }
			available = {
				date > 1937.1.1
				date < 1964.1.1
				PA_Minister_Allowed = yes
				NOT = { has_country_flag = J_G_Strijdom_unavailable }
			}
			cost = 150
			removal_cost = 10
			traits = { ideology_A AM_Resource_Industrialist }
		}
	# Oswald Pirow
		SAF_AM_Oswald_Pirow = {
			picture = Generic_Portrait
			allowed = { tag = SAF }
			available = {
				date > 1941.1.1
				date < 1964.1.1
				PA_Minister_Allowed = yes
				NOT = { has_country_flag = Oswald_Pirow_unavailable }
			}
			cost = 150
			removal_cost = 10
			traits = { ideology_A AM_Military_Entrepreneur }
		}
	# Daniel Malan
		SAF_AM_Daniel_Malan = {
			picture = Generic_Portrait
			allowed = { tag = SAF }
			available = {
				date > 1914.1.1
				date < 1933.1.1
				SC_Minister_Allowed = yes
				NOT = { has_country_flag = Daniel_Malan_unavailable }
			}
			cost = 150
			removal_cost = 10
			traits = { ideology_D AM_Administrative_Genius }
		}
	# Cornelis van Zuigenbrogge
		SAF_AM_Cornelis_van_Zuigenbrogge = {
			picture = Generic_Portrait
			allowed = { tag = SAF }
			available = {
				date > 1942.1.1
				date < 1964.1.1
				SC_Minister_Allowed = yes
				NOT = { has_country_flag = Cornelis_van_Zuigenbrogge_unavailable }
			}
			cost = 150
			removal_cost = 10
			traits = { ideology_D AM_Submarine_Proponent }
		}
	# Pierre Oliver-Knoll
		SAF_AM_Pierre_OliverKnoll = {
			picture = Generic_Portrait
			allowed = { tag = SAF }
			available = {
				date > 1943.1.1
				date < 1964.1.1
				SC_Minister_Allowed = yes
				NOT = { has_country_flag = Pierre_OliverKnoll_unavailable }
			}
			cost = 150
			removal_cost = 10
			traits = { ideology_D AM_Battle_Fleet_Proponent }
		}
	# P.O. Sauer
		SAF_AM_PO_Sauer = {
			picture = Generic_Portrait
			allowed = { tag = SAF }
			available = {
				date > 1943.1.1
				date < 1964.1.1
				SC_Minister_Allowed = yes
				NOT = { has_country_flag = PO_Sauer_unavailable }
			}
			cost = 150
			removal_cost = 10
			traits = { ideology_D AM_Laissez-faire_Capitalist }
		}
	# Marinus van Osterkamp
		SAF_AM_Marinus_van_Osterkamp = {
			picture = Generic_Portrait
			allowed = { tag = SAF }
			available = {
				date > 1945.1.1
				date < 1964.1.1
				SC_Minister_Allowed = yes
				NOT = { has_country_flag = Marinus_van_Osterkamp_unavailable }
			}
			cost = 150
			removal_cost = 10
			traits = { ideology_D AM_Air_To_Sea_Proponent }
		}
	# F.C. Erasmus
		SAF_AM_FC_Erasmus = {
			picture = Generic_Portrait
			allowed = { tag = SAF }
			available = {
				date > 1948.1.1
				date < 1964.1.1
				SC_Minister_Allowed = yes
				NOT = { has_country_flag = FC_Erasmus_unavailable }
			}
			cost = 150
			removal_cost = 10
			traits = { ideology_D AM_Submarine_Proponent }
		}
	# F.C. Erasmus
		SAF_AM_FC_Erasmus_2 = {
			picture = Generic_Portrait
			allowed = { tag = SAF }
			available = {
				date > 1952.1.1
				date < 1964.1.1
				SC_Minister_Allowed = yes
				NOT = { has_country_flag = FC_Erasmus_unavailable }
			}
			cost = 150
			removal_cost = 10
			traits = { ideology_D AM_Laissez-faire_Capitalist }
		}
	# Johannes J. Fouche
		SAF_AM_Johannes_J_Fouche = {
			picture = Generic_Portrait
			allowed = { tag = SAF }
			available = {
				date > 1959.1.1
				date < 1964.1.1
				SC_Minister_Allowed = yes
				NOT = { has_country_flag = Johannes_J_Fouche_unavailable }
			}
			cost = 150
			removal_cost = 10
			traits = { ideology_D AM_Resource_Industrialist }
		}
	# Jan Smuts
		SAF_AM_Jan_Smuts = {
			picture = Generic_Portrait
			allowed = { tag = SAF }
			available = {
				date > 1914.1.1
				date < 1933.1.1
				ML_Minister_Allowed = yes
				NOT = { has_country_flag = Jan_Smuts_unavailable }
			}
			cost = 150
			removal_cost = 10
			traits = { ideology_D AM_Resource_Industrialist }
		}
	# Nicolaas Havenga
		SAF_AM_Nicolaas_Havenga = {
			picture = Generic_Portrait
			allowed = { tag = SAF }
			available = {
				date > 1933.1.1
				date < 1964.1.1
				ML_Minister_Allowed = yes
				NOT = { has_country_flag = Nicolaas_Havenga_unavailable }
			}
			cost = 150
			removal_cost = 10
			traits = { ideology_D AM_Laissez-faire_Capitalist }
		}
	# James Hertzog
		SAF_AM_James_Hertzog = {
			picture = Generic_Portrait
			allowed = { tag = SAF }
			available = {
				date > 1938.1.1
				date < 1964.1.1
				ML_Minister_Allowed = yes
				NOT = { has_country_flag = James_Hertzog_unavailable }
			}
			cost = 150
			removal_cost = 10
			traits = { ideology_D AM_Infantry_Proponent }
		}
	# S.P. Le Roux
		SAF_AM_SP_Le_Roux = {
			picture = Generic_Portrait
			allowed = { tag = SAF }
			available = {
				date > 1938.1.1
				date < 1964.1.1
				ML_Minister_Allowed = yes
				NOT = { has_country_flag = SP_Le_Roux_unavailable }
			}
			cost = 150
			removal_cost = 10
			traits = { ideology_D AM_Administrative_Genius }
		}
	# H. J. van der Byl
		SAF_AM_H_J_van_der_Byl = {
			picture = Generic_Portrait
			allowed = { tag = SAF }
			available = {
				date > 1939.1.1
				date < 1964.1.1
				ML_Minister_Allowed = yes
				NOT = { has_country_flag = H_J_van_der_Byl_unavailable }
			}
			cost = 150
			removal_cost = 10
			traits = { ideology_D AM_Theoretical_Scientist }
		}
	# W. E. Madeley
		SAF_AM_W_E_Madeley = {
			picture = Generic_Portrait
			allowed = { tag = SAF }
			available = {
				date > 1939.1.1
				date < 1964.1.1
				ML_Minister_Allowed = yes
				NOT = { has_country_flag = W_E_Madeley_unavailable }
			}
			cost = 150
			removal_cost = 10
			traits = { ideology_D AM_Administrative_Genius }
		}
	# Jan C. Smuts
		SAF_AM_Jan_C_Smuts = {
			picture = Generic_Portrait
			allowed = { tag = SAF }
			available = {
				date > 1939.1.1
				date < 1964.1.1
				ML_Minister_Allowed = yes
				NOT = { has_country_flag = Jan_C_Smuts_unavailable }
			}
			cost = 150
			removal_cost = 10
			traits = { ideology_D AM_Military_Entrepreneur }
		}
	# Adolf Malan
		SAF_AM_Adolf_Malan = {
			picture = Generic_Portrait
			allowed = { tag = SAF }
			available = {
				date > 1940.1.1
				date < 1964.1.1
				ML_Minister_Allowed = yes
				NOT = { has_country_flag = Adolf_Malan_unavailable }
			}
			cost = 150
			removal_cost = 10
			traits = { ideology_D AM_Air_To_Ground_Proponent }
		}
	# Charles T. te Water
		SAF_AM_Charles_T_te_Water = {
			picture = Generic_Portrait
			allowed = { tag = SAF }
			available = {
				date > 1941.1.1
				date < 1964.1.1
				ML_Minister_Allowed = yes
				NOT = { has_country_flag = Charles_T_te_Water_unavailable }
			}
			cost = 150
			removal_cost = 10
			traits = { ideology_D AM_Resource_Industrialist }
		}
	# Barend du Plessis
		SAF_AM_Barend_du_Plessis = {
			picture = Generic_Portrait
			allowed = { tag = SAF }
			available = {
				date > 1985.1.1
				date < 1992.1.1
				ML_Minister_Allowed = yes
				NOT = { has_country_flag = Barend_du_Plessis_unavailable }
			}
			cost = 150
			removal_cost = 10
			traits = { ideology_D AM_Laissez-faire_Capitalist }
		}
}
#################################################
### Head of Intelligence
#################################################
	Head_of_Intelligence = {
	# Seymour Jacklin
		SAF_HoI_Seymour_Jacklin = {
			picture = Generic_Portrait
			allowed = { tag = SAF }
			available = {
				date > 1940.1.1
				date < 1964.1.1
				PA_Minister_Allowed = yes
				NOT = { has_country_flag = Seymour_Jacklin_unavailable }
			}
			cost = 150
			removal_cost = 10
			traits = { ideology_A HoI_Political_Specialist }
		}
	# B.J. Schoeman
		SAF_HoI_BJ_Schoeman = {
			picture = Generic_Portrait
			allowed = { tag = SAF }
			available = {
				date > 1933.1.1
				date < 1964.1.1
				SC_Minister_Allowed = yes
				NOT = { has_country_flag = BJ_Schoeman_unavailable }
			}
			cost = 150
			removal_cost = 10
			traits = { ideology_D HoI_Logistics_Specialist }
		}
	# Jeannot de la Tourier
		SAF_HoI_Jeannot_de_la_Tourier = {
			picture = Generic_Portrait
			allowed = { tag = SAF }
			available = {
				date > 1939.1.1
				date < 1964.1.1
				SC_Minister_Allowed = yes
				NOT = { has_country_flag = Jeannot_de_la_Tourier_unavailable }
			}
			cost = 150
			removal_cost = 10
			traits = { ideology_D HoI_Naval_Intelligence_Specialist }
		}
	# Eric Louw
		SAF_HoI_Eric_Louw = {
			picture = Generic_Portrait
			allowed = { tag = SAF }
			available = {
				date > 1943.1.1
				date < 1964.1.1
				SC_Minister_Allowed = yes
				NOT = { has_country_flag = Eric_Louw_unavailable }
			}
			cost = 150
			removal_cost = 10
			traits = { ideology_D HoI_Technical_Specialist }
		}
	# C. R. Swart
		SAF_HoI_C_R_Swart = {
			picture = Generic_Portrait
			allowed = { tag = SAF }
			available = {
				date > 1943.1.1
				date < 1964.1.1
				SC_Minister_Allowed = yes
				NOT = { has_country_flag = C_R_Swart_unavailable }
			}
			cost = 150
			removal_cost = 10
			traits = { ideology_D HoI_Dismal_Enigma }
		}
	# Nicolaas Havenga
		SAF_HoI_Nicolaas_Havenga = {
			picture = Generic_Portrait
			allowed = { tag = SAF }
			available = {
				date > 1945.1.1
				date < 1964.1.1
				SC_Minister_Allowed = yes
				NOT = { has_country_flag = Nicolaas_Havenga_unavailable }
			}
			cost = 150
			removal_cost = 10
			traits = { ideology_D HoI_Industrial_Specialist }
		}
	# Louis Pienaar
		SAF_HoI_Louis_Pienaar = {
			picture = Generic_Portrait
			allowed = { tag = SAF }
			available = {
				date > 1985.1.1
				date < 1992.1.1
				SC_Minister_Allowed = yes
				NOT = { has_country_flag = Louis_Pienaar_unavailable }
			}
			cost = 150
			removal_cost = 10
			traits = { ideology_D HoI_Logistics_Specialist }
		}
	# Theodorus Truter
		SAF_HoI_Theodorus_Truter = {
			picture = Generic_Portrait
			allowed = { tag = SAF }
			available = {
				date > 1914.1.1
				date < 1933.1.1
				ML_Minister_Allowed = yes
				NOT = { has_country_flag = Theodorus_Truter_unavailable }
			}
			cost = 150
			removal_cost = 10
			traits = { ideology_D HoI_Political_Specialist }
		}
	# Jan C. Smuts
		SAF_HoI_Jan_C_Smuts = {
			picture = Generic_Portrait
			allowed = { tag = SAF }
			available = {
				date > 1933.1.1
				date < 1964.1.1
				ML_Minister_Allowed = yes
				NOT = { has_country_flag = Jan_C_Smuts_unavailable }
			}
			cost = 150
			removal_cost = 10
			traits = { ideology_D HoI_Logistics_Specialist }
		}
}
#################################################
### Chief of Staff
#################################################
	Chief_of_Staff = {
	# Christiaan Beyers
		SAF_CoStaff_Christiaan_Beyers = {
			picture = Generic_Portrait
			allowed = { tag = SAF }
			available = {
				date > 1914.1.1
				date < 1933.1.1
				FA_Minister_Allowed = yes
				NOT = { has_country_flag = Christiaan_Beyers_unavailable }
			}
			cost = 150
			removal_cost = 10
			traits = { ideology_F CoStaff_School_Of_Mass_Combat }
		}
	# C. de Weenburg du Toit
		SAF_CoStaff_C_de_Weenburg_du_Toit = {
			picture = Generic_Portrait
			allowed = { tag = SAF }
			available = {
				date > 1943.1.1
				date < 1964.1.1
				PA_Minister_Allowed = yes
				NOT = { has_country_flag = C_de_Weenburg_du_Toit_unavailable }
			}
			cost = 150
			removal_cost = 10
			traits = { ideology_A CoStaff_School_Of_Fire_Support }
		}
	# Henry Lukin
		SAF_CoStaff_Henry_Lukin = {
			picture = Generic_Portrait
			allowed = { tag = SAF }
			available = {
				date > 1914.1.1
				date < 1933.1.1
				SC_Minister_Allowed = yes
				NOT = { has_country_flag = Henry_Lukin_unavailable }
			}
			cost = 150
			removal_cost = 10
			traits = { ideology_D CoStaff_School_Of_Defence }
		}
	# James Mitchell-Baker
		SAF_CoStaff_James_MitchellBaker = {
			picture = Generic_Portrait
			allowed = { tag = SAF }
			available = {
				date > 1937.1.1
				date < 1964.1.1
				SC_Minister_Allowed = yes
				NOT = { has_country_flag = James_MitchellBaker_unavailable }
			}
			cost = 150
			removal_cost = 10
			traits = { ideology_D CoStaff_School_Of_Manoeuvre }
		}
	# Leonard Beyers
		SAF_CoStaff_Leonard_Beyers = {
			picture = Generic_Portrait
			allowed = { tag = SAF }
			available = {
				date > 1940.1.1
				date < 1964.1.1
				SC_Minister_Allowed = yes
				NOT = { has_country_flag = Leonard_Beyers_unavailable }
			}
			cost = 150
			removal_cost = 10
			traits = { ideology_D CoStaff_School_Of_Defence }
		}
	# Robert Palmer
		SAF_CoStaff_Robert_Palmer = {
			picture = Generic_Portrait
			allowed = { tag = SAF }
			available = {
				date > 1944.1.1
				date < 1964.1.1
				SC_Minister_Allowed = yes
				NOT = { has_country_flag = Robert_Palmer_unavailable }
			}
			cost = 150
			removal_cost = 10
			traits = { ideology_D CoStaff_School_Of_Psychology }
		}
	# Constand Viljoen
		SAF_CoStaff_Constand_Viljoen = {
			picture = Generic_Portrait
			allowed = { tag = SAF }
			available = {
				date > 1985.1.1
				date < 1992.1.1
				SC_Minister_Allowed = yes
				NOT = { has_country_flag = Constand_Viljoen_unavailable }
			}
			cost = 150
			removal_cost = 10
			traits = { ideology_D CoStaff_School_Of_Manoeuvre }
		}
	# Jan Smuts
		SAF_CoStaff_Jan_Smuts = {
			picture = Generic_Portrait
			allowed = { tag = SAF }
			available = {
				date > 1914.1.1
				date < 1933.1.1
				ML_Minister_Allowed = yes
				NOT = { has_country_flag = Jan_Smuts_unavailable }
			}
			cost = 150
			removal_cost = 10
			traits = { ideology_D CoStaff_School_Of_Fire_Support }
		}
	# John Collyer
		SAF_CoStaff_John_Collyer = {
			picture = Generic_Portrait
			allowed = { tag = SAF }
			available = {
				date > 1917.1.1
				date < 1933.1.1
				ML_Minister_Allowed = yes
				NOT = { has_country_flag = John_Collyer_unavailable }
			}
			cost = 150
			removal_cost = 10
			traits = { ideology_D CoStaff_School_Of_Psychology }
		}
	# Andries Brink
		SAF_CoStaff_Andries_Brink = {
			picture = Generic_Portrait
			allowed = { tag = SAF }
			available = {
				date > 1920.1.1
				date < 1933.1.1
				ML_Minister_Allowed = yes
				NOT = { has_country_flag = Andries_Brink_unavailable }
			}
			cost = 150
			removal_cost = 10
			traits = { ideology_D CoStaff_School_Of_Defence }
		}
	# Pierre van Ryneveld
		SAF_CoStaff_Pierre_van_Ryneveld = {
			picture = Generic_Portrait
			allowed = { tag = SAF }
			available = {
				date > 1933.1.1
				date < 1964.1.1
				ML_Minister_Allowed = yes
				NOT = { has_country_flag = Pierre_van_Ryneveld_unavailable }
			}
			cost = 150
			removal_cost = 10
			traits = { ideology_D CoStaff_School_Of_Manoeuvre }
		}
	# Jan C. Smuts
		SAF_CoStaff_Jan_C_Smuts = {
			picture = Generic_Portrait
			allowed = { tag = SAF }
			available = {
				date > 1944.1.1
				date < 1964.1.1
				ML_Minister_Allowed = yes
				NOT = { has_country_flag = Jan_C_Smuts_unavailable }
			}
			cost = 150
			removal_cost = 10
			traits = { ideology_D CoStaff_School_Of_Mass_Combat }
		}
}
#################################################
### Chief of Army
#################################################
	Chief_of_Army = {
	# C. de Weenburg du Toit
		SAF_CoArmy_C_de_Weenburg_du_Toit = {
			picture = Generic_Portrait
			allowed = { tag = SAF }
			available = {
				date > 1942.1.1
				date < 1964.1.1
				PA_Minister_Allowed = yes
				NOT = { has_country_flag = C_de_Weenburg_du_Toit_unavailable }
			}
			cost = 150
			removal_cost = 10
			traits = { ideology_A CoArmy_Armoured_Spearhead_Doctrine }
		}
	# Johannes Geldenhuys
		SAF_CoArmy_Johannes_Geldenhuys = {
			picture = Generic_Portrait
			allowed = { tag = SAF }
			available = {
				date > 1985.1.1
				date < 1992.1.1
				PA_Minister_Allowed = yes
				NOT = { has_country_flag = Johannes_Geldenhuys_unavailable }
			}
			cost = 150
			removal_cost = 10
			traits = { ideology_A CoArmy_Armoured_Spearhead_Doctrine }
		}
	# Henry Lukin
		SAF_CoArmy_Henry_Lukin = {
			picture = Generic_Portrait
			allowed = { tag = SAF }
			available = {
				date > 1914.1.1
				date < 1933.1.1
				SC_Minister_Allowed = yes
				NOT = { has_country_flag = Henry_Lukin_unavailable }
			}
			cost = 150
			removal_cost = 10
			traits = { ideology_D CoArmy_Static_Defence_Doctrine }
		}
	# Jozua F. Naude
		SAF_CoArmy_Jozua_F_Naude = {
			picture = Generic_Portrait
			allowed = { tag = SAF }
			available = {
				date > 1933.1.1
				date < 1964.1.1
				SC_Minister_Allowed = yes
				NOT = { has_country_flag = Jozua_F_Naude_unavailable }
			}
			cost = 150
			removal_cost = 10
			traits = { ideology_D CoArmy_Guns_And_Butter_Doctrine }
		}
	# Leonard Beyers
		SAF_CoArmy_Leonard_Beyers = {
			picture = Generic_Portrait
			allowed = { tag = SAF }
			available = {
				date > 1943.1.1
				date < 1964.1.1
				SC_Minister_Allowed = yes
				NOT = { has_country_flag = Leonard_Beyers_unavailable }
			}
			cost = 150
			removal_cost = 10
			traits = { ideology_D CoArmy_Static_Defence_Doctrine }
		}
	# Francois Theron
		SAF_CoArmy_Francois_Theron = {
			picture = Generic_Portrait
			allowed = { tag = SAF }
			available = {
				date > 1946.1.1
				date < 1964.1.1
				SC_Minister_Allowed = yes
				NOT = { has_country_flag = Francois_Theron_unavailable }
			}
			cost = 150
			removal_cost = 10
			traits = { ideology_D CoArmy_Armoured_Spearhead_Doctrine }
		}
	# Jan Smuts
		SAF_CoArmy_Jan_Smuts = {
			picture = Generic_Portrait
			allowed = { tag = SAF }
			available = {
				date > 1914.1.1
				date < 1933.1.1
				ML_Minister_Allowed = yes
				NOT = { has_country_flag = Jan_Smuts_unavailable }
			}
			cost = 150
			removal_cost = 10
			traits = { ideology_D CoArmy_Decisive_Battle_Doctrine }
		}
	# John Collyer
		SAF_CoArmy_John_Collyer = {
			picture = Generic_Portrait
			allowed = { tag = SAF }
			available = {
				date > 1917.1.1
				date < 1933.1.1
				ML_Minister_Allowed = yes
				NOT = { has_country_flag = John_Collyer_unavailable }
			}
			cost = 150
			removal_cost = 10
			traits = { ideology_D CoArmy_Elastic_Defence_Doctrine }
		}
	# Andries Brink
		SAF_CoArmy_Andries_Brink = {
			picture = Generic_Portrait
			allowed = { tag = SAF }
			available = {
				date > 1920.1.1
				date < 1933.1.1
				ML_Minister_Allowed = yes
				NOT = { has_country_flag = Andries_Brink_unavailable }
			}
			cost = 150
			removal_cost = 10
			traits = { ideology_D CoArmy_Static_Defence_Doctrine }
		}
	# Jan C. Smuts
		SAF_CoArmy_Jan_C_Smuts = {
			picture = Generic_Portrait
			allowed = { tag = SAF }
			available = {
				date > 1933.1.1
				date < 1964.1.1
				ML_Minister_Allowed = yes
				NOT = { has_country_flag = Jan_C_Smuts_unavailable }
			}
			cost = 150
			removal_cost = 10
			traits = { ideology_D CoArmy_Armoured_Spearhead_Doctrine }
		}
	# James Mitchell-Baker
		SAF_CoArmy_James_MitchellBaker = {
			picture = Generic_Portrait
			allowed = { tag = SAF }
			available = {
				date > 1939.1.1
				date < 1964.1.1
				ML_Minister_Allowed = yes
				NOT = { has_country_flag = James_MitchellBaker_unavailable }
			}
			cost = 150
			removal_cost = 10
			traits = { ideology_D CoArmy_Decisive_Battle_Doctrine }
		}
	# Pierre van Ryneveld
		SAF_CoArmy_Pierre_van_Ryneveld = {
			picture = Generic_Portrait
			allowed = { tag = SAF }
			available = {
				date > 1943.1.1
				date < 1964.1.1
				ML_Minister_Allowed = yes
				NOT = { has_country_flag = Pierre_van_Ryneveld_unavailable }
			}
			cost = 150
			removal_cost = 10
			traits = { ideology_D CoArmy_Elastic_Defence_Doctrine }
		}
}
#################################################
### Chief of Navy
#################################################
	Chief_of_Navy = {
	# Glen Syndercombe
		SAF_CoNavy_Glen_Syndercombe = {
			picture = Generic_Portrait
			allowed = { tag = SAF }
			available = {
				date > 1985.1.1
				date < 1992.1.1
				PA_Minister_Allowed = yes
				NOT = { has_country_flag = Glen_Syndercombe_unavailable }
			}
			cost = 150
			removal_cost = 10
			traits = { ideology_A CoNavy_Open_Seas_Doctrine }
		}
	# Jeannot de la Tourier
		SAF_CoNavy_Jeannot_de_la_Tourier = {
			picture = Generic_Portrait
			allowed = { tag = SAF }
			available = {
				date > 1933.1.1
				date < 1964.1.1
				SC_Minister_Allowed = yes
				NOT = { has_country_flag = Jeannot_de_la_Tourier_unavailable }
			}
			cost = 150
			removal_cost = 10
			traits = { ideology_D CoNavy_Decisive_Naval_Battle_Doctrine }
		}
	# Cornelis van Zuigenbrogge
		SAF_CoNavy_Cornelis_van_Zuigenbrogge = {
			picture = Generic_Portrait
			allowed = { tag = SAF }
			available = {
				date > 1938.1.1
				date < 1964.1.1
				SC_Minister_Allowed = yes
				NOT = { has_country_flag = Cornelis_van_Zuigenbrogge_unavailable }
			}
			cost = 150
			removal_cost = 10
			traits = { ideology_D CoNavy_Indirect_Approach_Doctrine }
		}
	# Pierre Oliver-Knoll
		SAF_CoNavy_Pierre_OliverKnoll = {
			picture = Generic_Portrait
			allowed = { tag = SAF }
			available = {
				date > 1933.1.1
				date < 1964.1.1
				ML_Minister_Allowed = yes
				NOT = { has_country_flag = Pierre_OliverKnoll_unavailable }
			}
			cost = 150
			removal_cost = 10
			traits = { ideology_D CoNavy_Open_Seas_Doctrine }
		}
}
#################################################
### Chief of Airforce
#################################################
	Chief_of_Airforce = {
	# Denis Earp
		SAF_CoAir_Denis_Earp = {
			picture = Generic_Portrait
			allowed = { tag = SAF }
			available = {
				date > 1985.1.1
				date < 1992.1.1
				PA_Minister_Allowed = yes
				NOT = { has_country_flag = Denis_Earp_unavailable }
			}
			cost = 150
			removal_cost = 10
			traits = { ideology_A CoAir_Air_Superiority_Doctrine }
		}
	# Adolf Malan
		SAF_CoAir_Adolf_Malan = {
			picture = Generic_Portrait
			allowed = { tag = SAF }
			available = {
				date > 1941.1.1
				date < 1964.1.1
				SC_Minister_Allowed = yes
				NOT = { has_country_flag = Adolf_Malan_unavailable }
			}
			cost = 150
			removal_cost = 10
			traits = { ideology_D CoAir_Army_Aviation_Doctrine }
		}
	# Marinus van Osterkamp
		SAF_CoAir_Marinus_van_Osterkamp = {
			picture = Generic_Portrait
			allowed = { tag = SAF }
			available = {
				date > 1941.1.1
				date < 1964.1.1
				SC_Minister_Allowed = yes
				NOT = { has_country_flag = Marinus_van_Osterkamp_unavailable }
			}
			cost = 150
			removal_cost = 10
			traits = { ideology_D CoAir_Naval_Aviation_Doctrine }
		}
	# Pierre van Ryneveld
		SAF_CoAir_Pierre_van_Ryneveld = {
			picture = Generic_Portrait
			allowed = { tag = SAF }
			available = {
				date > 1933.1.1
				date < 1964.1.1
				ML_Minister_Allowed = yes
				NOT = { has_country_flag = Pierre_van_Ryneveld_unavailable }
			}
			cost = 150
			removal_cost = 10
			traits = { ideology_D CoAir_Air_Superiority_Doctrine }
		}
	# Christoffel Venter
		SAF_CoAir_Christoffel_Venter = {
			picture = Generic_Portrait
			allowed = { tag = SAF }
			available = {
				date > 1940.1.1
				date < 1964.1.1
				ML_Minister_Allowed = yes
				NOT = { has_country_flag = Christoffel_Venter_unavailable }
			}
			cost = 150
			removal_cost = 10
			traits = { ideology_D CoAir_Vertical_Envelopment_Doctrine }
		}
	# S.P. Le Roux
		SAF_CoAir_SP_Le_Roux = {
			picture = Generic_Portrait
			allowed = { tag = SAF }
			available = {
				date > 1943.1.1
				date < 1964.1.1
				ML_Minister_Allowed = yes
				NOT = { has_country_flag = SP_Le_Roux_unavailable }
			}
			cost = 150
			removal_cost = 10
			traits = { ideology_D CoAir_Vertical_Envelopment_Doctrine }
		}
	}
}
