# options for map_icon_category:
# For land units: infantry,armored,other
# For sea units: ship,transport,uboat

sub_units = {
### Garrison Infantry	
	garrison = {
		sprite = infantry
		map_icon_category = infantry
		
		priority = 599
		ai_priority = 100
		active = no

		type = {
			infantry
		}
		
		group = infantry
		
		categories = {
			category_front_line
			category_light_infantry
			category_all_infantry
			category_army
		}
		
		combat_width = 2
		
		#Size Definitions
		max_strength = 30
		max_organisation = 60		
		default_morale = 0.30
		manpower = 1000

		#Misc Abilities
		training_time = 70
		suppression = 2
		weight = 0.5
		breakthrough = -0.5	# Garrisons don't know how to attack, get slaughtered
		
		supply_consumption = 0.04

		maximum_speed = -0.9
	
		need = {
			infantry_equipment = 100
		}
		
		forest = { attack = -0.3 movement = -0.9 }
		mountain = { attack = -0.3 movement = -0.9 }
		jungle = { attack = -0.3 movement = -0.9 }
		marsh = { attack = -0.3 movement = -0.9 }
		hills = { movement = -0.9 }
		mountain = { movement = -0.9 }
		plains = { movement = -0.9 }
		urban = { movement = -0.9 }
		desert = { movement = -0.9 }
		river = { attack = -0.5 }
		amphibious = { attack = -0.5 }
	}
### Militia
	militia = {
		sprite = infantry
		map_icon_category = infantry
		
		priority = 599
		ai_priority = 200
		active = no

		type = {
			infantry
		}
		
		group = infantry
		
		categories = {
			category_front_line
			category_light_infantry
			category_all_infantry
			category_army
		}
		
		combat_width = 2
		
		#Size Definitions
		max_strength = 20
		max_organisation = 40
		default_morale = 0.35
		manpower = 1000

		#Misc Abilities
		training_time = 40
		suppression = 1
		weight = 0.5
		
		supply_consumption = 0.04
		
		#Offensive Abilities
		soft_attack = -0.5
		hard_attack = -0.5
		ap_attack = -1
		defense = -0.3		# militia can't defend effectively
		breakthrough = -0.3	# militia can't attack effectively
	
		need = {
			infantry_equipment = 50
		}
	}	
### Regular Infantry
	infantry = {
		sprite = infantry
		map_icon_category = infantry
		
		priority = 600
		ai_priority = 200
		active = no

		type = {
			infantry
		}
		
		group = infantry
		
		categories = {
			category_front_line
			category_light_infantry
			category_all_infantry
			category_army
		}
		
		combat_width = 2
		
		#Size Definitions
		max_strength = 25
		max_organisation = 60
		default_morale = 0.3
		manpower = 1000

		#Misc Abilities
		training_time = 90
		suppression = 1
		weight = 0.5
		
		supply_consumption = 0.07

		need = {
			infantry_equipment = 100 #x10
		}
	}
### Light Infantry
	light_infantry = {
		sprite = infantry
		map_icon_category = infantry
		
		priority = 600
		ai_priority = 200
		active = no

		type = {
			infantry
		}
		
		group = infantry
		
		categories = {
			category_front_line
			category_light_infantry
			category_all_infantry
			category_army
		}
		
		combat_width = 2
		
		#Size Definitions
		max_strength = 25
		max_organisation = 70 # +10 More Organization
		default_morale = 0.35 # +5% Better 
		manpower = 1000

		#Misc Abilities
		training_time = 100 # +10 days Training Time
		suppression = 1.2 # +0.2 At Supressing
		weight = 0.5
		
		supply_consumption = 0.06 # -1% Supply Consumption

		need = {
			infantry_equipment = 100 #x10
		}
	}	
### Bicycles Need balancing probably
	bicycle_battalion = {
		sprite = bicycle
		map_icon_category = infantry
		
		priority = 600
		ai_priority = 150
		active = no

		type = {
			infantry
		}
		
		group = infantry
		
		categories = {
			category_front_line
			category_light_infantry
			category_all_infantry
			category_army
		}
		
		combat_width = 2
		
		#Size Definitions
		max_strength = 25
		max_organisation = 60
		default_morale = 0.3
		maximum_speed = 0.6
		manpower = 1000

		#Misc Abilities
		training_time = 90
		suppression = 1
		weight = 0.5
		
		supply_consumption = 0.07
	
		need = {
			infantry_equipment = 100
			support_equipment = 10			
		}

		forest = {
			movement = 0.00
		}
		hills = {
			movement = 0.1
		}
		mountain = {
			movement = 0.05
		}
		marsh = {
			movement = 0.05
		}
		plains = {
			movement = 0.2
		}
		urban = {
			movement = 0.2
		}
		desert = {
			movement = 0.05
		}
		river = {
			movement = -0.05
		}
		amphibious = {
			movement = -0.05
		}
	}

### Marines/Naval Infantry
	marine = {
		sprite = infantry
		map_icon_category = infantry
		special_forces = yes
		marines = yes
		
		priority = 601
		ai_priority = 200
		active = no

		type = {
			infantry
		}
		
		group = infantry
		
		categories = {
			category_front_line
			category_light_infantry
			category_all_infantry
			category_army
		}
		
		combat_width = 2
		
		#Size Definitions
		max_strength = 20
		max_organisation = 70
		default_morale = 0.4
		manpower = 1000

		#Misc Abilities
		training_time = 120
		suppression = 1
		weight = 0.5
		supply_consumption = 0.06
		breakthrough = 0.3
	
		need = {
			infantry_equipment = 150 #x10
		}

		marsh = {
			attack = 0.3
		}
		river = {
			attack = 0.4
		}
		amphibious = {
			attack = 0.5
		}
	}
### Moutaineers	
	mountaineers = {
		sprite = infantry
		map_icon_category = infantry
		special_forces = yes
		mountaineers = yes

		priority = 601
		ai_priority = 200
		active = no

		type = {
			infantry
		}
		
		group = infantry
		
		categories = {
			category_front_line
			category_light_infantry
			category_all_infantry
			category_army
		}
		
		combat_width = 2
		
		#Size Definitions
		max_strength = 20
		max_organisation = 70
		default_morale = 0.4
		manpower = 1000

		#Misc Abilities
		training_time = 120
		suppression = 1
		weight = 0.5
		
		supply_consumption = 0.07
		breakthrough = 0.3
	
		need = {
			infantry_equipment = 140 #x10
		}

		hills = {
			attack = 0.2
			defence = 0.05
			movement = 0.1
		}
		mountain = {
			attack = 0.35
			defence = 0.1
			movement = 0.2
		}
	}
### Paratroopers/Airborne Infantry
	paratrooper = {
		sprite = infantry
		map_icon_category = infantry
		special_forces = yes

		priority = 2
		ai_priority = 2
		active = no

		type = {
			infantry
		}
		
		group = infantry
		
		categories = {
			category_front_line
			category_light_infantry
			category_all_infantry
			category_army
		}
		
		combat_width = 2
		
		#Size Definitions
		max_strength = 22
		max_organisation = 70
		default_morale = 0.4
		manpower = 1000

		#Misc Abilities
		training_time = 150
		suppression = 1
		weight = 0.5
		supply_consumption = 0.06

		can_be_parachuted = yes
	
		need = {
			infantry_equipment = 130 #x10
		}
	}
### Motorized Infantry
	motorized = {
		sprite = motorized
		map_icon_category = infantry

		priority = 599
		ai_priority = 200
		active = no

		type = {
			motorized
		}
		
		group = mobile
		
		categories = {
			category_front_line
			category_all_infantry
			category_army
		}
		
		combat_width = 2
		
		#Size Definitions
		max_strength = 25
		max_organisation = 60
		default_morale = 0.30
		manpower = 1200

		#Misc Abilities
		training_time = 90
		suppression = 1
		weight = 0.75
		supply_consumption = 0.11
	
		# this is what moves us and sets speed
		transport = motorized_equipment
	
		need = {
			infantry_equipment = 100 #x10
			motorized_equipment = 100
		}

		forest = {
			attack = -0.1
			movement = -0.5
		}
		mountain = {
			attack = -0.05
		}
		jungle = {
			attack = -0.2
			movement = -0.5
		}
		marsh = {
			attack = -0.1
			movement = -0.3
		}
		urban = {
			attack = -0.1
		}
		river = {
			attack = -0.1
			movement = -0.1
		}
		amphibious = {
			attack = -0.2
		}
	}
### Mechanized Infantry
	mechanized = {
		sprite = mechanized
		map_icon_category = infantry

		priority = 610
		ai_priority = 200
		active = yes

		type = {
			mechanized
		}
		
		group = mobile
		
		categories = {
			category_front_line
			category_all_infantry
			category_army
		}

		combat_width = 2

		#Offensive Abilities
		soft_attack = 0.1
		hard_attack = 4.0
		
		#Size Definitions
		max_strength = 30
		max_organisation = 60
		default_morale = 0.3
		manpower = 1200

		#Misc Abilities
		training_time = 120
		suppression = 1
		weight = 1
		
		supply_consumption = 0.18
		
		# needed since we give so much bonus to infantry even with no mech equipment
		essential = {
			infantry_equipment
			APC_equipment
		}

		# this is what moves us and sets speed
		transport = APC_equipment

		need = {
			APC_equipment = 100
			infantry_equipment = 100 #x10
		}

		forest = {
			attack = -0.2
		}
		mountain = {
			attack = -0.05
		}
		jungle = {
			attack = -0.3
		}
		marsh = {
			attack = -0.1
		}
		urban = {
			attack = -0.2
			defence = -0.05
		}
		river = {
			attack = -0.2
			movement = -0.2
		}
		amphibious = {
			attack = -0.4
		}

		hardness = 0.2
	}
### Heavy Mechanized Infantry
	heavy_mechanized = {
		sprite = mechanized
		map_icon_category = infantry

		priority = 610
		ai_priority = 200
		active = yes

		type = {
			mechanized
		}
		
		group = mobile
		
		categories = {
			category_front_line
			category_all_infantry
			category_army
		}

		combat_width = 2

		#Offensive Abilities
		soft_attack = 0.1
		hard_attack = 4.0
		
		#Size Definitions
		max_strength = 30
		max_organisation = 60
		default_morale = 0.3
		manpower = 1200

		#Misc Abilities
		training_time = 120
		suppression = 1
		weight = 1
		
		supply_consumption = 0.18
		
		# needed since we give so much bonus to infantry even with no mech equipment
		essential = {
			infantry_equipment
			IFV_equipment
		}

		# this is what moves us and sets speed
		transport = IFV_equipment

		need = {
			IFV_equipment = 100
			infantry_equipment = 100 #x10
		}

		forest = {
			attack = -0.2
		}
		mountain = {
			attack = -0.05
		}
		jungle = {
			attack = -0.3
		}
		marsh = {
			attack = -0.1
		}
		urban = {
			attack = -0.2
			defence = -0.05
		}
		river = {
			attack = -0.2
			movement = -0.2
		}
		amphibious = {
			attack = -0.4
		}

		hardness = 0.4
	}	
### Air Assault Infantry
	air_assault = {
		sprite = mechanized
		map_icon_category = infantry

		priority = 610
		ai_priority = 200
		active = yes

		type = {
			infantry
		}
		
		group = mobile
		
		categories = {
			category_front_line
			category_all_infantry
			category_army
		}

		combat_width = 2

		#Offensive Abilities
		soft_attack = 0.1
		hard_attack = 4.0
		
		#Size Definitions
		max_strength = 30
		max_organisation = 60
		default_morale = 0.3
		manpower = 1200

		#Misc Abilities
		training_time = 120
		suppression = 1
		weight = 1
		
		supply_consumption = 0.18
		
		# needed since we give so much bonus to infantry even with no mech equipment
		essential = {
			infantry_equipment
			Utility_Heli_equipment
		}

		# this is what moves us and sets speed
		transport = Utility_Heli_equipment

		need = {
			Utility_Heli_equipment = 50
			infantry_equipment = 100 #x10
		}

		forest = {
			attack = -0.2
		}
		mountain = {
			attack = -0.05
		}
		jungle = {
			attack = -0.3
		}
		marsh = {
			attack = -0.1
		}
		urban = {
			attack = -0.2
			defence = -0.05
		}
		river = {
			attack = -0.2
			movement = -0.2
		}
		amphibious = {
			attack = -0.4
		}

		hardness = 0.2
	}	
}
