
state={
	id=107
	name="STATE_107"

	history={
		owner = YUG
		buildings = {
			infrastructure = 6
			arms_factory = 2
			industrial_complex = 3
			air_base = 5

		}
		victory_points = {
			11586 15 
		}
		add_core_of = YUG
		add_core_of = SER
		1941.6.22 = {
			owner = GER
			controller = GER
		}
		1946.1.1 = {
			owner = YUG
			controller = YUG
		}
	}

	provinces={
		797 3609 3956 3984 6634 9599 11583 11586 
	}
	manpower=1053763
	buildings_max_level_factor=1.000
	state_category=large_town
}
