
state={
	id=186
	name="STATE_186"
	manpower=945000
	
	state_category = town

	history={
		owner = GRE
		buildings = {
			infrastructure = 5
			arms_factory = 1
			industrial_complex = 1
			11965 = {
				naval_base = 1

			}
			4193 = {
				naval_base = 2

			}

		}
		add_core_of = GRE
		1941.6.22 = {
			owner = ITA
			controller = ITA
		}
		1944.6.20 = {
			owner = GER
			controller = GER
		}
		1946.1.1 = {
			owner = GRE
			controller = GRE
		}
	}

	provinces={
		1173 4078 4178 4193 7096 7211 11965 
	}
}
