
state={
	id=187
	name="STATE_187"
	manpower = 322600
	
	state_category = small_island
	
	resources={
		chromium=7 # was: 10
	}

	history={
		owner = GRE
		buildings = {
			infrastructure = 4
			dockyard = 1
			8435 = {
				naval_base = 1
			}
			6550 = {
				naval_base = 1
			}
		}
		add_core_of = GRE
		1941.6.22 = {
			owner = GER
			controller = GER
		}
		1946.1.1 = {
			owner = GRE
			controller = GRE
		}		
	}

	provinces={
		3401 6550 8435 
	}
}
