
state={
	id=226
	name="STATE_226"
	resources={
		oil=4.000
	}

	history={
		owner = SOV
		victory_points = {
			11437 10 
		}
		victory_points = {
			11561 1 
		}
		buildings = {
			infrastructure = 5
			industrial_complex = 2
			air_base = 2

		}
		add_core_of = SOV
		add_core_of = UKR
		2000.1.1 = {
			owner = UKR

		}

	}

	provinces={
		453 472 486 6423 9419 9433 9463 9479 11422 11437 11452 11561 
	}
	manpower=2391047
	buildings_max_level_factor=1.000
	state_category=town
}
