
state={
	id=243
	name="STATE_243"

	history={
		owner = SOV
		buildings = {
			infrastructure = 5
			air_base = 2

		}
		add_core_of = SOV

	}

	provinces={
		236 3210 3278 3297 3362 6243 6387 9253 9272 9382 11336 
	}
	manpower=576210
	buildings_max_level_factor=1.000
	state_category=rural
}
