
state={
	id=277
	name="STATE_277"

	history={
		owner = MEX
		buildings = {
			infrastructure = 5
			arms_factory = 2
			industrial_complex = 4
			air_base = 3

		}
		add_core_of = MEX
		victory_points = {
			1965 10 
		}

	}

	provinces={
		1965 2008 2011 7913 12755 
	}
	manpower=3424403
	buildings_max_level_factor=1.000
	state_category=city
}
