
state={
	id=303
	name="STATE_303"
	resources={
		oil=14.000
	}

	history={
		owner = PRU
		buildings = {
			infrastructure = 3
			arms_factory = 1
			industrial_complex = 6
			air_base = 3
			12997 = {
				naval_base = 5

			}

		}
		add_core_of = PRU
		victory_points = {
			12997 5 
		}

	}

	provinces={
		2156 2162 5190 8199 12969 12983 12997 
	}
	manpower=3563249
	buildings_max_level_factor=1.000
	state_category=large_city
}
