
state={
	id=328
	name="STATE_328"
	resources={
		aluminium=7.000
	}

	history={
		owner = MAN
		add_core_of = CHI
		add_core_of = MAN
		add_core_of = PRC
		buildings = {
			infrastructure = 4

		}
		victory_points = {
			4572 1 
		}
		victory_points = {
			10433 1 
		}
		1946.1.1 = {
			owner = SOV
			controller = SOV
		}
	}

	provinces={
		800 861 927 945 946 1567 3839 3888 3929 3932 3947 3949 3970 4572 6860 6868 6905 6910 6947 6981 7523 7591 7652 7663 9759 9782 9803 9841 9848 9866 9883 9913 9928 10433 11744 11781 11823 11850 11862 11864 12412 
	}
	manpower=7536266
	buildings_max_level_factor=1.000
	state_category=rural
}
