state=
{
	id=337
	name="STATE_337"
	manpower = 25900
	
	state_category = enclave
	
	history=
	{
		owner = DEN
		buildings = {
			infrastructure = 4
			13003 = {
				naval_base = 1
			}
		}
		add_core_of = DEN
		1940.5.10 = {
			owner = ENG
		}
		1946.1.1 = {
			owner = DEN
		}
	}
	provinces= { 13003 }
}
