
state={
	id=442
	name="STATE_442"

	history={
		owner = RAJ
		buildings = {
			infrastructure = 3
			air_base = 3

		}
		add_core_of = PAK
		1950.1.1 = {
			owner = PAK
		}
	}

	provinces={
		1978 4558 4998 12717 12763 
	}
	manpower=4684400
	buildings_max_level_factor=1.000
	state_category=rural
}
