
state={
	id=446
	name="STATE_446"

	history={
		owner = ENG
		buildings = {
			infrastructure = 5
			industrial_complex = 1
			air_base = 5

		}
		victory_points = {
			7011 5 
		}
		add_core_of = EGY
		1946.1.1 = {
			owner = EGY

		}

	}

	provinces={
		992 1068 3996 4055 4143 7011 7117 7188 10031 12004 
	}
	manpower=6467961
	buildings_max_level_factor=1.000
	state_category=town
}
