
state={
	id=461
	name="STATE_461"

	history={
		owner = FRA
		add_core_of = MOR
		victory_points = {
			7069 10 
		}
		buildings = {
			infrastructure = 3
			industrial_complex = 1
			air_base = 4
			7069 = {
				naval_base = 4

			}

		}
		1941.6.20 = {
			owner = VIC
		}
		1942.11.22 = {
			owner = FRA
		}
		1960.1.1 = {
			owner = MOR
		}
	}

	provinces={
		1079 1194 4084 4097 4139 7069 7100 7173 10013 10023 10070 11943 11987 12042 
	}
	manpower=3197719
	buildings_max_level_factor=1.000
	state_category=rural
}
