
state={
	id=53
	name="STATE_53"
	manpower = 1453365
	
	state_category = city

	history={
		owner = GER
		buildings = {
			infrastructure = 6
		}
		add_core_of = GER
		1946.1.1 = {
			owner = USA
			controller = USA
		}	
		1950.1.1 = {
			owner = WGR
		}		
	}

	provinces={
		532 571 586 3299 3541 3571 6725 9515 9681 11497 
	}
}
