
state={
	id=662
	name="STATE_662"

	history={
		owner = ITA
		buildings = {
			infrastructure = 1

		}
		add_core_of = LBA
		1943.7.26 = {
			owner = ITA
			controller = ENG
		}
		1944.6.20 = {
			owner = ENG
			controller = ENG
		}
		1953.3.7 = {
			owner = LBA
			controller = LBA
		}		
	}

	provinces={
		7136 7194 8069 13073 
	}
	manpower=13213
	buildings_max_level_factor=1.000
	state_category=wasteland
}
