
state={
	id=67
	name="STATE_67"
	resources={
		steel=38.000
		aluminium=13.000
	}

	history={
		owner = GER
		buildings = {
			infrastructure = 6

		}
		add_core_of = GER
		1946.1.1 = {
			owner = POL
			controller = POL

		}

	}

	provinces={
		479 6512 9457 9511 11467 
	}
	manpower=1402591
	buildings_max_level_factor=1.000
	state_category=city
}
