
state={
	id=763
	name="STATE_763"
	resources={
		steel=16.000
	}

	history={
		owner = FRA
		buildings = {
			infrastructure = 7
			industrial_complex = 1
			air_base = 2

		}
		add_core_of = FRA
		1941.6.22 = {
			owner = FRA
			controller = GER
			add_core_of = VIC

		}
		1945.1.1 = {
			owner = FRA
			controller = FRA

		}
		1946.1.1 = {
			remove_core_of = VIC

		}

	}

	provinces={
		3546 6545 9472 9505 11488 11642 
	}
	manpower=576326
	buildings_max_level_factor=1.000
	state_category=town
}
