
state={
	id=776
	name="STATE_776"

	history={
		owner = SPR
		victory_points = {
			740 3 
		}
		buildings = {
			infrastructure = 6
			arms_factory = 1
			industrial_complex = 2
			air_base = 1
			740 = {
				naval_base = 1

			}

		}
		add_core_of = SPR

	}

	provinces={
		738 740 3735 6756 9703 11684 11688 
	}
	manpower=891710
	buildings_max_level_factor=1.000
	state_category=city
}
