state={
    id=792
    name="STATE_792"
    
    history={
        owner = BEL
        buildings = {
            infrastructure = 2 
        }
        add_core_of = BRD
        1972.1.1 = {
            owner = BRD
        }      
    }
    provinces={
        2220
    }
    manpower=2115000
    buildings_max_level_factor=1.000
    state_category=rural
}