
state={
	id=823
	name="STATE_823"

	history={
		victory_points = {
			1201 5 
		}
		owner = ENG
		buildings = {
			infrastructure = 4
			4206 = {
				naval_base = 3

			}

		}
		add_core_of = PAL
		add_core_of = ISR
		1950.1.1 = {
			owner = ISR
		}
	}

	provinces={
		1201 4206 13212 
	}
	manpower=221000
	buildings_max_level_factor=1.000
	state_category=pastoral
}
