
state={
	id=840
	name="STATE_840"

	impassable = yes
	history={
		owner = ENG
		buildings = {
			infrastructure = 0

		}
		add_core_of = EGY
		add_core_of = SUD
		1960.1.1 = {
			owner = SUD
		}
	}

	provinces={
		7987 10900 
	}
	manpower=26539
	buildings_max_level_factor=1.000
	state_category=wasteland
}
