state={
	id=881
	name="STATE_881"
	
	history={
		owner = MAL
		buildings = {
			infrastructure = 3

		}
		add_core_of = MAL

	}
	
	provinces={
		7387 
	}
	manpower=48001
	buildings_max_level_factor=1.000
	state_category=pastoral
}
