state={
	id=900
	name="STATE_900"
	
	history={
		owner = GRE
		buildings = {
			infrastructure = 3

		}
		add_core_of = GRE
		add_claim_by = BUL
		1941.6.22 = {
			owner = GER
			controller = GER

		}
		1944.6.20 = {
			owner = BUL
			controller = BUL

		}
		1946.1.1 = {
			owner = GRE
			controller = GRE

		}

	}
	
	provinces={
		895 3526 3936 
	}
	manpower=105908
	buildings_max_level_factor=1.000
	state_category=rural
}
