﻿

division_template = {
	name = "Infantry Division"		
	# Note: Represents both regular infantry and militia units
	regiments = {
		infantry = { x = 0 y = 0 }
		infantry = { x = 0 y = 1 }

		infantry = { x = 1 y = 0 }
		infantry = { x = 1 y = 1 }

		infantry = { x = 2 y = 0 }
		infantry = { x = 2 y = 1 }
	}
}



units = {
	
}


### No air forces (small handful of various aircraft in 1935) ###

#########################
## STARTING PRODUCTION ##
#########################

instant_effect = {

	add_equipment_production = {
		equipment = {
			type = Small_Arms_equipment_1918
			creator = "ANG"
		}
		requested_factories = 2
		progress = 0.1
		efficiency = 50
	}

}

#################################