﻿division_template = {
	name = "Piyade Tümeni"  			# Infantry Division

	regiments = {
		infantry = { x = 0 y = 0 }
		infantry = { x = 0 y = 1 }
		infantry = { x = 0 y = 2 }
		infantry = { x = 1 y = 0 }
		infantry = { x = 1 y = 1 }
		infantry = { x = 1 y = 2 }
		infantry = { x = 2 y = 0 }
		infantry = { x = 2 y = 1 }
		infantry = { x = 2 y = 2 }
	}
}
division_template = {
	name = "Dag Tugayi" 				# Mountain Brigade

	regiments = {
		mountaineers = { x = 0 y = 0 }
		mountaineers = { x = 0 y = 1 }
		mountaineers = { x = 0 y = 2 }
		mountaineers = { x = 1 y = 0 }
		mountaineers = { x = 1 y = 1 }
		mountaineers = { x = 1 y = 2 }
	}
}
division_template = {
	name = "Bogazi Tugay" 				# Fortress Brigade - garrison brigade, lower experience and equipment

	regiments = {
		garrison = { x = 0 y = 0 }
		garrison = { x = 0 y = 1 }
		garrison = { x = 0 y = 2 }
		garrison = { x = 1 y = 0 }
		garrison = { x = 1 y = 1 }
		garrison = { x = 1 y = 2 }
	}
	priority = 0
}
division_template = {
	name = "Süvari Tümeni" 				# Cavalry Division

	regiments = {
		cavalry = { x = 0 y = 0 }
		cavalry = { x = 0 y = 1 }
		cavalry = { x = 0 y = 2 }
		cavalry = { x = 0 y = 3 }
		cavalry = { x = 1 y = 0 }
		cavalry = { x = 1 y = 1 }
		cavalry = { x = 1 y = 2 }
		cavalry = { x = 1 y = 3 }
	}
}

units = {
	######## LAND UNITS ########
	##### Türk Ordusu #####
	division = {
		name = "14. Süvari Tümeni"
		location = 11811
		division_template = "Süvari Tümeni" 
		start_experience_factor = 0.2
		start_equipment_factor = 0.5

	}
	## VI. Kolordu ##
	division = {
		name = "7. Piyade Tümeni"
		location = 11811
		division_template = "Piyade Tümeni" 
		start_experience_factor = 0.2
		start_equipment_factor = 0.5

	}
	division = {
		name = "17. Piyade Tümeni"
		location = 11811
		division_template = "Piyade Tümeni" 
		start_experience_factor = 0.2
		start_equipment_factor = 0.5

	}
	division = {
		name = "20. Piyade Tümeni"
		location = 11811
		division_template = "Piyade Tümeni" 
		start_experience_factor = 0.2
		start_equipment_factor = 0.5

	}

	### Birinci Ordu ###
	division = {
		name = "11. Piyade Tümeni"
		location = 9833
		division_template = "Piyade Tümeni" 
		start_experience_factor = 0.2
		start_equipment_factor = 0.5

	}
	division = {
		name = "2. Süvari Tümeni"
		location = 9833
		division_template = "Süvari Tümeni" 
		start_experience_factor = 0.2
		start_equipment_factor = 0.5

	}
	## III. Kolordu ##
	division = {
		name = "1. Piyade Tümeni"
		location = 11842
		division_template = "Piyade Tümeni" 
		start_experience_factor = 0.2
		start_equipment_factor = 0.5

	}
	division = {
		name = "23. Piyade Tümeni"
		location = 3893
		division_template = "Piyade Tümeni" 
		start_experience_factor = 0.2
		start_equipment_factor = 0.5

	}
	division = {
		name = "24. Piyade Tümeni"
		location = 11842
		division_template = "Piyade Tümeni" 
		start_experience_factor = 0.2
		start_equipment_factor = 0.5

	}
	## IV. Kolordu ##
	division = {
		name = "8. Piyade Tümeni"
		location = 6895
		division_template = "Piyade Tümeni" 
		start_experience_factor = 0.2
		start_equipment_factor = 0.5

	}
	division = {
		name = "22. Piyade Tümeni"
		location = 6895
		division_template = "Piyade Tümeni" 
		start_experience_factor = 0.2
		start_equipment_factor = 0.5

	}
	division = {
		name = "1. Dag Tugayi"
		location = 6895
		division_template = "Dag Tugayi" 
		start_experience_factor = 0.2
		start_equipment_factor = 0.5

	}

	### Ikinci Ordu Ordu ###
	division = {
		name = "39. Dag Tugayi"
		location = 947
		division_template = "Dag Tugayi" 
		start_experience_factor = 0.2
		start_equipment_factor = 0.5

	}
	## I. Kolordu ##
	division = {
		name = "6. Piyade Tümeni"
		location = 4112
		division_template = "Piyade Tümeni" 
		start_experience_factor = 0.2
		start_equipment_factor = 0.5

	}
	division = {
		name = "16. Piyade Tümeni"
		location = 4112
		division_template = "Piyade Tümeni" 
		start_experience_factor = 0.2
		start_equipment_factor = 0.5

	}
	division = {
		name = "Çanakkale Bogazi Tugay"
		location = 4112
		division_template = "Bogazi Tugay"
		force_equipment_variants = { Small_Arms_equipment_1918 = { owner = "TUR" } }
		start_experience_factor = 0.1
		start_equipment_factor = 0.3

	}
	## II.  Kolordu ##
	division = {
		name = "4. Piyade Tümeni"
		location = 849
		division_template = "Piyade Tümeni" 
		start_experience_factor = 0.2
		start_equipment_factor = 0.5

	}
	division = {
		name = "18. Dag Tugayi"
		location = 849
		division_template = "Dag Tugayi" 
		start_experience_factor = 0.2
		start_equipment_factor = 0.5

	}
	## V. Kolordu ##
	division = {
		name = "5. Piyade Tümeni"
		location = 947
		division_template = "Piyade Tümeni" 
		start_experience_factor = 0.2
		start_equipment_factor = 0.5

	}
	division = {
		name = "25. Piyade Tümeni"
		location = 947
		division_template = "Piyade Tümeni" 
		start_experience_factor = 0.2
		start_equipment_factor = 0.5

	}

	### Üçüncüsü Ordu ###
	## VII. Kolordu ##
	division = {
		name = "2. Piyade Tümeni"
		location = 4512
		division_template = "Piyade Tümeni" 
		start_experience_factor = 0.2
		start_equipment_factor = 0.5

	}
	division = {
		name = "10. Piyade Tümeni"
		location = 4512
		division_template = "Piyade Tümeni" 
		start_experience_factor = 0.2
		start_equipment_factor = 0.5

	}
	## VIII. Kolordu ##
	division = {
		name = "12. Piyade Tümeni"
		location = 11894
		division_template = "Piyade Tümeni" 
		start_experience_factor = 0.2
		start_equipment_factor = 0.5

	}
	division = {
		name = "15. Piyade Tümeni"
		location = 11894
		division_template = "Piyade Tümeni" 
		start_experience_factor = 0.2
		start_equipment_factor = 0.5

	}
	## IX. Kolordu ##
	division = {
		name = "3. Piyade Tümeni"
		location = 10403
		division_template = "Piyade Tümeni" 
		start_experience_factor = 0.2
		start_equipment_factor = 0.5

	}
	division = {
		name = "9. Piyade Tümeni"
		location = 10472
		division_template = "Piyade Tümeni" 
		start_experience_factor = 0.2
		start_equipment_factor = 0.5

	}
	division = {
		name = "1. Süvari Tümeni"
		location = 10472
		division_template = "Süvari Tümeni" 
		start_experience_factor = 0.2
		start_equipment_factor = 0.5

	}

	##### NAVAL UNITS #####
	### Türk Donanmasi ###
	navy = {				
		name = "Türkce Deniz Filosu"			
		base = 4112 
		location = 4112 # Izmir

		ship = { name = "1. Filotilla Torpido Ve Denizalti" definition = destroyer equipment = { DD_equipment_1885 = { amount = 1 owner = TUR } } }
			

	}				
	navy = {				
		name = "1. Türk Dz. Kuvvetleri Filosu"			
		base = 4112 
		location = 4112 # Izmir
		
		ship = { name = "TDT Yavuz" definition = battle_cruiser equipment = { BC_equipment_1912 = { amount = 1 owner = TUR } } }		
		
		ship = { name = "TDT Medjidieh" definition = light_cruiser equipment = { CL_equipment_1885 = { amount = 1 owner = TUR } } }
		ship = { name = "TDT Hamidieh" definition = light_cruiser equipment = { CL_equipment_1885 = { amount = 1 owner = TUR } } }	
		
		ship = { name = "2. Filotilla Torpido Ve Denizalti" definition = destroyer equipment = { DD_equipment_1922 = { amount = 1 owner = TUR } } }	
	}		

	navy = {				
		name = "2. Türk Dz. Kuvvetleri Filosu"			
		base = 4112 
		location = 4112 # Izmir

		ship = { name = "1. Filotilla Denizalti Kücük" definition = submarine equipment = { SS_equipment_1922 = { amount = 1 owner = TUR } } }		
	}		
}


### Air Wings ###
air_wings = {
	##### Türk Hava Kuvvetleri #####
	341 = { 
		# 1. Havacilik Alay -- Curtiss F11C Hawk II fighters (technically CAG fighters)
		Fighter_equipment_1933 = {
			owner = "TUR" 
			amount = 45
		}
		# 2. Havacilik Alay -- Letov S.16T light bombers
		CAS_equipment_1 = {
			owner = "TUR" 
			amount = 16
		}
	}
}


### Starting Production ###
instant_effect = {
	add_equipment_production = {
		equipment = {
			type = Small_Arms_equipment_1936
			creator = "TUR"
		}
		requested_factories = 1
		progress = 0.43
		efficiency = 100
	}
	add_equipment_production = {
		equipment = {
			type = Fighter_equipment_1933
			creator = "TUR"
		}
		requested_factories = 1
		progress = 0.47
		efficiency = 100
	}
}