﻿division_template = {
	name = "División de Infanteria"	          # Infantry Division

	regiments = {
		infantry = { x = 0 y = 0 }
		infantry = { x = 0 y = 1 }
		infantry = { x = 1 y = 0 }
		infantry = { x = 1 y = 1 }
		infantry = { x = 2 y = 0 }
		infantry = { x = 2 y = 1 }
	}
}

units = {
    ##### Armada Nacional #####
    division = {
        name = "1a Division de Infanteria"
        location = 8113 # Caracas
        division_template = "División de Infanteria"
        start_experience_factor = 0.1
        start_equipment_factor = 0.15
    }

    division = {
        name = "2a Division de Infanteria"
        location = 8113 # Caracas
        division_template = "División de Infanteria"
        start_experience_factor = 0.1
        start_equipment_factor = 0.15
    }

    division = {
        name = "3a Division de Infanteria"
        location = 8113 # Caracas
        division_template = "División de Infanteria"
        start_experience_factor = 0.1
        start_equipment_factor = 0.15
    }
}
### Starting Production ###
instant_effect = {
	add_equipment_production = {
		equipment = {
			type = Small_Arms_equipment_1918
			creator = "VEN"
		}
		requested_factories = 1
		progress = 0.72
		efficiency = 100
	}
}